Last Modified Date & Time: 02/22/2016 17:12:12

CE95314_P4200: TopDesign.cysch
	Buttons [v1.80] to [v1.90]
	EZI2C [v1.20] to [v3.10]
	I2CM [v1.20] to [v3.10]
	SW [v2.5] to [v2.20]
	RedLED [v2.5] to [v2.20]
	GrnLED [v2.5] to [v2.20]
	BluLED [v2.5] to [v2.20]
	LEDs [v1.70] to [v1.80]

CE95314_P4200: CE95314_P4200.cydwr
	cy_boot [v4.11] to [v5.30]


