ARM GAS  C:\Users\DELL\AppData\Local\Temp\ccQikhSB.s 			page 1


   1              		.cpu cortex-m0
   2              		.fpu softvfp
   3              		.eabi_attribute 20, 1
   4              		.eabi_attribute 21, 1
   5              		.eabi_attribute 23, 3
   6              		.eabi_attribute 24, 1
   7              		.eabi_attribute 25, 1
   8              		.eabi_attribute 26, 1
   9              		.eabi_attribute 30, 6
  10              		.eabi_attribute 34, 0
  11              		.eabi_attribute 18, 4
  12              		.code	16
  13              		.file	"main.c"
  14              		.text
  15              	.Ltext0:
  16              		.cfi_sections	.debug_frame
  17              		.global	ezI2cBuffer
  18              		.data
  19              		.align	2
  20              		.type	ezI2cBuffer, %object
  21              		.size	ezI2cBuffer, 6
  22              	ezI2cBuffer:
  23 0000 01       		.byte	1
  24 0001 FF       		.byte	-1
  25 0002 17       		.byte	23
  26 0003 01       		.byte	1
  27 0004 FF       		.byte	-1
  28 0005 17       		.byte	23
  29 0006 0000     		.section	.text.main,"ax",%progbits
  30              		.align	2
  31              		.global	main
  32              		.code	16
  33              		.thumb_func
  34              		.type	main, %function
  35              	main:
  36              	.LFB37:
  37              		.file 1 ".\\main.c"
   1:.\main.c      **** /*******************************************************************************
   2:.\main.c      **** * File Name: main.c
   3:.\main.c      **** *
   4:.\main.c      **** * Version: 1.20
   5:.\main.c      **** *
   6:.\main.c      **** * Description:
   7:.\main.c      **** *  This example project demonstrates the basic operation of the EZI2C slave
   8:.\main.c      **** *  (SCB mode) component. The EZI2C slave accepts a packet with a command from
   9:.\main.c      **** *  the I2C master to control the RGB LED color. The EZI2C slave updates its
  10:.\main.c      **** *  buffer with the status packet in response to the accepted command.
  11:.\main.c      **** *  For more information refer to example project datasheet.
  12:.\main.c      **** *
  13:.\main.c      **** ********************************************************************************
  14:.\main.c      **** * Copyright 2014-2015, Cypress Semiconductor Corporation. All rights reserved.
  15:.\main.c      **** * This software is owned by Cypress Semiconductor Corporation and is protected
  16:.\main.c      **** * by and subject to worldwide patent and copyright laws and treaties.
  17:.\main.c      **** * Therefore, you may use this software only as provided in the license agreement
  18:.\main.c      **** * accompanying the software package from which you obtained this software.
  19:.\main.c      **** * CYPRESS AND ITS SUPPLIERS MAKE NO WARRANTY OF ANY KIND, EXPRESS OR IMPLIED,
  20:.\main.c      **** * WITH REGARD TO THIS SOFTWARE, INCLUDING, BUT NOT LIMITED TO, NONINFRINGEMENT,
ARM GAS  C:\Users\DELL\AppData\Local\Temp\ccQikhSB.s 			page 2


  21:.\main.c      **** * IMPLIED WARRANTIES OF MERCHANTABILITY AND FITNESS FOR A PARTICULAR PURPOSE.
  22:.\main.c      **** *******************************************************************************/
  23:.\main.c      **** 
  24:.\main.c      **** #include <main.h>
  25:.\main.c      **** 
  26:.\main.c      **** /* EZI2C slave buffer for write and read */
  27:.\main.c      **** uint8 ezI2cBuffer[BUFFER_SIZE] = {PACKET_SOP, STS_CMD_FAIL, PACKET_EOP, \
  28:.\main.c      ****                                   PACKET_SOP, STS_CMD_FAIL, PACKET_EOP};
  29:.\main.c      **** 
  30:.\main.c      **** 
  31:.\main.c      **** /*******************************************************************************
  32:.\main.c      **** * Function Name: main
  33:.\main.c      **** ********************************************************************************
  34:.\main.c      **** * Summary:
  35:.\main.c      **** *  The main function performs the following actions:
  36:.\main.c      **** *   1. Turns off RGB LED.
  37:.\main.c      **** *   2. Sets up EZI2C slave buffer.
  38:.\main.c      **** *   3. Starts I2C slave (SCB mode) component.
  39:.\main.c      **** *   4. Enables global interrupts.
  40:.\main.c      **** *   5. Waits for command from the I2C master to control the RGB LED.
  41:.\main.c      **** *
  42:.\main.c      **** * Parameters:
  43:.\main.c      **** *  None
  44:.\main.c      **** *
  45:.\main.c      **** * Return:
  46:.\main.c      **** *  None
  47:.\main.c      **** *
  48:.\main.c      **** *******************************************************************************/
  49:.\main.c      **** int main()
  50:.\main.c      **** {
  38              		.loc 1 50 0
  39              		.cfi_startproc
  40 0000 90B5     		push	{r4, r7, lr}
  41              		.cfi_def_cfa_offset 12
  42              		.cfi_offset 4, -12
  43              		.cfi_offset 7, -8
  44              		.cfi_offset 14, -4
  45 0002 83B0     		sub	sp, sp, #12
  46              		.cfi_def_cfa_offset 24
  47 0004 00AF     		add	r7, sp, #0
  48              		.cfi_def_cfa_register 7
  51:.\main.c      ****     uint8 status = STS_CMD_FAIL;
  49              		.loc 1 51 0
  50 0006 FB1D     		add	r3, r7, #7
  51 0008 FF22     		mov	r2, #255
  52 000a 1A70     		strb	r2, [r3]
  52:.\main.c      **** 
  53:.\main.c      ****     RGB_LED_OFF;
  53              		.loc 1 53 0
  54 000c 0120     		mov	r0, #1
  55 000e FFF7FEFF 		bl	LED_RED_Write
  56 0012 0120     		mov	r0, #1
  57 0014 FFF7FEFF 		bl	LED_GREEN_Write
  58 0018 0120     		mov	r0, #1
  59 001a FFF7FEFF 		bl	LED_BLUE_Write
  54:.\main.c      **** 
  55:.\main.c      ****     /* Setup buffer and start EZI2C slave (SCB mode) */
ARM GAS  C:\Users\DELL\AppData\Local\Temp\ccQikhSB.s 			page 3


  56:.\main.c      ****     EZI2C_EzI2CSetBuffer1(BUFFER_SIZE, READ_ONLY_OFFSET, ezI2cBuffer);
  60              		.loc 1 56 0
  61 001e 134B     		ldr	r3, .L5
  62 0020 0620     		mov	r0, #6
  63 0022 0321     		mov	r1, #3
  64 0024 1A1C     		mov	r2, r3
  65 0026 FFF7FEFF 		bl	EZI2C_EzI2CSetBuffer1
  57:.\main.c      ****     EZI2C_Start();
  66              		.loc 1 57 0
  67 002a FFF7FEFF 		bl	EZI2C_Start
  58:.\main.c      **** 
  59:.\main.c      ****     CyGlobalIntEnable;
  68              		.loc 1 59 0
  69              	@ 59 ".\main.c" 1
  70 002e 62B6     		CPSIE   i
  71              	@ 0 "" 2
  72              		.code	16
  73              	.L4:
  60:.\main.c      **** 
  61:.\main.c      ****     for(;;)
  62:.\main.c      ****     {
  63:.\main.c      ****         /* Write complete: parse packet */
  64:.\main.c      ****         if (0u != (EZI2C_EzI2CGetActivity() & EZI2C_EZI2C_STATUS_WRITE1))
  74              		.loc 1 64 0
  75 0030 FFF7FEFF 		bl	EZI2C_EzI2CGetActivity
  76 0034 021C     		mov	r2, r0
  77 0036 0823     		mov	r3, #8
  78 0038 1340     		and	r3, r2
  79 003a 16D0     		beq	.L2
  65:.\main.c      ****         {
  66:.\main.c      ****             /* Check start and end of packet markers */
  67:.\main.c      ****             if ((ezI2cBuffer[PACKET_SOP_POS] == PACKET_SOP) &&
  80              		.loc 1 67 0
  81 003c 0B4B     		ldr	r3, .L5
  82 003e 1B78     		ldrb	r3, [r3]
  83 0040 012B     		cmp	r3, #1
  84 0042 0BD1     		bne	.L3
  68:.\main.c      ****                 (ezI2cBuffer[PACKET_EOP_POS] == PACKET_EOP))
  85              		.loc 1 68 0 discriminator 1
  86 0044 094B     		ldr	r3, .L5
  87 0046 9B78     		ldrb	r3, [r3, #2]
  67:.\main.c      ****                 (ezI2cBuffer[PACKET_EOP_POS] == PACKET_EOP))
  88              		.loc 1 67 0 discriminator 1
  89 0048 172B     		cmp	r3, #23
  90 004a 07D1     		bne	.L3
  69:.\main.c      ****             {
  70:.\main.c      ****                 status = ExecuteCommand(ezI2cBuffer[PACKET_CMD_POS]);
  91              		.loc 1 70 0
  92 004c 074B     		ldr	r3, .L5
  93 004e 5B78     		ldrb	r3, [r3, #1]
  94 0050 FC1D     		add	r4, r7, #7
  95 0052 181C     		mov	r0, r3
  96 0054 FFF7FEFF 		bl	ExecuteCommand
  97 0058 031C     		mov	r3, r0
  98 005a 2370     		strb	r3, [r4]
  99              	.L3:
  71:.\main.c      ****             }
ARM GAS  C:\Users\DELL\AppData\Local\Temp\ccQikhSB.s 			page 4


  72:.\main.c      **** 
  73:.\main.c      ****             /* Update buffer with status */
  74:.\main.c      ****             ezI2cBuffer[PACKET_STS_POS] = status;
 100              		.loc 1 74 0
 101 005c 034B     		ldr	r3, .L5
 102 005e FA1D     		add	r2, r7, #7
 103 0060 1278     		ldrb	r2, [r2]
 104 0062 1A71     		strb	r2, [r3, #4]
  75:.\main.c      ****             status = STS_CMD_FAIL;
 105              		.loc 1 75 0
 106 0064 FB1D     		add	r3, r7, #7
 107 0066 FF22     		mov	r2, #255
 108 0068 1A70     		strb	r2, [r3]
 109              	.L2:
  76:.\main.c      ****         }
  77:.\main.c      **** 
  78:.\main.c      ****         /* Buffer is always available to be read */
  79:.\main.c      ****     }
 110              		.loc 1 79 0
 111 006a E1E7     		b	.L4
 112              	.L6:
 113              		.align	2
 114              	.L5:
 115 006c 00000000 		.word	ezI2cBuffer
 116              		.cfi_endproc
 117              	.LFE37:
 118              		.size	main, .-main
 119              		.section	.text.ExecuteCommand,"ax",%progbits
 120              		.align	2
 121              		.global	ExecuteCommand
 122              		.code	16
 123              		.thumb_func
 124              		.type	ExecuteCommand, %function
 125              	ExecuteCommand:
 126              	.LFB38:
  80:.\main.c      **** }
  81:.\main.c      **** 
  82:.\main.c      **** 
  83:.\main.c      **** /*******************************************************************************
  84:.\main.c      **** * Function Name: ExecuteCommand
  85:.\main.c      **** ********************************************************************************
  86:.\main.c      **** * Summary:
  87:.\main.c      **** *  Executes received command to control the LED color and returns status.
  88:.\main.c      **** *  If the command is unknown, the LED color is not changed.
  89:.\main.c      **** *
  90:.\main.c      **** * Parameters:
  91:.\main.c      **** *  cmd: command to execute. Available commands:
  92:.\main.c      **** *   - CMD_SET_RED:   set red color of the LED.
  93:.\main.c      **** *   - CMD_SET_GREEN: set green color of the LED.
  94:.\main.c      **** *   - CMD_SET_BLUE:  set blue color of the LED.
  95:.\main.c      **** *   - CMD_SET_OFF:   turn off the LED.
  96:.\main.c      **** *
  97:.\main.c      **** * Return:
  98:.\main.c      **** *  Returns status of command execution. There are two statuses
  99:.\main.c      **** *  - STS_CMD_DONE: command is executed successfully.
 100:.\main.c      **** *  - STS_CMD_FAIL: unknown command
 101:.\main.c      **** *
ARM GAS  C:\Users\DELL\AppData\Local\Temp\ccQikhSB.s 			page 5


 102:.\main.c      **** *******************************************************************************/
 103:.\main.c      **** uint8 ExecuteCommand(uint32 cmd)
 104:.\main.c      **** {
 127              		.loc 1 104 0
 128              		.cfi_startproc
 129 0000 80B5     		push	{r7, lr}
 130              		.cfi_def_cfa_offset 8
 131              		.cfi_offset 7, -8
 132              		.cfi_offset 14, -4
 133 0002 84B0     		sub	sp, sp, #16
 134              		.cfi_def_cfa_offset 24
 135 0004 00AF     		add	r7, sp, #0
 136              		.cfi_def_cfa_register 7
 137 0006 7860     		str	r0, [r7, #4]
 105:.\main.c      ****     uint8 status;
 106:.\main.c      **** 
 107:.\main.c      ****     status = STS_CMD_DONE;
 138              		.loc 1 107 0
 139 0008 0F23     		mov	r3, #15
 140 000a FB18     		add	r3, r7, r3
 141 000c 0022     		mov	r2, #0
 142 000e 1A70     		strb	r2, [r3]
 108:.\main.c      **** 
 109:.\main.c      ****     /* Execute received command */
 110:.\main.c      ****     switch (cmd)
 143              		.loc 1 110 0
 144 0010 7B68     		ldr	r3, [r7, #4]
 145 0012 012B     		cmp	r3, #1
 146 0014 05D0     		beq	.L9
 147 0016 22D3     		bcc	.L10
 148 0018 022B     		cmp	r3, #2
 149 001a 0CD0     		beq	.L11
 150 001c 032B     		cmp	r3, #3
 151 001e 14D0     		beq	.L12
 152 0020 27E0     		b	.L15
 153              	.L9:
 111:.\main.c      ****     {
 112:.\main.c      ****         case CMD_SET_RED:
 113:.\main.c      ****             RGB_LED_ON_RED;
 154              		.loc 1 113 0
 155 0022 0020     		mov	r0, #0
 156 0024 FFF7FEFF 		bl	LED_RED_Write
 157 0028 0120     		mov	r0, #1
 158 002a FFF7FEFF 		bl	LED_GREEN_Write
 159 002e 0120     		mov	r0, #1
 160 0030 FFF7FEFF 		bl	LED_BLUE_Write
 114:.\main.c      ****             break;
 161              		.loc 1 114 0
 162 0034 22E0     		b	.L13
 163              	.L11:
 115:.\main.c      **** 
 116:.\main.c      ****         case CMD_SET_GREEN:
 117:.\main.c      ****             RGB_LED_ON_GREEN;
 164              		.loc 1 117 0
 165 0036 0120     		mov	r0, #1
 166 0038 FFF7FEFF 		bl	LED_RED_Write
 167 003c 0020     		mov	r0, #0
ARM GAS  C:\Users\DELL\AppData\Local\Temp\ccQikhSB.s 			page 6


 168 003e FFF7FEFF 		bl	LED_GREEN_Write
 169 0042 0120     		mov	r0, #1
 170 0044 FFF7FEFF 		bl	LED_BLUE_Write
 118:.\main.c      ****             break;
 171              		.loc 1 118 0
 172 0048 18E0     		b	.L13
 173              	.L12:
 119:.\main.c      **** 
 120:.\main.c      ****         case CMD_SET_BLUE:
 121:.\main.c      ****             RGB_LED_ON_BLUE;
 174              		.loc 1 121 0
 175 004a 0120     		mov	r0, #1
 176 004c FFF7FEFF 		bl	LED_RED_Write
 177 0050 0120     		mov	r0, #1
 178 0052 FFF7FEFF 		bl	LED_GREEN_Write
 179 0056 0020     		mov	r0, #0
 180 0058 FFF7FEFF 		bl	LED_BLUE_Write
 122:.\main.c      ****             break;
 181              		.loc 1 122 0
 182 005c 0EE0     		b	.L13
 183              	.L10:
 123:.\main.c      **** 
 124:.\main.c      ****         case CMD_SET_OFF:
 125:.\main.c      ****             RGB_LED_OFF;
 184              		.loc 1 125 0
 185 005e 0120     		mov	r0, #1
 186 0060 FFF7FEFF 		bl	LED_RED_Write
 187 0064 0120     		mov	r0, #1
 188 0066 FFF7FEFF 		bl	LED_GREEN_Write
 189 006a 0120     		mov	r0, #1
 190 006c FFF7FEFF 		bl	LED_BLUE_Write
 126:.\main.c      ****             break;
 191              		.loc 1 126 0
 192 0070 04E0     		b	.L13
 193              	.L15:
 127:.\main.c      **** 
 128:.\main.c      ****         default:
 129:.\main.c      ****             status = STS_CMD_FAIL;
 194              		.loc 1 129 0
 195 0072 0F23     		mov	r3, #15
 196 0074 FB18     		add	r3, r7, r3
 197 0076 FF22     		mov	r2, #255
 198 0078 1A70     		strb	r2, [r3]
 130:.\main.c      ****         break;
 199              		.loc 1 130 0
 200 007a C046     		mov	r8, r8
 201              	.L13:
 131:.\main.c      ****     }
 132:.\main.c      **** 
 133:.\main.c      ****     return(status);
 202              		.loc 1 133 0
 203 007c 0F23     		mov	r3, #15
 204 007e FB18     		add	r3, r7, r3
 205 0080 1B78     		ldrb	r3, [r3]
 134:.\main.c      **** }
 206              		.loc 1 134 0
 207 0082 181C     		mov	r0, r3
ARM GAS  C:\Users\DELL\AppData\Local\Temp\ccQikhSB.s 			page 7


 208 0084 BD46     		mov	sp, r7
 209 0086 04B0     		add	sp, sp, #16
 210              		@ sp needed
 211 0088 80BD     		pop	{r7, pc}
 212              		.cfi_endproc
 213              	.LFE38:
 214              		.size	ExecuteCommand, .-ExecuteCommand
 215 008a C046     		.text
 216              	.Letext0:
 217              		.file 2 "Generated_Source\\PSoC4/cytypes.h"
 218              		.section	.debug_info,"",%progbits
 219              	.Ldebug_info0:
 220 0000 1B010000 		.4byte	0x11b
 221 0004 0400     		.2byte	0x4
 222 0006 00000000 		.4byte	.Ldebug_abbrev0
 223 000a 04       		.byte	0x4
 224 000b 01       		.uleb128 0x1
 225 000c 5D000000 		.4byte	.LASF16
 226 0010 01       		.byte	0x1
 227 0011 96010000 		.4byte	.LASF17
 228 0015 FE000000 		.4byte	.LASF18
 229 0019 00000000 		.4byte	.Ldebug_ranges0+0
 230 001d 00000000 		.4byte	0
 231 0021 00000000 		.4byte	.Ldebug_line0
 232 0025 02       		.uleb128 0x2
 233 0026 01       		.byte	0x1
 234 0027 06       		.byte	0x6
 235 0028 84010000 		.4byte	.LASF0
 236 002c 02       		.uleb128 0x2
 237 002d 01       		.byte	0x1
 238 002e 08       		.byte	0x8
 239 002f EB000000 		.4byte	.LASF1
 240 0033 02       		.uleb128 0x2
 241 0034 02       		.byte	0x2
 242 0035 05       		.byte	0x5
 243 0036 54010000 		.4byte	.LASF2
 244 003a 02       		.uleb128 0x2
 245 003b 02       		.byte	0x2
 246 003c 07       		.byte	0x7
 247 003d 71010000 		.4byte	.LASF3
 248 0041 02       		.uleb128 0x2
 249 0042 04       		.byte	0x4
 250 0043 05       		.byte	0x5
 251 0044 4B010000 		.4byte	.LASF4
 252 0048 02       		.uleb128 0x2
 253 0049 04       		.byte	0x4
 254 004a 07       		.byte	0x7
 255 004b 34000000 		.4byte	.LASF5
 256 004f 02       		.uleb128 0x2
 257 0050 08       		.byte	0x8
 258 0051 05       		.byte	0x5
 259 0052 00000000 		.4byte	.LASF6
 260 0056 02       		.uleb128 0x2
 261 0057 08       		.byte	0x8
 262 0058 07       		.byte	0x7
 263 0059 46000000 		.4byte	.LASF7
 264 005d 03       		.uleb128 0x3
ARM GAS  C:\Users\DELL\AppData\Local\Temp\ccQikhSB.s 			page 8


 265 005e 04       		.byte	0x4
 266 005f 05       		.byte	0x5
 267 0060 696E7400 		.ascii	"int\000"
 268 0064 02       		.uleb128 0x2
 269 0065 04       		.byte	0x4
 270 0066 07       		.byte	0x7
 271 0067 15000000 		.4byte	.LASF8
 272 006b 04       		.uleb128 0x4
 273 006c 2E000000 		.4byte	.LASF9
 274 0070 02       		.byte	0x2
 275 0071 3801     		.2byte	0x138
 276 0073 2C000000 		.4byte	0x2c
 277 0077 04       		.uleb128 0x4
 278 0078 0E000000 		.4byte	.LASF10
 279 007c 02       		.byte	0x2
 280 007d 3A01     		.2byte	0x13a
 281 007f 48000000 		.4byte	0x48
 282 0083 02       		.uleb128 0x2
 283 0084 04       		.byte	0x4
 284 0085 04       		.byte	0x4
 285 0086 90010000 		.4byte	.LASF11
 286 008a 02       		.uleb128 0x2
 287 008b 08       		.byte	0x8
 288 008c 04       		.byte	0x4
 289 008d 5E010000 		.4byte	.LASF12
 290 0091 02       		.uleb128 0x2
 291 0092 01       		.byte	0x1
 292 0093 08       		.byte	0x8
 293 0094 F9000000 		.4byte	.LASF13
 294 0098 02       		.uleb128 0x2
 295 0099 04       		.byte	0x4
 296 009a 07       		.byte	0x7
 297 009b AE010000 		.4byte	.LASF14
 298 009f 05       		.uleb128 0x5
 299 00a0 22000000 		.4byte	.LASF19
 300 00a4 01       		.byte	0x1
 301 00a5 31       		.byte	0x31
 302 00a6 5D000000 		.4byte	0x5d
 303 00aa 00000000 		.4byte	.LFB37
 304 00ae 70000000 		.4byte	.LFE37-.LFB37
 305 00b2 01       		.uleb128 0x1
 306 00b3 9C       		.byte	0x9c
 307 00b4 C7000000 		.4byte	0xc7
 308 00b8 06       		.uleb128 0x6
 309 00b9 27000000 		.4byte	.LASF15
 310 00bd 01       		.byte	0x1
 311 00be 33       		.byte	0x33
 312 00bf 6B000000 		.4byte	0x6b
 313 00c3 02       		.uleb128 0x2
 314 00c4 91       		.byte	0x91
 315 00c5 6F       		.sleb128 -17
 316 00c6 00       		.byte	0
 317 00c7 07       		.uleb128 0x7
 318 00c8 9F010000 		.4byte	.LASF20
 319 00cc 01       		.byte	0x1
 320 00cd 67       		.byte	0x67
 321 00ce 6B000000 		.4byte	0x6b
ARM GAS  C:\Users\DELL\AppData\Local\Temp\ccQikhSB.s 			page 9


 322 00d2 00000000 		.4byte	.LFB38
 323 00d6 8A000000 		.4byte	.LFE38-.LFB38
 324 00da 01       		.uleb128 0x1
 325 00db 9C       		.byte	0x9c
 326 00dc FD000000 		.4byte	0xfd
 327 00e0 08       		.uleb128 0x8
 328 00e1 636D6400 		.ascii	"cmd\000"
 329 00e5 01       		.byte	0x1
 330 00e6 67       		.byte	0x67
 331 00e7 77000000 		.4byte	0x77
 332 00eb 02       		.uleb128 0x2
 333 00ec 91       		.byte	0x91
 334 00ed 6C       		.sleb128 -20
 335 00ee 06       		.uleb128 0x6
 336 00ef 27000000 		.4byte	.LASF15
 337 00f3 01       		.byte	0x1
 338 00f4 69       		.byte	0x69
 339 00f5 6B000000 		.4byte	0x6b
 340 00f9 02       		.uleb128 0x2
 341 00fa 91       		.byte	0x91
 342 00fb 77       		.sleb128 -9
 343 00fc 00       		.byte	0
 344 00fd 09       		.uleb128 0x9
 345 00fe 6B000000 		.4byte	0x6b
 346 0102 0D010000 		.4byte	0x10d
 347 0106 0A       		.uleb128 0xa
 348 0107 98000000 		.4byte	0x98
 349 010b 05       		.byte	0x5
 350 010c 00       		.byte	0
 351 010d 0B       		.uleb128 0xb
 352 010e 65010000 		.4byte	.LASF21
 353 0112 01       		.byte	0x1
 354 0113 1B       		.byte	0x1b
 355 0114 FD000000 		.4byte	0xfd
 356 0118 05       		.uleb128 0x5
 357 0119 03       		.byte	0x3
 358 011a 00000000 		.4byte	ezI2cBuffer
 359 011e 00       		.byte	0
 360              		.section	.debug_abbrev,"",%progbits
 361              	.Ldebug_abbrev0:
 362 0000 01       		.uleb128 0x1
 363 0001 11       		.uleb128 0x11
 364 0002 01       		.byte	0x1
 365 0003 25       		.uleb128 0x25
 366 0004 0E       		.uleb128 0xe
 367 0005 13       		.uleb128 0x13
 368 0006 0B       		.uleb128 0xb
 369 0007 03       		.uleb128 0x3
 370 0008 0E       		.uleb128 0xe
 371 0009 1B       		.uleb128 0x1b
 372 000a 0E       		.uleb128 0xe
 373 000b 55       		.uleb128 0x55
 374 000c 17       		.uleb128 0x17
 375 000d 11       		.uleb128 0x11
 376 000e 01       		.uleb128 0x1
 377 000f 10       		.uleb128 0x10
 378 0010 17       		.uleb128 0x17
ARM GAS  C:\Users\DELL\AppData\Local\Temp\ccQikhSB.s 			page 10


 379 0011 00       		.byte	0
 380 0012 00       		.byte	0
 381 0013 02       		.uleb128 0x2
 382 0014 24       		.uleb128 0x24
 383 0015 00       		.byte	0
 384 0016 0B       		.uleb128 0xb
 385 0017 0B       		.uleb128 0xb
 386 0018 3E       		.uleb128 0x3e
 387 0019 0B       		.uleb128 0xb
 388 001a 03       		.uleb128 0x3
 389 001b 0E       		.uleb128 0xe
 390 001c 00       		.byte	0
 391 001d 00       		.byte	0
 392 001e 03       		.uleb128 0x3
 393 001f 24       		.uleb128 0x24
 394 0020 00       		.byte	0
 395 0021 0B       		.uleb128 0xb
 396 0022 0B       		.uleb128 0xb
 397 0023 3E       		.uleb128 0x3e
 398 0024 0B       		.uleb128 0xb
 399 0025 03       		.uleb128 0x3
 400 0026 08       		.uleb128 0x8
 401 0027 00       		.byte	0
 402 0028 00       		.byte	0
 403 0029 04       		.uleb128 0x4
 404 002a 16       		.uleb128 0x16
 405 002b 00       		.byte	0
 406 002c 03       		.uleb128 0x3
 407 002d 0E       		.uleb128 0xe
 408 002e 3A       		.uleb128 0x3a
 409 002f 0B       		.uleb128 0xb
 410 0030 3B       		.uleb128 0x3b
 411 0031 05       		.uleb128 0x5
 412 0032 49       		.uleb128 0x49
 413 0033 13       		.uleb128 0x13
 414 0034 00       		.byte	0
 415 0035 00       		.byte	0
 416 0036 05       		.uleb128 0x5
 417 0037 2E       		.uleb128 0x2e
 418 0038 01       		.byte	0x1
 419 0039 3F       		.uleb128 0x3f
 420 003a 19       		.uleb128 0x19
 421 003b 03       		.uleb128 0x3
 422 003c 0E       		.uleb128 0xe
 423 003d 3A       		.uleb128 0x3a
 424 003e 0B       		.uleb128 0xb
 425 003f 3B       		.uleb128 0x3b
 426 0040 0B       		.uleb128 0xb
 427 0041 49       		.uleb128 0x49
 428 0042 13       		.uleb128 0x13
 429 0043 11       		.uleb128 0x11
 430 0044 01       		.uleb128 0x1
 431 0045 12       		.uleb128 0x12
 432 0046 06       		.uleb128 0x6
 433 0047 40       		.uleb128 0x40
 434 0048 18       		.uleb128 0x18
 435 0049 9642     		.uleb128 0x2116
ARM GAS  C:\Users\DELL\AppData\Local\Temp\ccQikhSB.s 			page 11


 436 004b 19       		.uleb128 0x19
 437 004c 01       		.uleb128 0x1
 438 004d 13       		.uleb128 0x13
 439 004e 00       		.byte	0
 440 004f 00       		.byte	0
 441 0050 06       		.uleb128 0x6
 442 0051 34       		.uleb128 0x34
 443 0052 00       		.byte	0
 444 0053 03       		.uleb128 0x3
 445 0054 0E       		.uleb128 0xe
 446 0055 3A       		.uleb128 0x3a
 447 0056 0B       		.uleb128 0xb
 448 0057 3B       		.uleb128 0x3b
 449 0058 0B       		.uleb128 0xb
 450 0059 49       		.uleb128 0x49
 451 005a 13       		.uleb128 0x13
 452 005b 02       		.uleb128 0x2
 453 005c 18       		.uleb128 0x18
 454 005d 00       		.byte	0
 455 005e 00       		.byte	0
 456 005f 07       		.uleb128 0x7
 457 0060 2E       		.uleb128 0x2e
 458 0061 01       		.byte	0x1
 459 0062 3F       		.uleb128 0x3f
 460 0063 19       		.uleb128 0x19
 461 0064 03       		.uleb128 0x3
 462 0065 0E       		.uleb128 0xe
 463 0066 3A       		.uleb128 0x3a
 464 0067 0B       		.uleb128 0xb
 465 0068 3B       		.uleb128 0x3b
 466 0069 0B       		.uleb128 0xb
 467 006a 27       		.uleb128 0x27
 468 006b 19       		.uleb128 0x19
 469 006c 49       		.uleb128 0x49
 470 006d 13       		.uleb128 0x13
 471 006e 11       		.uleb128 0x11
 472 006f 01       		.uleb128 0x1
 473 0070 12       		.uleb128 0x12
 474 0071 06       		.uleb128 0x6
 475 0072 40       		.uleb128 0x40
 476 0073 18       		.uleb128 0x18
 477 0074 9642     		.uleb128 0x2116
 478 0076 19       		.uleb128 0x19
 479 0077 01       		.uleb128 0x1
 480 0078 13       		.uleb128 0x13
 481 0079 00       		.byte	0
 482 007a 00       		.byte	0
 483 007b 08       		.uleb128 0x8
 484 007c 05       		.uleb128 0x5
 485 007d 00       		.byte	0
 486 007e 03       		.uleb128 0x3
 487 007f 08       		.uleb128 0x8
 488 0080 3A       		.uleb128 0x3a
 489 0081 0B       		.uleb128 0xb
 490 0082 3B       		.uleb128 0x3b
 491 0083 0B       		.uleb128 0xb
 492 0084 49       		.uleb128 0x49
ARM GAS  C:\Users\DELL\AppData\Local\Temp\ccQikhSB.s 			page 12


 493 0085 13       		.uleb128 0x13
 494 0086 02       		.uleb128 0x2
 495 0087 18       		.uleb128 0x18
 496 0088 00       		.byte	0
 497 0089 00       		.byte	0
 498 008a 09       		.uleb128 0x9
 499 008b 01       		.uleb128 0x1
 500 008c 01       		.byte	0x1
 501 008d 49       		.uleb128 0x49
 502 008e 13       		.uleb128 0x13
 503 008f 01       		.uleb128 0x1
 504 0090 13       		.uleb128 0x13
 505 0091 00       		.byte	0
 506 0092 00       		.byte	0
 507 0093 0A       		.uleb128 0xa
 508 0094 21       		.uleb128 0x21
 509 0095 00       		.byte	0
 510 0096 49       		.uleb128 0x49
 511 0097 13       		.uleb128 0x13
 512 0098 2F       		.uleb128 0x2f
 513 0099 0B       		.uleb128 0xb
 514 009a 00       		.byte	0
 515 009b 00       		.byte	0
 516 009c 0B       		.uleb128 0xb
 517 009d 34       		.uleb128 0x34
 518 009e 00       		.byte	0
 519 009f 03       		.uleb128 0x3
 520 00a0 0E       		.uleb128 0xe
 521 00a1 3A       		.uleb128 0x3a
 522 00a2 0B       		.uleb128 0xb
 523 00a3 3B       		.uleb128 0x3b
 524 00a4 0B       		.uleb128 0xb
 525 00a5 49       		.uleb128 0x49
 526 00a6 13       		.uleb128 0x13
 527 00a7 3F       		.uleb128 0x3f
 528 00a8 19       		.uleb128 0x19
 529 00a9 02       		.uleb128 0x2
 530 00aa 18       		.uleb128 0x18
 531 00ab 00       		.byte	0
 532 00ac 00       		.byte	0
 533 00ad 00       		.byte	0
 534              		.section	.debug_aranges,"",%progbits
 535 0000 24000000 		.4byte	0x24
 536 0004 0200     		.2byte	0x2
 537 0006 00000000 		.4byte	.Ldebug_info0
 538 000a 04       		.byte	0x4
 539 000b 00       		.byte	0
 540 000c 0000     		.2byte	0
 541 000e 0000     		.2byte	0
 542 0010 00000000 		.4byte	.LFB37
 543 0014 70000000 		.4byte	.LFE37-.LFB37
 544 0018 00000000 		.4byte	.LFB38
 545 001c 8A000000 		.4byte	.LFE38-.LFB38
 546 0020 00000000 		.4byte	0
 547 0024 00000000 		.4byte	0
 548              		.section	.debug_ranges,"",%progbits
 549              	.Ldebug_ranges0:
ARM GAS  C:\Users\DELL\AppData\Local\Temp\ccQikhSB.s 			page 13


 550 0000 00000000 		.4byte	.LFB37
 551 0004 70000000 		.4byte	.LFE37
 552 0008 00000000 		.4byte	.LFB38
 553 000c 8A000000 		.4byte	.LFE38
 554 0010 00000000 		.4byte	0
 555 0014 00000000 		.4byte	0
 556              		.section	.debug_line,"",%progbits
 557              	.Ldebug_line0:
 558 0000 8B000000 		.section	.debug_str,"MS",%progbits,1
 558      02004300 
 558      00000201 
 558      FB0E0D00 
 558      01010101 
 559              	.LASF6:
 560 0000 6C6F6E67 		.ascii	"long long int\000"
 560      206C6F6E 
 560      6720696E 
 560      7400
 561              	.LASF10:
 562 000e 75696E74 		.ascii	"uint32\000"
 562      333200
 563              	.LASF8:
 564 0015 756E7369 		.ascii	"unsigned int\000"
 564      676E6564 
 564      20696E74 
 564      00
 565              	.LASF19:
 566 0022 6D61696E 		.ascii	"main\000"
 566      00
 567              	.LASF15:
 568 0027 73746174 		.ascii	"status\000"
 568      757300
 569              	.LASF9:
 570 002e 75696E74 		.ascii	"uint8\000"
 570      3800
 571              	.LASF5:
 572 0034 6C6F6E67 		.ascii	"long unsigned int\000"
 572      20756E73 
 572      69676E65 
 572      6420696E 
 572      7400
 573              	.LASF7:
 574 0046 6C6F6E67 		.ascii	"long long unsigned int\000"
 574      206C6F6E 
 574      6720756E 
 574      7369676E 
 574      65642069 
 575              	.LASF16:
 576 005d 474E5520 		.ascii	"GNU C 4.9.3 20150303 (release) [ARM/embedded-4_9-br"
 576      4320342E 
 576      392E3320 
 576      32303135 
 576      30333033 
 577 0090 616E6368 		.ascii	"anch revision 221220] -mcpu=cortex-m0 -mthumb -g -O"
 577      20726576 
 577      6973696F 
 577      6E203232 
ARM GAS  C:\Users\DELL\AppData\Local\Temp\ccQikhSB.s 			page 14


 577      31323230 
 578 00c3 30202D66 		.ascii	"0 -ffunction-sections -ffat-lto-objects\000"
 578      66756E63 
 578      74696F6E 
 578      2D736563 
 578      74696F6E 
 579              	.LASF1:
 580 00eb 756E7369 		.ascii	"unsigned char\000"
 580      676E6564 
 580      20636861 
 580      7200
 581              	.LASF13:
 582 00f9 63686172 		.ascii	"char\000"
 582      00
 583              	.LASF18:
 584 00fe 433A5C55 		.ascii	"C:\\Users\\DELL\\Documents\\Psoc\\SCB_EzI2cCommSlav"
 584      73657273 
 584      5C44454C 
 584      4C5C446F 
 584      63756D65 
 585 012c 6530325C 		.ascii	"e02\\SCB_EzI2cCommSlave01.cydsn\000"
 585      5343425F 
 585      457A4932 
 585      63436F6D 
 585      6D536C61 
 586              	.LASF4:
 587 014b 6C6F6E67 		.ascii	"long int\000"
 587      20696E74 
 587      00
 588              	.LASF2:
 589 0154 73686F72 		.ascii	"short int\000"
 589      7420696E 
 589      7400
 590              	.LASF12:
 591 015e 646F7562 		.ascii	"double\000"
 591      6C6500
 592              	.LASF21:
 593 0165 657A4932 		.ascii	"ezI2cBuffer\000"
 593      63427566 
 593      66657200 
 594              	.LASF3:
 595 0171 73686F72 		.ascii	"short unsigned int\000"
 595      7420756E 
 595      7369676E 
 595      65642069 
 595      6E7400
 596              	.LASF0:
 597 0184 7369676E 		.ascii	"signed char\000"
 597      65642063 
 597      68617200 
 598              	.LASF11:
 599 0190 666C6F61 		.ascii	"float\000"
 599      7400
 600              	.LASF17:
 601 0196 2E5C6D61 		.ascii	".\\main.c\000"
 601      696E2E63 
 601      00
ARM GAS  C:\Users\DELL\AppData\Local\Temp\ccQikhSB.s 			page 15


 602              	.LASF20:
 603 019f 45786563 		.ascii	"ExecuteCommand\000"
 603      75746543 
 603      6F6D6D61 
 603      6E6400
 604              	.LASF14:
 605 01ae 73697A65 		.ascii	"sizetype\000"
 605      74797065 
 605      00
 606              		.ident	"GCC: (GNU Tools for ARM Embedded Processors) 4.9.3 20150303 (release) [ARM/embedded-4_9-br
