ARM GAS  C:\Users\DELL\AppData\Local\Temp\ccOBeiyT.s 			page 1


   1              		.cpu cortex-m0
   2              		.fpu softvfp
   3              		.eabi_attribute 20, 1
   4              		.eabi_attribute 21, 1
   5              		.eabi_attribute 23, 3
   6              		.eabi_attribute 24, 1
   7              		.eabi_attribute 25, 1
   8              		.eabi_attribute 26, 1
   9              		.eabi_attribute 30, 6
  10              		.eabi_attribute 34, 0
  11              		.eabi_attribute 18, 4
  12              		.code	16
  13              		.file	"isr_button.c"
  14              		.text
  15              	.Ltext0:
  16              		.cfi_sections	.debug_frame
  17              		.section	.text.isr_button_Start,"ax",%progbits
  18              		.align	2
  19              		.global	isr_button_Start
  20              		.code	16
  21              		.thumb_func
  22              		.type	isr_button_Start, %function
  23              	isr_button_Start:
  24              	.LFB2:
  25              		.file 1 ".\\Generated_Source\\PSoC4\\isr_button.c"
   1:.\Generated_Source\PSoC4/isr_button.c **** /*******************************************************************************
   2:.\Generated_Source\PSoC4/isr_button.c **** * File Name: isr_button.c  
   3:.\Generated_Source\PSoC4/isr_button.c **** * Version 1.70
   4:.\Generated_Source\PSoC4/isr_button.c **** *
   5:.\Generated_Source\PSoC4/isr_button.c **** *  Description:
   6:.\Generated_Source\PSoC4/isr_button.c **** *   API for controlling the state of an interrupt.
   7:.\Generated_Source\PSoC4/isr_button.c **** *
   8:.\Generated_Source\PSoC4/isr_button.c **** *
   9:.\Generated_Source\PSoC4/isr_button.c **** *  Note:
  10:.\Generated_Source\PSoC4/isr_button.c **** *
  11:.\Generated_Source\PSoC4/isr_button.c **** ********************************************************************************
  12:.\Generated_Source\PSoC4/isr_button.c **** * Copyright 2008-2015, Cypress Semiconductor Corporation.  All rights reserved.
  13:.\Generated_Source\PSoC4/isr_button.c **** * You may use this file only in accordance with the license, terms, conditions, 
  14:.\Generated_Source\PSoC4/isr_button.c **** * disclaimers, and limitations in the end user license agreement accompanying 
  15:.\Generated_Source\PSoC4/isr_button.c **** * the software package with which this file was provided.
  16:.\Generated_Source\PSoC4/isr_button.c **** *******************************************************************************/
  17:.\Generated_Source\PSoC4/isr_button.c **** 
  18:.\Generated_Source\PSoC4/isr_button.c **** 
  19:.\Generated_Source\PSoC4/isr_button.c **** #include <cydevice_trm.h>
  20:.\Generated_Source\PSoC4/isr_button.c **** #include <CyLib.h>
  21:.\Generated_Source\PSoC4/isr_button.c **** #include <isr_button.h>
  22:.\Generated_Source\PSoC4/isr_button.c **** 
  23:.\Generated_Source\PSoC4/isr_button.c **** 
  24:.\Generated_Source\PSoC4/isr_button.c **** #if !defined(isr_button__REMOVED) /* Check for removal by optimization */
  25:.\Generated_Source\PSoC4/isr_button.c **** 
  26:.\Generated_Source\PSoC4/isr_button.c **** /*******************************************************************************
  27:.\Generated_Source\PSoC4/isr_button.c **** *  Place your includes, defines and code here 
  28:.\Generated_Source\PSoC4/isr_button.c **** ********************************************************************************/
  29:.\Generated_Source\PSoC4/isr_button.c **** /* `#START isr_button_intc` */
  30:.\Generated_Source\PSoC4/isr_button.c **** 
  31:.\Generated_Source\PSoC4/isr_button.c **** /* `#END` */
  32:.\Generated_Source\PSoC4/isr_button.c **** 
ARM GAS  C:\Users\DELL\AppData\Local\Temp\ccOBeiyT.s 			page 2


  33:.\Generated_Source\PSoC4/isr_button.c **** extern cyisraddress CyRamVectors[CYINT_IRQ_BASE + CY_NUM_INTERRUPTS];
  34:.\Generated_Source\PSoC4/isr_button.c **** 
  35:.\Generated_Source\PSoC4/isr_button.c **** /* Declared in startup, used to set unused interrupts to. */
  36:.\Generated_Source\PSoC4/isr_button.c **** CY_ISR_PROTO(IntDefaultHandler);
  37:.\Generated_Source\PSoC4/isr_button.c **** 
  38:.\Generated_Source\PSoC4/isr_button.c **** 
  39:.\Generated_Source\PSoC4/isr_button.c **** /*******************************************************************************
  40:.\Generated_Source\PSoC4/isr_button.c **** * Function Name: isr_button_Start
  41:.\Generated_Source\PSoC4/isr_button.c **** ********************************************************************************
  42:.\Generated_Source\PSoC4/isr_button.c **** *
  43:.\Generated_Source\PSoC4/isr_button.c **** * Summary:
  44:.\Generated_Source\PSoC4/isr_button.c **** *  Set up the interrupt and enable it. This function disables the interrupt, 
  45:.\Generated_Source\PSoC4/isr_button.c **** *  sets the default interrupt vector, sets the priority from the value in the
  46:.\Generated_Source\PSoC4/isr_button.c **** *  Design Wide Resources Interrupt Editor, then enables the interrupt to the 
  47:.\Generated_Source\PSoC4/isr_button.c **** *  interrupt controller.
  48:.\Generated_Source\PSoC4/isr_button.c **** *
  49:.\Generated_Source\PSoC4/isr_button.c **** * Parameters:  
  50:.\Generated_Source\PSoC4/isr_button.c **** *   None
  51:.\Generated_Source\PSoC4/isr_button.c **** *
  52:.\Generated_Source\PSoC4/isr_button.c **** * Return:
  53:.\Generated_Source\PSoC4/isr_button.c **** *   None
  54:.\Generated_Source\PSoC4/isr_button.c **** *
  55:.\Generated_Source\PSoC4/isr_button.c **** *******************************************************************************/
  56:.\Generated_Source\PSoC4/isr_button.c **** void isr_button_Start(void)
  57:.\Generated_Source\PSoC4/isr_button.c **** {
  26              		.loc 1 57 0
  27              		.cfi_startproc
  28 0000 80B5     		push	{r7, lr}
  29              		.cfi_def_cfa_offset 8
  30              		.cfi_offset 7, -8
  31              		.cfi_offset 14, -4
  32 0002 00AF     		add	r7, sp, #0
  33              		.cfi_def_cfa_register 7
  58:.\Generated_Source\PSoC4/isr_button.c ****     /* For all we know the interrupt is active. */
  59:.\Generated_Source\PSoC4/isr_button.c ****     isr_button_Disable();
  34              		.loc 1 59 0
  35 0004 FFF7FEFF 		bl	isr_button_Disable
  60:.\Generated_Source\PSoC4/isr_button.c **** 
  61:.\Generated_Source\PSoC4/isr_button.c ****     /* Set the ISR to point to the isr_button Interrupt. */
  62:.\Generated_Source\PSoC4/isr_button.c ****     isr_button_SetVector(&isr_button_Interrupt);
  36              		.loc 1 62 0
  37 0008 054B     		ldr	r3, .L2
  38 000a 181C     		mov	r0, r3
  39 000c FFF7FEFF 		bl	isr_button_SetVector
  63:.\Generated_Source\PSoC4/isr_button.c **** 
  64:.\Generated_Source\PSoC4/isr_button.c ****     /* Set the priority. */
  65:.\Generated_Source\PSoC4/isr_button.c ****     isr_button_SetPriority((uint8)isr_button_INTC_PRIOR_NUMBER);
  40              		.loc 1 65 0
  41 0010 0320     		mov	r0, #3
  42 0012 FFF7FEFF 		bl	isr_button_SetPriority
  66:.\Generated_Source\PSoC4/isr_button.c **** 
  67:.\Generated_Source\PSoC4/isr_button.c ****     /* Enable it. */
  68:.\Generated_Source\PSoC4/isr_button.c ****     isr_button_Enable();
  43              		.loc 1 68 0
  44 0016 FFF7FEFF 		bl	isr_button_Enable
  69:.\Generated_Source\PSoC4/isr_button.c **** }
  45              		.loc 1 69 0
ARM GAS  C:\Users\DELL\AppData\Local\Temp\ccOBeiyT.s 			page 3


  46 001a BD46     		mov	sp, r7
  47              		@ sp needed
  48 001c 80BD     		pop	{r7, pc}
  49              	.L3:
  50 001e C046     		.align	2
  51              	.L2:
  52 0020 00000000 		.word	isr_button_Interrupt
  53              		.cfi_endproc
  54              	.LFE2:
  55              		.size	isr_button_Start, .-isr_button_Start
  56              		.section	.text.isr_button_StartEx,"ax",%progbits
  57              		.align	2
  58              		.global	isr_button_StartEx
  59              		.code	16
  60              		.thumb_func
  61              		.type	isr_button_StartEx, %function
  62              	isr_button_StartEx:
  63              	.LFB3:
  70:.\Generated_Source\PSoC4/isr_button.c **** 
  71:.\Generated_Source\PSoC4/isr_button.c **** 
  72:.\Generated_Source\PSoC4/isr_button.c **** /*******************************************************************************
  73:.\Generated_Source\PSoC4/isr_button.c **** * Function Name: isr_button_StartEx
  74:.\Generated_Source\PSoC4/isr_button.c **** ********************************************************************************
  75:.\Generated_Source\PSoC4/isr_button.c **** *
  76:.\Generated_Source\PSoC4/isr_button.c **** * Summary:
  77:.\Generated_Source\PSoC4/isr_button.c **** *  Sets up the interrupt and enables it. This function disables the interrupt,
  78:.\Generated_Source\PSoC4/isr_button.c **** *  sets the interrupt vector based on the address passed in, sets the priority 
  79:.\Generated_Source\PSoC4/isr_button.c **** *  from the value in the Design Wide Resources Interrupt Editor, then enables 
  80:.\Generated_Source\PSoC4/isr_button.c **** *  the interrupt to the interrupt controller.
  81:.\Generated_Source\PSoC4/isr_button.c **** *  
  82:.\Generated_Source\PSoC4/isr_button.c **** *  When defining ISR functions, the CY_ISR and CY_ISR_PROTO macros should be 
  83:.\Generated_Source\PSoC4/isr_button.c **** *  used to provide consistent definition across compilers:
  84:.\Generated_Source\PSoC4/isr_button.c **** *  
  85:.\Generated_Source\PSoC4/isr_button.c **** *  Function definition example:
  86:.\Generated_Source\PSoC4/isr_button.c **** *   CY_ISR(MyISR)
  87:.\Generated_Source\PSoC4/isr_button.c **** *   {
  88:.\Generated_Source\PSoC4/isr_button.c **** *   }
  89:.\Generated_Source\PSoC4/isr_button.c **** *   Function prototype example:
  90:.\Generated_Source\PSoC4/isr_button.c **** *   CY_ISR_PROTO(MyISR);
  91:.\Generated_Source\PSoC4/isr_button.c **** *
  92:.\Generated_Source\PSoC4/isr_button.c **** * Parameters:  
  93:.\Generated_Source\PSoC4/isr_button.c **** *   address: Address of the ISR to set in the interrupt vector table.
  94:.\Generated_Source\PSoC4/isr_button.c **** *
  95:.\Generated_Source\PSoC4/isr_button.c **** * Return:
  96:.\Generated_Source\PSoC4/isr_button.c **** *   None
  97:.\Generated_Source\PSoC4/isr_button.c **** *
  98:.\Generated_Source\PSoC4/isr_button.c **** *******************************************************************************/
  99:.\Generated_Source\PSoC4/isr_button.c **** void isr_button_StartEx(cyisraddress address)
 100:.\Generated_Source\PSoC4/isr_button.c **** {
  64              		.loc 1 100 0
  65              		.cfi_startproc
  66 0000 80B5     		push	{r7, lr}
  67              		.cfi_def_cfa_offset 8
  68              		.cfi_offset 7, -8
  69              		.cfi_offset 14, -4
  70 0002 82B0     		sub	sp, sp, #8
  71              		.cfi_def_cfa_offset 16
ARM GAS  C:\Users\DELL\AppData\Local\Temp\ccOBeiyT.s 			page 4


  72 0004 00AF     		add	r7, sp, #0
  73              		.cfi_def_cfa_register 7
  74 0006 7860     		str	r0, [r7, #4]
 101:.\Generated_Source\PSoC4/isr_button.c ****     /* For all we know the interrupt is active. */
 102:.\Generated_Source\PSoC4/isr_button.c ****     isr_button_Disable();
  75              		.loc 1 102 0
  76 0008 FFF7FEFF 		bl	isr_button_Disable
 103:.\Generated_Source\PSoC4/isr_button.c **** 
 104:.\Generated_Source\PSoC4/isr_button.c ****     /* Set the ISR to point to the isr_button Interrupt. */
 105:.\Generated_Source\PSoC4/isr_button.c ****     isr_button_SetVector(address);
  77              		.loc 1 105 0
  78 000c 7B68     		ldr	r3, [r7, #4]
  79 000e 181C     		mov	r0, r3
  80 0010 FFF7FEFF 		bl	isr_button_SetVector
 106:.\Generated_Source\PSoC4/isr_button.c **** 
 107:.\Generated_Source\PSoC4/isr_button.c ****     /* Set the priority. */
 108:.\Generated_Source\PSoC4/isr_button.c ****     isr_button_SetPriority((uint8)isr_button_INTC_PRIOR_NUMBER);
  81              		.loc 1 108 0
  82 0014 0320     		mov	r0, #3
  83 0016 FFF7FEFF 		bl	isr_button_SetPriority
 109:.\Generated_Source\PSoC4/isr_button.c **** 
 110:.\Generated_Source\PSoC4/isr_button.c ****     /* Enable it. */
 111:.\Generated_Source\PSoC4/isr_button.c ****     isr_button_Enable();
  84              		.loc 1 111 0
  85 001a FFF7FEFF 		bl	isr_button_Enable
 112:.\Generated_Source\PSoC4/isr_button.c **** }
  86              		.loc 1 112 0
  87 001e BD46     		mov	sp, r7
  88 0020 02B0     		add	sp, sp, #8
  89              		@ sp needed
  90 0022 80BD     		pop	{r7, pc}
  91              		.cfi_endproc
  92              	.LFE3:
  93              		.size	isr_button_StartEx, .-isr_button_StartEx
  94              		.section	.text.isr_button_Stop,"ax",%progbits
  95              		.align	2
  96              		.global	isr_button_Stop
  97              		.code	16
  98              		.thumb_func
  99              		.type	isr_button_Stop, %function
 100              	isr_button_Stop:
 101              	.LFB4:
 113:.\Generated_Source\PSoC4/isr_button.c **** 
 114:.\Generated_Source\PSoC4/isr_button.c **** 
 115:.\Generated_Source\PSoC4/isr_button.c **** /*******************************************************************************
 116:.\Generated_Source\PSoC4/isr_button.c **** * Function Name: isr_button_Stop
 117:.\Generated_Source\PSoC4/isr_button.c **** ********************************************************************************
 118:.\Generated_Source\PSoC4/isr_button.c **** *
 119:.\Generated_Source\PSoC4/isr_button.c **** * Summary:
 120:.\Generated_Source\PSoC4/isr_button.c **** *   Disables and removes the interrupt.
 121:.\Generated_Source\PSoC4/isr_button.c **** *
 122:.\Generated_Source\PSoC4/isr_button.c **** * Parameters:  
 123:.\Generated_Source\PSoC4/isr_button.c **** *   None
 124:.\Generated_Source\PSoC4/isr_button.c **** *
 125:.\Generated_Source\PSoC4/isr_button.c **** * Return:
 126:.\Generated_Source\PSoC4/isr_button.c **** *   None
 127:.\Generated_Source\PSoC4/isr_button.c **** *
ARM GAS  C:\Users\DELL\AppData\Local\Temp\ccOBeiyT.s 			page 5


 128:.\Generated_Source\PSoC4/isr_button.c **** *******************************************************************************/
 129:.\Generated_Source\PSoC4/isr_button.c **** void isr_button_Stop(void)
 130:.\Generated_Source\PSoC4/isr_button.c **** {
 102              		.loc 1 130 0
 103              		.cfi_startproc
 104 0000 80B5     		push	{r7, lr}
 105              		.cfi_def_cfa_offset 8
 106              		.cfi_offset 7, -8
 107              		.cfi_offset 14, -4
 108 0002 00AF     		add	r7, sp, #0
 109              		.cfi_def_cfa_register 7
 131:.\Generated_Source\PSoC4/isr_button.c ****     /* Disable this interrupt. */
 132:.\Generated_Source\PSoC4/isr_button.c ****     isr_button_Disable();
 110              		.loc 1 132 0
 111 0004 FFF7FEFF 		bl	isr_button_Disable
 133:.\Generated_Source\PSoC4/isr_button.c **** 
 134:.\Generated_Source\PSoC4/isr_button.c ****     /* Set the ISR to point to the passive one. */
 135:.\Generated_Source\PSoC4/isr_button.c ****     isr_button_SetVector(&IntDefaultHandler);
 112              		.loc 1 135 0
 113 0008 024B     		ldr	r3, .L6
 114 000a 181C     		mov	r0, r3
 115 000c FFF7FEFF 		bl	isr_button_SetVector
 136:.\Generated_Source\PSoC4/isr_button.c **** }
 116              		.loc 1 136 0
 117 0010 BD46     		mov	sp, r7
 118              		@ sp needed
 119 0012 80BD     		pop	{r7, pc}
 120              	.L7:
 121              		.align	2
 122              	.L6:
 123 0014 00000000 		.word	IntDefaultHandler
 124              		.cfi_endproc
 125              	.LFE4:
 126              		.size	isr_button_Stop, .-isr_button_Stop
 127              		.section	.text.isr_button_Interrupt,"ax",%progbits
 128              		.align	2
 129              		.global	isr_button_Interrupt
 130              		.code	16
 131              		.thumb_func
 132              		.type	isr_button_Interrupt, %function
 133              	isr_button_Interrupt:
 134              	.LFB5:
 137:.\Generated_Source\PSoC4/isr_button.c **** 
 138:.\Generated_Source\PSoC4/isr_button.c **** 
 139:.\Generated_Source\PSoC4/isr_button.c **** /*******************************************************************************
 140:.\Generated_Source\PSoC4/isr_button.c **** * Function Name: isr_button_Interrupt
 141:.\Generated_Source\PSoC4/isr_button.c **** ********************************************************************************
 142:.\Generated_Source\PSoC4/isr_button.c **** *
 143:.\Generated_Source\PSoC4/isr_button.c **** * Summary:
 144:.\Generated_Source\PSoC4/isr_button.c **** *   The default Interrupt Service Routine for isr_button.
 145:.\Generated_Source\PSoC4/isr_button.c **** *
 146:.\Generated_Source\PSoC4/isr_button.c **** *   Add custom code between the START and END comments to keep the next version
 147:.\Generated_Source\PSoC4/isr_button.c **** *   of this file from over-writing your code.
 148:.\Generated_Source\PSoC4/isr_button.c **** *
 149:.\Generated_Source\PSoC4/isr_button.c **** *   Note You may use either the default ISR by using this API, or you may define
 150:.\Generated_Source\PSoC4/isr_button.c **** *   your own separate ISR through ISR_StartEx().
 151:.\Generated_Source\PSoC4/isr_button.c **** *
ARM GAS  C:\Users\DELL\AppData\Local\Temp\ccOBeiyT.s 			page 6


 152:.\Generated_Source\PSoC4/isr_button.c **** * Parameters:  
 153:.\Generated_Source\PSoC4/isr_button.c **** *   None
 154:.\Generated_Source\PSoC4/isr_button.c **** *
 155:.\Generated_Source\PSoC4/isr_button.c **** * Return:
 156:.\Generated_Source\PSoC4/isr_button.c **** *   None
 157:.\Generated_Source\PSoC4/isr_button.c **** *
 158:.\Generated_Source\PSoC4/isr_button.c **** *******************************************************************************/
 159:.\Generated_Source\PSoC4/isr_button.c **** CY_ISR(isr_button_Interrupt)
 160:.\Generated_Source\PSoC4/isr_button.c **** {
 135              		.loc 1 160 0
 136              		.cfi_startproc
 137 0000 80B5     		push	{r7, lr}
 138              		.cfi_def_cfa_offset 8
 139              		.cfi_offset 7, -8
 140              		.cfi_offset 14, -4
 141 0002 00AF     		add	r7, sp, #0
 142              		.cfi_def_cfa_register 7
 161:.\Generated_Source\PSoC4/isr_button.c ****     #ifdef isr_button_INTERRUPT_INTERRUPT_CALLBACK
 162:.\Generated_Source\PSoC4/isr_button.c ****         isr_button_Interrupt_InterruptCallback();
 163:.\Generated_Source\PSoC4/isr_button.c ****     #endif /* isr_button_INTERRUPT_INTERRUPT_CALLBACK */ 
 164:.\Generated_Source\PSoC4/isr_button.c **** 
 165:.\Generated_Source\PSoC4/isr_button.c ****     /*  Place your Interrupt code here. */
 166:.\Generated_Source\PSoC4/isr_button.c ****     /* `#START isr_button_Interrupt` */
 167:.\Generated_Source\PSoC4/isr_button.c **** 
 168:.\Generated_Source\PSoC4/isr_button.c ****     /* `#END` */
 169:.\Generated_Source\PSoC4/isr_button.c **** }
 143              		.loc 1 169 0
 144 0004 BD46     		mov	sp, r7
 145              		@ sp needed
 146 0006 80BD     		pop	{r7, pc}
 147              		.cfi_endproc
 148              	.LFE5:
 149              		.size	isr_button_Interrupt, .-isr_button_Interrupt
 150              		.section	.text.isr_button_SetVector,"ax",%progbits
 151              		.align	2
 152              		.global	isr_button_SetVector
 153              		.code	16
 154              		.thumb_func
 155              		.type	isr_button_SetVector, %function
 156              	isr_button_SetVector:
 157              	.LFB6:
 170:.\Generated_Source\PSoC4/isr_button.c **** 
 171:.\Generated_Source\PSoC4/isr_button.c **** 
 172:.\Generated_Source\PSoC4/isr_button.c **** /*******************************************************************************
 173:.\Generated_Source\PSoC4/isr_button.c **** * Function Name: isr_button_SetVector
 174:.\Generated_Source\PSoC4/isr_button.c **** ********************************************************************************
 175:.\Generated_Source\PSoC4/isr_button.c **** *
 176:.\Generated_Source\PSoC4/isr_button.c **** * Summary:
 177:.\Generated_Source\PSoC4/isr_button.c **** *   Change the ISR vector for the Interrupt. Note calling isr_button_Start
 178:.\Generated_Source\PSoC4/isr_button.c **** *   will override any effect this method would have had. To set the vector 
 179:.\Generated_Source\PSoC4/isr_button.c **** *   before the component has been started use isr_button_StartEx instead.
 180:.\Generated_Source\PSoC4/isr_button.c **** * 
 181:.\Generated_Source\PSoC4/isr_button.c **** *   When defining ISR functions, the CY_ISR and CY_ISR_PROTO macros should be 
 182:.\Generated_Source\PSoC4/isr_button.c **** *   used to provide consistent definition across compilers:
 183:.\Generated_Source\PSoC4/isr_button.c **** *
 184:.\Generated_Source\PSoC4/isr_button.c **** *   Function definition example:
 185:.\Generated_Source\PSoC4/isr_button.c **** *   CY_ISR(MyISR)
ARM GAS  C:\Users\DELL\AppData\Local\Temp\ccOBeiyT.s 			page 7


 186:.\Generated_Source\PSoC4/isr_button.c **** *   {
 187:.\Generated_Source\PSoC4/isr_button.c **** *   }
 188:.\Generated_Source\PSoC4/isr_button.c **** *
 189:.\Generated_Source\PSoC4/isr_button.c **** *   Function prototype example:
 190:.\Generated_Source\PSoC4/isr_button.c **** *     CY_ISR_PROTO(MyISR);
 191:.\Generated_Source\PSoC4/isr_button.c **** *
 192:.\Generated_Source\PSoC4/isr_button.c **** * Parameters:
 193:.\Generated_Source\PSoC4/isr_button.c **** *   address: Address of the ISR to set in the interrupt vector table.
 194:.\Generated_Source\PSoC4/isr_button.c **** *
 195:.\Generated_Source\PSoC4/isr_button.c **** * Return:
 196:.\Generated_Source\PSoC4/isr_button.c **** *   None
 197:.\Generated_Source\PSoC4/isr_button.c **** *
 198:.\Generated_Source\PSoC4/isr_button.c **** *******************************************************************************/
 199:.\Generated_Source\PSoC4/isr_button.c **** void isr_button_SetVector(cyisraddress address)
 200:.\Generated_Source\PSoC4/isr_button.c **** {
 158              		.loc 1 200 0
 159              		.cfi_startproc
 160 0000 80B5     		push	{r7, lr}
 161              		.cfi_def_cfa_offset 8
 162              		.cfi_offset 7, -8
 163              		.cfi_offset 14, -4
 164 0002 82B0     		sub	sp, sp, #8
 165              		.cfi_def_cfa_offset 16
 166 0004 00AF     		add	r7, sp, #0
 167              		.cfi_def_cfa_register 7
 168 0006 7860     		str	r0, [r7, #4]
 201:.\Generated_Source\PSoC4/isr_button.c ****     CyRamVectors[CYINT_IRQ_BASE + isr_button__INTC_NUMBER] = address;
 169              		.loc 1 201 0
 170 0008 024B     		ldr	r3, .L10
 171 000a 7A68     		ldr	r2, [r7, #4]
 172 000c 9A64     		str	r2, [r3, #72]
 202:.\Generated_Source\PSoC4/isr_button.c **** }
 173              		.loc 1 202 0
 174 000e BD46     		mov	sp, r7
 175 0010 02B0     		add	sp, sp, #8
 176              		@ sp needed
 177 0012 80BD     		pop	{r7, pc}
 178              	.L11:
 179              		.align	2
 180              	.L10:
 181 0014 00000000 		.word	CyRamVectors
 182              		.cfi_endproc
 183              	.LFE6:
 184              		.size	isr_button_SetVector, .-isr_button_SetVector
 185              		.section	.text.isr_button_GetVector,"ax",%progbits
 186              		.align	2
 187              		.global	isr_button_GetVector
 188              		.code	16
 189              		.thumb_func
 190              		.type	isr_button_GetVector, %function
 191              	isr_button_GetVector:
 192              	.LFB7:
 203:.\Generated_Source\PSoC4/isr_button.c **** 
 204:.\Generated_Source\PSoC4/isr_button.c **** 
 205:.\Generated_Source\PSoC4/isr_button.c **** /*******************************************************************************
 206:.\Generated_Source\PSoC4/isr_button.c **** * Function Name: isr_button_GetVector
 207:.\Generated_Source\PSoC4/isr_button.c **** ********************************************************************************
ARM GAS  C:\Users\DELL\AppData\Local\Temp\ccOBeiyT.s 			page 8


 208:.\Generated_Source\PSoC4/isr_button.c **** *
 209:.\Generated_Source\PSoC4/isr_button.c **** * Summary:
 210:.\Generated_Source\PSoC4/isr_button.c **** *   Gets the "address" of the current ISR vector for the Interrupt.
 211:.\Generated_Source\PSoC4/isr_button.c **** *
 212:.\Generated_Source\PSoC4/isr_button.c **** * Parameters:
 213:.\Generated_Source\PSoC4/isr_button.c **** *   None
 214:.\Generated_Source\PSoC4/isr_button.c **** *
 215:.\Generated_Source\PSoC4/isr_button.c **** * Return:
 216:.\Generated_Source\PSoC4/isr_button.c **** *   Address of the ISR in the interrupt vector table.
 217:.\Generated_Source\PSoC4/isr_button.c **** *
 218:.\Generated_Source\PSoC4/isr_button.c **** *******************************************************************************/
 219:.\Generated_Source\PSoC4/isr_button.c **** cyisraddress isr_button_GetVector(void)
 220:.\Generated_Source\PSoC4/isr_button.c **** {
 193              		.loc 1 220 0
 194              		.cfi_startproc
 195 0000 80B5     		push	{r7, lr}
 196              		.cfi_def_cfa_offset 8
 197              		.cfi_offset 7, -8
 198              		.cfi_offset 14, -4
 199 0002 00AF     		add	r7, sp, #0
 200              		.cfi_def_cfa_register 7
 221:.\Generated_Source\PSoC4/isr_button.c ****     return CyRamVectors[CYINT_IRQ_BASE + isr_button__INTC_NUMBER];
 201              		.loc 1 221 0
 202 0004 024B     		ldr	r3, .L14
 203 0006 9B6C     		ldr	r3, [r3, #72]
 222:.\Generated_Source\PSoC4/isr_button.c **** }
 204              		.loc 1 222 0
 205 0008 181C     		mov	r0, r3
 206 000a BD46     		mov	sp, r7
 207              		@ sp needed
 208 000c 80BD     		pop	{r7, pc}
 209              	.L15:
 210 000e C046     		.align	2
 211              	.L14:
 212 0010 00000000 		.word	CyRamVectors
 213              		.cfi_endproc
 214              	.LFE7:
 215              		.size	isr_button_GetVector, .-isr_button_GetVector
 216              		.section	.text.isr_button_SetPriority,"ax",%progbits
 217              		.align	2
 218              		.global	isr_button_SetPriority
 219              		.code	16
 220              		.thumb_func
 221              		.type	isr_button_SetPriority, %function
 222              	isr_button_SetPriority:
 223              	.LFB8:
 223:.\Generated_Source\PSoC4/isr_button.c **** 
 224:.\Generated_Source\PSoC4/isr_button.c **** 
 225:.\Generated_Source\PSoC4/isr_button.c **** /*******************************************************************************
 226:.\Generated_Source\PSoC4/isr_button.c **** * Function Name: isr_button_SetPriority
 227:.\Generated_Source\PSoC4/isr_button.c **** ********************************************************************************
 228:.\Generated_Source\PSoC4/isr_button.c **** *
 229:.\Generated_Source\PSoC4/isr_button.c **** * Summary:
 230:.\Generated_Source\PSoC4/isr_button.c **** *   Sets the Priority of the Interrupt. 
 231:.\Generated_Source\PSoC4/isr_button.c **** *
 232:.\Generated_Source\PSoC4/isr_button.c **** *   Note calling isr_button_Start or isr_button_StartEx will 
 233:.\Generated_Source\PSoC4/isr_button.c **** *   override any effect this API would have had. This API should only be called
ARM GAS  C:\Users\DELL\AppData\Local\Temp\ccOBeiyT.s 			page 9


 234:.\Generated_Source\PSoC4/isr_button.c **** *   after isr_button_Start or isr_button_StartEx has been called. 
 235:.\Generated_Source\PSoC4/isr_button.c **** *   To set the initial priority for the component, use the Design-Wide Resources
 236:.\Generated_Source\PSoC4/isr_button.c **** *   Interrupt Editor.
 237:.\Generated_Source\PSoC4/isr_button.c **** *
 238:.\Generated_Source\PSoC4/isr_button.c **** *   Note This API has no effect on Non-maskable interrupt NMI).
 239:.\Generated_Source\PSoC4/isr_button.c **** *
 240:.\Generated_Source\PSoC4/isr_button.c **** * Parameters:
 241:.\Generated_Source\PSoC4/isr_button.c **** *   priority: Priority of the interrupt, 0 being the highest priority
 242:.\Generated_Source\PSoC4/isr_button.c **** *             PSoC 3 and PSoC 5LP: Priority is from 0 to 7.
 243:.\Generated_Source\PSoC4/isr_button.c **** *             PSoC 4: Priority is from 0 to 3.
 244:.\Generated_Source\PSoC4/isr_button.c **** *
 245:.\Generated_Source\PSoC4/isr_button.c **** * Return:
 246:.\Generated_Source\PSoC4/isr_button.c **** *   None
 247:.\Generated_Source\PSoC4/isr_button.c **** *
 248:.\Generated_Source\PSoC4/isr_button.c **** *******************************************************************************/
 249:.\Generated_Source\PSoC4/isr_button.c **** void isr_button_SetPriority(uint8 priority)
 250:.\Generated_Source\PSoC4/isr_button.c **** {
 224              		.loc 1 250 0
 225              		.cfi_startproc
 226 0000 90B5     		push	{r4, r7, lr}
 227              		.cfi_def_cfa_offset 12
 228              		.cfi_offset 4, -12
 229              		.cfi_offset 7, -8
 230              		.cfi_offset 14, -4
 231 0002 85B0     		sub	sp, sp, #20
 232              		.cfi_def_cfa_offset 32
 233 0004 00AF     		add	r7, sp, #0
 234              		.cfi_def_cfa_register 7
 235 0006 021C     		mov	r2, r0
 236 0008 FB1D     		add	r3, r7, #7
 237 000a 1A70     		strb	r2, [r3]
 251:.\Generated_Source\PSoC4/isr_button.c **** 	uint8 interruptState;
 252:.\Generated_Source\PSoC4/isr_button.c ****     uint32 priorityOffset = ((isr_button__INTC_NUMBER % 4u) * 8u) + 6u;
 238              		.loc 1 252 0
 239 000c 1623     		mov	r3, #22
 240 000e FB60     		str	r3, [r7, #12]
 253:.\Generated_Source\PSoC4/isr_button.c ****     
 254:.\Generated_Source\PSoC4/isr_button.c **** 	interruptState = CyEnterCriticalSection();
 241              		.loc 1 254 0
 242 0010 0B23     		mov	r3, #11
 243 0012 FC18     		add	r4, r7, r3
 244 0014 FFF7FEFF 		bl	CyEnterCriticalSection
 245 0018 031C     		mov	r3, r0
 246 001a 2370     		strb	r3, [r4]
 255:.\Generated_Source\PSoC4/isr_button.c ****     *isr_button_INTC_PRIOR = (*isr_button_INTC_PRIOR & (uint32)(~isr_button__INTC_PRIOR_MASK)) |
 247              		.loc 1 255 0
 248 001c 0A4B     		ldr	r3, .L17
 249 001e 0A4A     		ldr	r2, .L17
 250 0020 1268     		ldr	r2, [r2]
 251 0022 0A49     		ldr	r1, .L17+4
 252 0024 1140     		and	r1, r2
 256:.\Generated_Source\PSoC4/isr_button.c ****                                     ((uint32)priority << priorityOffset);
 253              		.loc 1 256 0
 254 0026 FA1D     		add	r2, r7, #7
 255 0028 1078     		ldrb	r0, [r2]
 256 002a FA68     		ldr	r2, [r7, #12]
 257 002c 9040     		lsl	r0, r0, r2
ARM GAS  C:\Users\DELL\AppData\Local\Temp\ccOBeiyT.s 			page 10


 258 002e 021C     		mov	r2, r0
 255:.\Generated_Source\PSoC4/isr_button.c ****     *isr_button_INTC_PRIOR = (*isr_button_INTC_PRIOR & (uint32)(~isr_button__INTC_PRIOR_MASK)) |
 259              		.loc 1 255 0
 260 0030 0A43     		orr	r2, r1
 261 0032 1A60     		str	r2, [r3]
 257:.\Generated_Source\PSoC4/isr_button.c **** 	CyExitCriticalSection(interruptState);
 262              		.loc 1 257 0
 263 0034 0B23     		mov	r3, #11
 264 0036 FB18     		add	r3, r7, r3
 265 0038 1B78     		ldrb	r3, [r3]
 266 003a 181C     		mov	r0, r3
 267 003c FFF7FEFF 		bl	CyExitCriticalSection
 258:.\Generated_Source\PSoC4/isr_button.c **** }
 268              		.loc 1 258 0
 269 0040 BD46     		mov	sp, r7
 270 0042 05B0     		add	sp, sp, #20
 271              		@ sp needed
 272 0044 90BD     		pop	{r4, r7, pc}
 273              	.L18:
 274 0046 C046     		.align	2
 275              	.L17:
 276 0048 00E400E0 		.word	-536812544
 277 004c FFFF3FFF 		.word	-12582913
 278              		.cfi_endproc
 279              	.LFE8:
 280              		.size	isr_button_SetPriority, .-isr_button_SetPriority
 281              		.section	.text.isr_button_GetPriority,"ax",%progbits
 282              		.align	2
 283              		.global	isr_button_GetPriority
 284              		.code	16
 285              		.thumb_func
 286              		.type	isr_button_GetPriority, %function
 287              	isr_button_GetPriority:
 288              	.LFB9:
 259:.\Generated_Source\PSoC4/isr_button.c **** 
 260:.\Generated_Source\PSoC4/isr_button.c **** 
 261:.\Generated_Source\PSoC4/isr_button.c **** /*******************************************************************************
 262:.\Generated_Source\PSoC4/isr_button.c **** * Function Name: isr_button_GetPriority
 263:.\Generated_Source\PSoC4/isr_button.c **** ********************************************************************************
 264:.\Generated_Source\PSoC4/isr_button.c **** *
 265:.\Generated_Source\PSoC4/isr_button.c **** * Summary:
 266:.\Generated_Source\PSoC4/isr_button.c **** *   Gets the Priority of the Interrupt.
 267:.\Generated_Source\PSoC4/isr_button.c **** *
 268:.\Generated_Source\PSoC4/isr_button.c **** * Parameters:
 269:.\Generated_Source\PSoC4/isr_button.c **** *   None
 270:.\Generated_Source\PSoC4/isr_button.c **** *
 271:.\Generated_Source\PSoC4/isr_button.c **** * Return:
 272:.\Generated_Source\PSoC4/isr_button.c **** *   Priority of the interrupt, 0 being the highest priority
 273:.\Generated_Source\PSoC4/isr_button.c **** *    PSoC 3 and PSoC 5LP: Priority is from 0 to 7.
 274:.\Generated_Source\PSoC4/isr_button.c **** *    PSoC 4: Priority is from 0 to 3.
 275:.\Generated_Source\PSoC4/isr_button.c **** *
 276:.\Generated_Source\PSoC4/isr_button.c **** *******************************************************************************/
 277:.\Generated_Source\PSoC4/isr_button.c **** uint8 isr_button_GetPriority(void)
 278:.\Generated_Source\PSoC4/isr_button.c **** {
 289              		.loc 1 278 0
 290              		.cfi_startproc
 291 0000 80B5     		push	{r7, lr}
ARM GAS  C:\Users\DELL\AppData\Local\Temp\ccOBeiyT.s 			page 11


 292              		.cfi_def_cfa_offset 8
 293              		.cfi_offset 7, -8
 294              		.cfi_offset 14, -4
 295 0002 82B0     		sub	sp, sp, #8
 296              		.cfi_def_cfa_offset 16
 297 0004 00AF     		add	r7, sp, #0
 298              		.cfi_def_cfa_register 7
 279:.\Generated_Source\PSoC4/isr_button.c ****     uint32 priority;
 280:.\Generated_Source\PSoC4/isr_button.c **** 	uint32 priorityOffset = ((isr_button__INTC_NUMBER % 4u) * 8u) + 6u;
 299              		.loc 1 280 0
 300 0006 1623     		mov	r3, #22
 301 0008 7B60     		str	r3, [r7, #4]
 281:.\Generated_Source\PSoC4/isr_button.c **** 
 282:.\Generated_Source\PSoC4/isr_button.c ****     priority = (*isr_button_INTC_PRIOR & isr_button__INTC_PRIOR_MASK) >> priorityOffset;
 302              		.loc 1 282 0
 303 000a 074B     		ldr	r3, .L21
 304 000c 1A68     		ldr	r2, [r3]
 305 000e C023     		mov	r3, #192
 306 0010 1B04     		lsl	r3, r3, #16
 307 0012 1A40     		and	r2, r3
 308 0014 7B68     		ldr	r3, [r7, #4]
 309 0016 DA40     		lsr	r2, r2, r3
 310 0018 131C     		mov	r3, r2
 311 001a 3B60     		str	r3, [r7]
 283:.\Generated_Source\PSoC4/isr_button.c **** 
 284:.\Generated_Source\PSoC4/isr_button.c ****     return (uint8)priority;
 312              		.loc 1 284 0
 313 001c 3B68     		ldr	r3, [r7]
 314 001e DBB2     		uxtb	r3, r3
 285:.\Generated_Source\PSoC4/isr_button.c **** }
 315              		.loc 1 285 0
 316 0020 181C     		mov	r0, r3
 317 0022 BD46     		mov	sp, r7
 318 0024 02B0     		add	sp, sp, #8
 319              		@ sp needed
 320 0026 80BD     		pop	{r7, pc}
 321              	.L22:
 322              		.align	2
 323              	.L21:
 324 0028 00E400E0 		.word	-536812544
 325              		.cfi_endproc
 326              	.LFE9:
 327              		.size	isr_button_GetPriority, .-isr_button_GetPriority
 328              		.section	.text.isr_button_Enable,"ax",%progbits
 329              		.align	2
 330              		.global	isr_button_Enable
 331              		.code	16
 332              		.thumb_func
 333              		.type	isr_button_Enable, %function
 334              	isr_button_Enable:
 335              	.LFB10:
 286:.\Generated_Source\PSoC4/isr_button.c **** 
 287:.\Generated_Source\PSoC4/isr_button.c **** 
 288:.\Generated_Source\PSoC4/isr_button.c **** /*******************************************************************************
 289:.\Generated_Source\PSoC4/isr_button.c **** * Function Name: isr_button_Enable
 290:.\Generated_Source\PSoC4/isr_button.c **** ********************************************************************************
 291:.\Generated_Source\PSoC4/isr_button.c **** *
ARM GAS  C:\Users\DELL\AppData\Local\Temp\ccOBeiyT.s 			page 12


 292:.\Generated_Source\PSoC4/isr_button.c **** * Summary:
 293:.\Generated_Source\PSoC4/isr_button.c **** *   Enables the interrupt to the interrupt controller. Do not call this function
 294:.\Generated_Source\PSoC4/isr_button.c **** *   unless ISR_Start() has been called or the functionality of the ISR_Start() 
 295:.\Generated_Source\PSoC4/isr_button.c **** *   function, which sets the vector and the priority, has been called.
 296:.\Generated_Source\PSoC4/isr_button.c **** *
 297:.\Generated_Source\PSoC4/isr_button.c **** * Parameters:
 298:.\Generated_Source\PSoC4/isr_button.c **** *   None
 299:.\Generated_Source\PSoC4/isr_button.c **** *
 300:.\Generated_Source\PSoC4/isr_button.c **** * Return:
 301:.\Generated_Source\PSoC4/isr_button.c **** *   None
 302:.\Generated_Source\PSoC4/isr_button.c **** *
 303:.\Generated_Source\PSoC4/isr_button.c **** *******************************************************************************/
 304:.\Generated_Source\PSoC4/isr_button.c **** void isr_button_Enable(void)
 305:.\Generated_Source\PSoC4/isr_button.c **** {
 336              		.loc 1 305 0
 337              		.cfi_startproc
 338 0000 80B5     		push	{r7, lr}
 339              		.cfi_def_cfa_offset 8
 340              		.cfi_offset 7, -8
 341              		.cfi_offset 14, -4
 342 0002 00AF     		add	r7, sp, #0
 343              		.cfi_def_cfa_register 7
 306:.\Generated_Source\PSoC4/isr_button.c ****     /* Enable the general interrupt. */
 307:.\Generated_Source\PSoC4/isr_button.c ****     *isr_button_INTC_SET_EN = isr_button__INTC_MASK;
 344              		.loc 1 307 0
 345 0004 024B     		ldr	r3, .L24
 346 0006 0422     		mov	r2, #4
 347 0008 1A60     		str	r2, [r3]
 308:.\Generated_Source\PSoC4/isr_button.c **** }
 348              		.loc 1 308 0
 349 000a BD46     		mov	sp, r7
 350              		@ sp needed
 351 000c 80BD     		pop	{r7, pc}
 352              	.L25:
 353 000e C046     		.align	2
 354              	.L24:
 355 0010 00E100E0 		.word	-536813312
 356              		.cfi_endproc
 357              	.LFE10:
 358              		.size	isr_button_Enable, .-isr_button_Enable
 359              		.section	.text.isr_button_GetState,"ax",%progbits
 360              		.align	2
 361              		.global	isr_button_GetState
 362              		.code	16
 363              		.thumb_func
 364              		.type	isr_button_GetState, %function
 365              	isr_button_GetState:
 366              	.LFB11:
 309:.\Generated_Source\PSoC4/isr_button.c **** 
 310:.\Generated_Source\PSoC4/isr_button.c **** 
 311:.\Generated_Source\PSoC4/isr_button.c **** /*******************************************************************************
 312:.\Generated_Source\PSoC4/isr_button.c **** * Function Name: isr_button_GetState
 313:.\Generated_Source\PSoC4/isr_button.c **** ********************************************************************************
 314:.\Generated_Source\PSoC4/isr_button.c **** *
 315:.\Generated_Source\PSoC4/isr_button.c **** * Summary:
 316:.\Generated_Source\PSoC4/isr_button.c **** *   Gets the state (enabled, disabled) of the Interrupt.
 317:.\Generated_Source\PSoC4/isr_button.c **** *
ARM GAS  C:\Users\DELL\AppData\Local\Temp\ccOBeiyT.s 			page 13


 318:.\Generated_Source\PSoC4/isr_button.c **** * Parameters:
 319:.\Generated_Source\PSoC4/isr_button.c **** *   None
 320:.\Generated_Source\PSoC4/isr_button.c **** *
 321:.\Generated_Source\PSoC4/isr_button.c **** * Return:
 322:.\Generated_Source\PSoC4/isr_button.c **** *   1 if enabled, 0 if disabled.
 323:.\Generated_Source\PSoC4/isr_button.c **** *
 324:.\Generated_Source\PSoC4/isr_button.c **** *******************************************************************************/
 325:.\Generated_Source\PSoC4/isr_button.c **** uint8 isr_button_GetState(void)
 326:.\Generated_Source\PSoC4/isr_button.c **** {
 367              		.loc 1 326 0
 368              		.cfi_startproc
 369 0000 80B5     		push	{r7, lr}
 370              		.cfi_def_cfa_offset 8
 371              		.cfi_offset 7, -8
 372              		.cfi_offset 14, -4
 373 0002 00AF     		add	r7, sp, #0
 374              		.cfi_def_cfa_register 7
 327:.\Generated_Source\PSoC4/isr_button.c ****     /* Get the state of the general interrupt. */
 328:.\Generated_Source\PSoC4/isr_button.c ****     return ((*isr_button_INTC_SET_EN & (uint32)isr_button__INTC_MASK) != 0u) ? 1u:0u;
 375              		.loc 1 328 0
 376 0004 054B     		ldr	r3, .L30
 377 0006 1B68     		ldr	r3, [r3]
 378 0008 0422     		mov	r2, #4
 379 000a 1340     		and	r3, r2
 380 000c 01D0     		beq	.L27
 381              		.loc 1 328 0 is_stmt 0 discriminator 1
 382 000e 0123     		mov	r3, #1
 383 0010 00E0     		b	.L28
 384              	.L27:
 385              		.loc 1 328 0 discriminator 2
 386 0012 0023     		mov	r3, #0
 387              	.L28:
 329:.\Generated_Source\PSoC4/isr_button.c **** }
 388              		.loc 1 329 0 is_stmt 1 discriminator 4
 389 0014 181C     		mov	r0, r3
 390 0016 BD46     		mov	sp, r7
 391              		@ sp needed
 392 0018 80BD     		pop	{r7, pc}
 393              	.L31:
 394 001a C046     		.align	2
 395              	.L30:
 396 001c 00E100E0 		.word	-536813312
 397              		.cfi_endproc
 398              	.LFE11:
 399              		.size	isr_button_GetState, .-isr_button_GetState
 400              		.section	.text.isr_button_Disable,"ax",%progbits
 401              		.align	2
 402              		.global	isr_button_Disable
 403              		.code	16
 404              		.thumb_func
 405              		.type	isr_button_Disable, %function
 406              	isr_button_Disable:
 407              	.LFB12:
 330:.\Generated_Source\PSoC4/isr_button.c **** 
 331:.\Generated_Source\PSoC4/isr_button.c **** 
 332:.\Generated_Source\PSoC4/isr_button.c **** /*******************************************************************************
 333:.\Generated_Source\PSoC4/isr_button.c **** * Function Name: isr_button_Disable
ARM GAS  C:\Users\DELL\AppData\Local\Temp\ccOBeiyT.s 			page 14


 334:.\Generated_Source\PSoC4/isr_button.c **** ********************************************************************************
 335:.\Generated_Source\PSoC4/isr_button.c **** *
 336:.\Generated_Source\PSoC4/isr_button.c **** * Summary:
 337:.\Generated_Source\PSoC4/isr_button.c **** *   Disables the Interrupt in the interrupt controller.
 338:.\Generated_Source\PSoC4/isr_button.c **** *
 339:.\Generated_Source\PSoC4/isr_button.c **** * Parameters:
 340:.\Generated_Source\PSoC4/isr_button.c **** *   None
 341:.\Generated_Source\PSoC4/isr_button.c **** *
 342:.\Generated_Source\PSoC4/isr_button.c **** * Return:
 343:.\Generated_Source\PSoC4/isr_button.c **** *   None
 344:.\Generated_Source\PSoC4/isr_button.c **** *
 345:.\Generated_Source\PSoC4/isr_button.c **** *******************************************************************************/
 346:.\Generated_Source\PSoC4/isr_button.c **** void isr_button_Disable(void)
 347:.\Generated_Source\PSoC4/isr_button.c **** {
 408              		.loc 1 347 0
 409              		.cfi_startproc
 410 0000 80B5     		push	{r7, lr}
 411              		.cfi_def_cfa_offset 8
 412              		.cfi_offset 7, -8
 413              		.cfi_offset 14, -4
 414 0002 00AF     		add	r7, sp, #0
 415              		.cfi_def_cfa_register 7
 348:.\Generated_Source\PSoC4/isr_button.c ****     /* Disable the general interrupt. */
 349:.\Generated_Source\PSoC4/isr_button.c ****     *isr_button_INTC_CLR_EN = isr_button__INTC_MASK;
 416              		.loc 1 349 0
 417 0004 024B     		ldr	r3, .L33
 418 0006 0422     		mov	r2, #4
 419 0008 1A60     		str	r2, [r3]
 350:.\Generated_Source\PSoC4/isr_button.c **** }
 420              		.loc 1 350 0
 421 000a BD46     		mov	sp, r7
 422              		@ sp needed
 423 000c 80BD     		pop	{r7, pc}
 424              	.L34:
 425 000e C046     		.align	2
 426              	.L33:
 427 0010 80E100E0 		.word	-536813184
 428              		.cfi_endproc
 429              	.LFE12:
 430              		.size	isr_button_Disable, .-isr_button_Disable
 431              		.section	.text.isr_button_SetPending,"ax",%progbits
 432              		.align	2
 433              		.global	isr_button_SetPending
 434              		.code	16
 435              		.thumb_func
 436              		.type	isr_button_SetPending, %function
 437              	isr_button_SetPending:
 438              	.LFB13:
 351:.\Generated_Source\PSoC4/isr_button.c **** 
 352:.\Generated_Source\PSoC4/isr_button.c **** 
 353:.\Generated_Source\PSoC4/isr_button.c **** /*******************************************************************************
 354:.\Generated_Source\PSoC4/isr_button.c **** * Function Name: isr_button_SetPending
 355:.\Generated_Source\PSoC4/isr_button.c **** ********************************************************************************
 356:.\Generated_Source\PSoC4/isr_button.c **** *
 357:.\Generated_Source\PSoC4/isr_button.c **** * Summary:
 358:.\Generated_Source\PSoC4/isr_button.c **** *   Causes the Interrupt to enter the pending state, a software method of
 359:.\Generated_Source\PSoC4/isr_button.c **** *   generating the interrupt.
ARM GAS  C:\Users\DELL\AppData\Local\Temp\ccOBeiyT.s 			page 15


 360:.\Generated_Source\PSoC4/isr_button.c **** *
 361:.\Generated_Source\PSoC4/isr_button.c **** * Parameters:
 362:.\Generated_Source\PSoC4/isr_button.c **** *   None
 363:.\Generated_Source\PSoC4/isr_button.c **** *
 364:.\Generated_Source\PSoC4/isr_button.c **** * Return:
 365:.\Generated_Source\PSoC4/isr_button.c **** *   None
 366:.\Generated_Source\PSoC4/isr_button.c **** *
 367:.\Generated_Source\PSoC4/isr_button.c **** * Side Effects:
 368:.\Generated_Source\PSoC4/isr_button.c **** *   If interrupts are enabled and the interrupt is set up properly, the ISR is
 369:.\Generated_Source\PSoC4/isr_button.c **** *   entered (depending on the priority of this interrupt and other pending 
 370:.\Generated_Source\PSoC4/isr_button.c **** *   interrupts).
 371:.\Generated_Source\PSoC4/isr_button.c **** *
 372:.\Generated_Source\PSoC4/isr_button.c **** *******************************************************************************/
 373:.\Generated_Source\PSoC4/isr_button.c **** void isr_button_SetPending(void)
 374:.\Generated_Source\PSoC4/isr_button.c **** {
 439              		.loc 1 374 0
 440              		.cfi_startproc
 441 0000 80B5     		push	{r7, lr}
 442              		.cfi_def_cfa_offset 8
 443              		.cfi_offset 7, -8
 444              		.cfi_offset 14, -4
 445 0002 00AF     		add	r7, sp, #0
 446              		.cfi_def_cfa_register 7
 375:.\Generated_Source\PSoC4/isr_button.c ****     *isr_button_INTC_SET_PD = isr_button__INTC_MASK;
 447              		.loc 1 375 0
 448 0004 024B     		ldr	r3, .L36
 449 0006 0422     		mov	r2, #4
 450 0008 1A60     		str	r2, [r3]
 376:.\Generated_Source\PSoC4/isr_button.c **** }
 451              		.loc 1 376 0
 452 000a BD46     		mov	sp, r7
 453              		@ sp needed
 454 000c 80BD     		pop	{r7, pc}
 455              	.L37:
 456 000e C046     		.align	2
 457              	.L36:
 458 0010 00E200E0 		.word	-536813056
 459              		.cfi_endproc
 460              	.LFE13:
 461              		.size	isr_button_SetPending, .-isr_button_SetPending
 462              		.section	.text.isr_button_ClearPending,"ax",%progbits
 463              		.align	2
 464              		.global	isr_button_ClearPending
 465              		.code	16
 466              		.thumb_func
 467              		.type	isr_button_ClearPending, %function
 468              	isr_button_ClearPending:
 469              	.LFB14:
 377:.\Generated_Source\PSoC4/isr_button.c **** 
 378:.\Generated_Source\PSoC4/isr_button.c **** 
 379:.\Generated_Source\PSoC4/isr_button.c **** /*******************************************************************************
 380:.\Generated_Source\PSoC4/isr_button.c **** * Function Name: isr_button_ClearPending
 381:.\Generated_Source\PSoC4/isr_button.c **** ********************************************************************************
 382:.\Generated_Source\PSoC4/isr_button.c **** *
 383:.\Generated_Source\PSoC4/isr_button.c **** * Summary:
 384:.\Generated_Source\PSoC4/isr_button.c **** *   Clears a pending interrupt in the interrupt controller.
 385:.\Generated_Source\PSoC4/isr_button.c **** *
ARM GAS  C:\Users\DELL\AppData\Local\Temp\ccOBeiyT.s 			page 16


 386:.\Generated_Source\PSoC4/isr_button.c **** *   Note Some interrupt sources are clear-on-read and require the block 
 387:.\Generated_Source\PSoC4/isr_button.c **** *   interrupt/status register to be read/cleared with the appropriate block API 
 388:.\Generated_Source\PSoC4/isr_button.c **** *   (GPIO, UART, and so on). Otherwise the ISR will continue to remain in 
 389:.\Generated_Source\PSoC4/isr_button.c **** *   pending state even though the interrupt itself is cleared using this API.
 390:.\Generated_Source\PSoC4/isr_button.c **** *
 391:.\Generated_Source\PSoC4/isr_button.c **** * Parameters:
 392:.\Generated_Source\PSoC4/isr_button.c **** *   None
 393:.\Generated_Source\PSoC4/isr_button.c **** *
 394:.\Generated_Source\PSoC4/isr_button.c **** * Return:
 395:.\Generated_Source\PSoC4/isr_button.c **** *   None
 396:.\Generated_Source\PSoC4/isr_button.c **** *
 397:.\Generated_Source\PSoC4/isr_button.c **** *******************************************************************************/
 398:.\Generated_Source\PSoC4/isr_button.c **** void isr_button_ClearPending(void)
 399:.\Generated_Source\PSoC4/isr_button.c **** {
 470              		.loc 1 399 0
 471              		.cfi_startproc
 472 0000 80B5     		push	{r7, lr}
 473              		.cfi_def_cfa_offset 8
 474              		.cfi_offset 7, -8
 475              		.cfi_offset 14, -4
 476 0002 00AF     		add	r7, sp, #0
 477              		.cfi_def_cfa_register 7
 400:.\Generated_Source\PSoC4/isr_button.c ****     *isr_button_INTC_CLR_PD = isr_button__INTC_MASK;
 478              		.loc 1 400 0
 479 0004 024B     		ldr	r3, .L39
 480 0006 0422     		mov	r2, #4
 481 0008 1A60     		str	r2, [r3]
 401:.\Generated_Source\PSoC4/isr_button.c **** }
 482              		.loc 1 401 0
 483 000a BD46     		mov	sp, r7
 484              		@ sp needed
 485 000c 80BD     		pop	{r7, pc}
 486              	.L40:
 487 000e C046     		.align	2
 488              	.L39:
 489 0010 80E200E0 		.word	-536812928
 490              		.cfi_endproc
 491              	.LFE14:
 492              		.size	isr_button_ClearPending, .-isr_button_ClearPending
 493              		.text
 494              	.Letext0:
 495              		.file 2 "Generated_Source\\PSoC4/cytypes.h"
 496              		.section	.debug_info,"",%progbits
 497              	.Ldebug_info0:
 498 0000 40020000 		.4byte	0x240
 499 0004 0400     		.2byte	0x4
 500 0006 00000000 		.4byte	.Ldebug_abbrev0
 501 000a 04       		.byte	0x4
 502 000b 01       		.uleb128 0x1
 503 000c FA000000 		.4byte	.LASF33
 504 0010 01       		.byte	0x1
 505 0011 9D000000 		.4byte	.LASF34
 506 0015 62020000 		.4byte	.LASF35
 507 0019 00000000 		.4byte	.Ldebug_ranges0+0
 508 001d 00000000 		.4byte	0
 509 0021 00000000 		.4byte	.Ldebug_line0
 510 0025 02       		.uleb128 0x2
ARM GAS  C:\Users\DELL\AppData\Local\Temp\ccOBeiyT.s 			page 17


 511 0026 01       		.byte	0x1
 512 0027 06       		.byte	0x6
 513 0028 F5020000 		.4byte	.LASF0
 514 002c 02       		.uleb128 0x2
 515 002d 01       		.byte	0x1
 516 002e 08       		.byte	0x8
 517 002f 8F000000 		.4byte	.LASF1
 518 0033 02       		.uleb128 0x2
 519 0034 02       		.byte	0x2
 520 0035 05       		.byte	0x5
 521 0036 58020000 		.4byte	.LASF2
 522 003a 02       		.uleb128 0x2
 523 003b 02       		.byte	0x2
 524 003c 07       		.byte	0x7
 525 003d 76000000 		.4byte	.LASF3
 526 0041 02       		.uleb128 0x2
 527 0042 04       		.byte	0x4
 528 0043 05       		.byte	0x5
 529 0044 EC020000 		.4byte	.LASF4
 530 0048 02       		.uleb128 0x2
 531 0049 04       		.byte	0x4
 532 004a 07       		.byte	0x7
 533 004b D2000000 		.4byte	.LASF5
 534 004f 02       		.uleb128 0x2
 535 0050 08       		.byte	0x8
 536 0051 05       		.byte	0x5
 537 0052 45020000 		.4byte	.LASF6
 538 0056 02       		.uleb128 0x2
 539 0057 08       		.byte	0x8
 540 0058 07       		.byte	0x7
 541 0059 F2010000 		.4byte	.LASF7
 542 005d 03       		.uleb128 0x3
 543 005e 04       		.byte	0x4
 544 005f 05       		.byte	0x5
 545 0060 696E7400 		.ascii	"int\000"
 546 0064 02       		.uleb128 0x2
 547 0065 04       		.byte	0x4
 548 0066 07       		.byte	0x7
 549 0067 DD010000 		.4byte	.LASF8
 550 006b 04       		.uleb128 0x4
 551 006c E4000000 		.4byte	.LASF9
 552 0070 02       		.byte	0x2
 553 0071 C2       		.byte	0xc2
 554 0072 2C000000 		.4byte	0x2c
 555 0076 04       		.uleb128 0x4
 556 0077 97010000 		.4byte	.LASF10
 557 007b 02       		.byte	0x2
 558 007c C4       		.byte	0xc4
 559 007d 48000000 		.4byte	0x48
 560 0081 02       		.uleb128 0x2
 561 0082 04       		.byte	0x4
 562 0083 04       		.byte	0x4
 563 0084 89000000 		.4byte	.LASF11
 564 0088 02       		.uleb128 0x2
 565 0089 08       		.byte	0x8
 566 008a 04       		.byte	0x4
 567 008b F3000000 		.4byte	.LASF12
ARM GAS  C:\Users\DELL\AppData\Local\Temp\ccOBeiyT.s 			page 18


 568 008f 02       		.uleb128 0x2
 569 0090 01       		.byte	0x1
 570 0091 08       		.byte	0x8
 571 0092 53020000 		.4byte	.LASF13
 572 0096 05       		.uleb128 0x5
 573 0097 13000000 		.4byte	.LASF14
 574 009b 02       		.byte	0x2
 575 009c 6E01     		.2byte	0x16e
 576 009e A2000000 		.4byte	0xa2
 577 00a2 06       		.uleb128 0x6
 578 00a3 76000000 		.4byte	0x76
 579 00a7 05       		.uleb128 0x5
 580 00a8 1A020000 		.4byte	.LASF15
 581 00ac 02       		.byte	0x2
 582 00ad 7E01     		.2byte	0x17e
 583 00af B3000000 		.4byte	0xb3
 584 00b3 07       		.uleb128 0x7
 585 00b4 04       		.byte	0x4
 586 00b5 B9000000 		.4byte	0xb9
 587 00b9 08       		.uleb128 0x8
 588 00ba 02       		.uleb128 0x2
 589 00bb 04       		.byte	0x4
 590 00bc 07       		.byte	0x7
 591 00bd 3C020000 		.4byte	.LASF16
 592 00c1 09       		.uleb128 0x9
 593 00c2 09020000 		.4byte	.LASF17
 594 00c6 01       		.byte	0x1
 595 00c7 38       		.byte	0x38
 596 00c8 00000000 		.4byte	.LFB2
 597 00cc 24000000 		.4byte	.LFE2-.LFB2
 598 00d0 01       		.uleb128 0x1
 599 00d1 9C       		.byte	0x9c
 600 00d2 0A       		.uleb128 0xa
 601 00d3 D9020000 		.4byte	.LASF20
 602 00d7 01       		.byte	0x1
 603 00d8 63       		.byte	0x63
 604 00d9 00000000 		.4byte	.LFB3
 605 00dd 24000000 		.4byte	.LFE3-.LFB3
 606 00e1 01       		.uleb128 0x1
 607 00e2 9C       		.byte	0x9c
 608 00e3 F6000000 		.4byte	0xf6
 609 00e7 0B       		.uleb128 0xb
 610 00e8 EA010000 		.4byte	.LASF22
 611 00ec 01       		.byte	0x1
 612 00ed 63       		.byte	0x63
 613 00ee A7000000 		.4byte	0xa7
 614 00f2 02       		.uleb128 0x2
 615 00f3 91       		.byte	0x91
 616 00f4 74       		.sleb128 -12
 617 00f5 00       		.byte	0
 618 00f6 09       		.uleb128 0x9
 619 00f7 CD010000 		.4byte	.LASF18
 620 00fb 01       		.byte	0x1
 621 00fc 81       		.byte	0x81
 622 00fd 00000000 		.4byte	.LFB4
 623 0101 18000000 		.4byte	.LFE4-.LFB4
 624 0105 01       		.uleb128 0x1
ARM GAS  C:\Users\DELL\AppData\Local\Temp\ccOBeiyT.s 			page 19


 625 0106 9C       		.byte	0x9c
 626 0107 0C       		.uleb128 0xc
 627 0108 3B000000 		.4byte	.LASF19
 628 010c 01       		.byte	0x1
 629 010d 9F       		.byte	0x9f
 630 010e 00000000 		.4byte	.LFB5
 631 0112 08000000 		.4byte	.LFE5-.LFB5
 632 0116 01       		.uleb128 0x1
 633 0117 9C       		.byte	0x9c
 634 0118 0D       		.uleb128 0xd
 635 0119 27020000 		.4byte	.LASF21
 636 011d 01       		.byte	0x1
 637 011e C7       		.byte	0xc7
 638 011f 00000000 		.4byte	.LFB6
 639 0123 18000000 		.4byte	.LFE6-.LFB6
 640 0127 01       		.uleb128 0x1
 641 0128 9C       		.byte	0x9c
 642 0129 3C010000 		.4byte	0x13c
 643 012d 0B       		.uleb128 0xb
 644 012e EA010000 		.4byte	.LASF22
 645 0132 01       		.byte	0x1
 646 0133 C7       		.byte	0xc7
 647 0134 A7000000 		.4byte	0xa7
 648 0138 02       		.uleb128 0x2
 649 0139 91       		.byte	0x91
 650 013a 74       		.sleb128 -12
 651 013b 00       		.byte	0
 652 013c 0E       		.uleb128 0xe
 653 013d 19000000 		.4byte	.LASF28
 654 0141 01       		.byte	0x1
 655 0142 DB       		.byte	0xdb
 656 0143 A7000000 		.4byte	0xa7
 657 0147 00000000 		.4byte	.LFB7
 658 014b 14000000 		.4byte	.LFE7-.LFB7
 659 014f 01       		.uleb128 0x1
 660 0150 9C       		.byte	0x9c
 661 0151 0A       		.uleb128 0xa
 662 0152 01030000 		.4byte	.LASF23
 663 0156 01       		.byte	0x1
 664 0157 F9       		.byte	0xf9
 665 0158 00000000 		.4byte	.LFB8
 666 015c 50000000 		.4byte	.LFE8-.LFB8
 667 0160 01       		.uleb128 0x1
 668 0161 9C       		.byte	0x9c
 669 0162 91010000 		.4byte	0x191
 670 0166 0B       		.uleb128 0xb
 671 0167 EA000000 		.4byte	.LASF24
 672 016b 01       		.byte	0x1
 673 016c F9       		.byte	0xf9
 674 016d 6B000000 		.4byte	0x6b
 675 0171 02       		.uleb128 0x2
 676 0172 91       		.byte	0x91
 677 0173 67       		.sleb128 -25
 678 0174 0F       		.uleb128 0xf
 679 0175 C3000000 		.4byte	.LASF25
 680 0179 01       		.byte	0x1
 681 017a FB       		.byte	0xfb
ARM GAS  C:\Users\DELL\AppData\Local\Temp\ccOBeiyT.s 			page 20


 682 017b 6B000000 		.4byte	0x6b
 683 017f 02       		.uleb128 0x2
 684 0180 91       		.byte	0x91
 685 0181 6B       		.sleb128 -21
 686 0182 0F       		.uleb128 0xf
 687 0183 88010000 		.4byte	.LASF26
 688 0187 01       		.byte	0x1
 689 0188 FC       		.byte	0xfc
 690 0189 76000000 		.4byte	0x76
 691 018d 02       		.uleb128 0x2
 692 018e 91       		.byte	0x91
 693 018f 6C       		.sleb128 -20
 694 0190 00       		.byte	0
 695 0191 10       		.uleb128 0x10
 696 0192 9E010000 		.4byte	.LASF36
 697 0196 01       		.byte	0x1
 698 0197 1501     		.2byte	0x115
 699 0199 6B000000 		.4byte	0x6b
 700 019d 00000000 		.4byte	.LFB9
 701 01a1 2C000000 		.4byte	.LFE9-.LFB9
 702 01a5 01       		.uleb128 0x1
 703 01a6 9C       		.byte	0x9c
 704 01a7 CA010000 		.4byte	0x1ca
 705 01ab 11       		.uleb128 0x11
 706 01ac EA000000 		.4byte	.LASF24
 707 01b0 01       		.byte	0x1
 708 01b1 1701     		.2byte	0x117
 709 01b3 76000000 		.4byte	0x76
 710 01b7 02       		.uleb128 0x2
 711 01b8 91       		.byte	0x91
 712 01b9 70       		.sleb128 -16
 713 01ba 11       		.uleb128 0x11
 714 01bb 88010000 		.4byte	.LASF26
 715 01bf 01       		.byte	0x1
 716 01c0 1801     		.2byte	0x118
 717 01c2 76000000 		.4byte	0x76
 718 01c6 02       		.uleb128 0x2
 719 01c7 91       		.byte	0x91
 720 01c8 74       		.sleb128 -12
 721 01c9 00       		.byte	0
 722 01ca 12       		.uleb128 0x12
 723 01cb 50000000 		.4byte	.LASF27
 724 01cf 01       		.byte	0x1
 725 01d0 3001     		.2byte	0x130
 726 01d2 00000000 		.4byte	.LFB10
 727 01d6 14000000 		.4byte	.LFE10-.LFB10
 728 01da 01       		.uleb128 0x1
 729 01db 9C       		.byte	0x9c
 730 01dc 13       		.uleb128 0x13
 731 01dd 62000000 		.4byte	.LASF29
 732 01e1 01       		.byte	0x1
 733 01e2 4501     		.2byte	0x145
 734 01e4 6B000000 		.4byte	0x6b
 735 01e8 00000000 		.4byte	.LFB11
 736 01ec 20000000 		.4byte	.LFE11-.LFB11
 737 01f0 01       		.uleb128 0x1
 738 01f1 9C       		.byte	0x9c
ARM GAS  C:\Users\DELL\AppData\Local\Temp\ccOBeiyT.s 			page 21


 739 01f2 12       		.uleb128 0x12
 740 01f3 00000000 		.4byte	.LASF30
 741 01f7 01       		.byte	0x1
 742 01f8 5A01     		.2byte	0x15a
 743 01fa 00000000 		.4byte	.LFB12
 744 01fe 14000000 		.4byte	.LFE12-.LFB12
 745 0202 01       		.uleb128 0x1
 746 0203 9C       		.byte	0x9c
 747 0204 12       		.uleb128 0x12
 748 0205 C3020000 		.4byte	.LASF31
 749 0209 01       		.byte	0x1
 750 020a 7501     		.2byte	0x175
 751 020c 00000000 		.4byte	.LFB13
 752 0210 14000000 		.4byte	.LFE13-.LFB13
 753 0214 01       		.uleb128 0x1
 754 0215 9C       		.byte	0x9c
 755 0216 12       		.uleb128 0x12
 756 0217 B5010000 		.4byte	.LASF32
 757 021b 01       		.byte	0x1
 758 021c 8E01     		.2byte	0x18e
 759 021e 00000000 		.4byte	.LFB14
 760 0222 14000000 		.4byte	.LFE14-.LFB14
 761 0226 01       		.uleb128 0x1
 762 0227 9C       		.byte	0x9c
 763 0228 14       		.uleb128 0x14
 764 0229 A7000000 		.4byte	0xa7
 765 022d 38020000 		.4byte	0x238
 766 0231 15       		.uleb128 0x15
 767 0232 BA000000 		.4byte	0xba
 768 0236 2F       		.byte	0x2f
 769 0237 00       		.byte	0
 770 0238 16       		.uleb128 0x16
 771 0239 2E000000 		.4byte	.LASF37
 772 023d 01       		.byte	0x1
 773 023e 21       		.byte	0x21
 774 023f 28020000 		.4byte	0x228
 775 0243 00       		.byte	0
 776              		.section	.debug_abbrev,"",%progbits
 777              	.Ldebug_abbrev0:
 778 0000 01       		.uleb128 0x1
 779 0001 11       		.uleb128 0x11
 780 0002 01       		.byte	0x1
 781 0003 25       		.uleb128 0x25
 782 0004 0E       		.uleb128 0xe
 783 0005 13       		.uleb128 0x13
 784 0006 0B       		.uleb128 0xb
 785 0007 03       		.uleb128 0x3
 786 0008 0E       		.uleb128 0xe
 787 0009 1B       		.uleb128 0x1b
 788 000a 0E       		.uleb128 0xe
 789 000b 55       		.uleb128 0x55
 790 000c 17       		.uleb128 0x17
 791 000d 11       		.uleb128 0x11
 792 000e 01       		.uleb128 0x1
 793 000f 10       		.uleb128 0x10
 794 0010 17       		.uleb128 0x17
 795 0011 00       		.byte	0
ARM GAS  C:\Users\DELL\AppData\Local\Temp\ccOBeiyT.s 			page 22


 796 0012 00       		.byte	0
 797 0013 02       		.uleb128 0x2
 798 0014 24       		.uleb128 0x24
 799 0015 00       		.byte	0
 800 0016 0B       		.uleb128 0xb
 801 0017 0B       		.uleb128 0xb
 802 0018 3E       		.uleb128 0x3e
 803 0019 0B       		.uleb128 0xb
 804 001a 03       		.uleb128 0x3
 805 001b 0E       		.uleb128 0xe
 806 001c 00       		.byte	0
 807 001d 00       		.byte	0
 808 001e 03       		.uleb128 0x3
 809 001f 24       		.uleb128 0x24
 810 0020 00       		.byte	0
 811 0021 0B       		.uleb128 0xb
 812 0022 0B       		.uleb128 0xb
 813 0023 3E       		.uleb128 0x3e
 814 0024 0B       		.uleb128 0xb
 815 0025 03       		.uleb128 0x3
 816 0026 08       		.uleb128 0x8
 817 0027 00       		.byte	0
 818 0028 00       		.byte	0
 819 0029 04       		.uleb128 0x4
 820 002a 16       		.uleb128 0x16
 821 002b 00       		.byte	0
 822 002c 03       		.uleb128 0x3
 823 002d 0E       		.uleb128 0xe
 824 002e 3A       		.uleb128 0x3a
 825 002f 0B       		.uleb128 0xb
 826 0030 3B       		.uleb128 0x3b
 827 0031 0B       		.uleb128 0xb
 828 0032 49       		.uleb128 0x49
 829 0033 13       		.uleb128 0x13
 830 0034 00       		.byte	0
 831 0035 00       		.byte	0
 832 0036 05       		.uleb128 0x5
 833 0037 16       		.uleb128 0x16
 834 0038 00       		.byte	0
 835 0039 03       		.uleb128 0x3
 836 003a 0E       		.uleb128 0xe
 837 003b 3A       		.uleb128 0x3a
 838 003c 0B       		.uleb128 0xb
 839 003d 3B       		.uleb128 0x3b
 840 003e 05       		.uleb128 0x5
 841 003f 49       		.uleb128 0x49
 842 0040 13       		.uleb128 0x13
 843 0041 00       		.byte	0
 844 0042 00       		.byte	0
 845 0043 06       		.uleb128 0x6
 846 0044 35       		.uleb128 0x35
 847 0045 00       		.byte	0
 848 0046 49       		.uleb128 0x49
 849 0047 13       		.uleb128 0x13
 850 0048 00       		.byte	0
 851 0049 00       		.byte	0
 852 004a 07       		.uleb128 0x7
ARM GAS  C:\Users\DELL\AppData\Local\Temp\ccOBeiyT.s 			page 23


 853 004b 0F       		.uleb128 0xf
 854 004c 00       		.byte	0
 855 004d 0B       		.uleb128 0xb
 856 004e 0B       		.uleb128 0xb
 857 004f 49       		.uleb128 0x49
 858 0050 13       		.uleb128 0x13
 859 0051 00       		.byte	0
 860 0052 00       		.byte	0
 861 0053 08       		.uleb128 0x8
 862 0054 15       		.uleb128 0x15
 863 0055 00       		.byte	0
 864 0056 27       		.uleb128 0x27
 865 0057 19       		.uleb128 0x19
 866 0058 00       		.byte	0
 867 0059 00       		.byte	0
 868 005a 09       		.uleb128 0x9
 869 005b 2E       		.uleb128 0x2e
 870 005c 00       		.byte	0
 871 005d 3F       		.uleb128 0x3f
 872 005e 19       		.uleb128 0x19
 873 005f 03       		.uleb128 0x3
 874 0060 0E       		.uleb128 0xe
 875 0061 3A       		.uleb128 0x3a
 876 0062 0B       		.uleb128 0xb
 877 0063 3B       		.uleb128 0x3b
 878 0064 0B       		.uleb128 0xb
 879 0065 27       		.uleb128 0x27
 880 0066 19       		.uleb128 0x19
 881 0067 11       		.uleb128 0x11
 882 0068 01       		.uleb128 0x1
 883 0069 12       		.uleb128 0x12
 884 006a 06       		.uleb128 0x6
 885 006b 40       		.uleb128 0x40
 886 006c 18       		.uleb128 0x18
 887 006d 9642     		.uleb128 0x2116
 888 006f 19       		.uleb128 0x19
 889 0070 00       		.byte	0
 890 0071 00       		.byte	0
 891 0072 0A       		.uleb128 0xa
 892 0073 2E       		.uleb128 0x2e
 893 0074 01       		.byte	0x1
 894 0075 3F       		.uleb128 0x3f
 895 0076 19       		.uleb128 0x19
 896 0077 03       		.uleb128 0x3
 897 0078 0E       		.uleb128 0xe
 898 0079 3A       		.uleb128 0x3a
 899 007a 0B       		.uleb128 0xb
 900 007b 3B       		.uleb128 0x3b
 901 007c 0B       		.uleb128 0xb
 902 007d 27       		.uleb128 0x27
 903 007e 19       		.uleb128 0x19
 904 007f 11       		.uleb128 0x11
 905 0080 01       		.uleb128 0x1
 906 0081 12       		.uleb128 0x12
 907 0082 06       		.uleb128 0x6
 908 0083 40       		.uleb128 0x40
 909 0084 18       		.uleb128 0x18
ARM GAS  C:\Users\DELL\AppData\Local\Temp\ccOBeiyT.s 			page 24


 910 0085 9642     		.uleb128 0x2116
 911 0087 19       		.uleb128 0x19
 912 0088 01       		.uleb128 0x1
 913 0089 13       		.uleb128 0x13
 914 008a 00       		.byte	0
 915 008b 00       		.byte	0
 916 008c 0B       		.uleb128 0xb
 917 008d 05       		.uleb128 0x5
 918 008e 00       		.byte	0
 919 008f 03       		.uleb128 0x3
 920 0090 0E       		.uleb128 0xe
 921 0091 3A       		.uleb128 0x3a
 922 0092 0B       		.uleb128 0xb
 923 0093 3B       		.uleb128 0x3b
 924 0094 0B       		.uleb128 0xb
 925 0095 49       		.uleb128 0x49
 926 0096 13       		.uleb128 0x13
 927 0097 02       		.uleb128 0x2
 928 0098 18       		.uleb128 0x18
 929 0099 00       		.byte	0
 930 009a 00       		.byte	0
 931 009b 0C       		.uleb128 0xc
 932 009c 2E       		.uleb128 0x2e
 933 009d 00       		.byte	0
 934 009e 3F       		.uleb128 0x3f
 935 009f 19       		.uleb128 0x19
 936 00a0 03       		.uleb128 0x3
 937 00a1 0E       		.uleb128 0xe
 938 00a2 3A       		.uleb128 0x3a
 939 00a3 0B       		.uleb128 0xb
 940 00a4 3B       		.uleb128 0x3b
 941 00a5 0B       		.uleb128 0xb
 942 00a6 27       		.uleb128 0x27
 943 00a7 19       		.uleb128 0x19
 944 00a8 11       		.uleb128 0x11
 945 00a9 01       		.uleb128 0x1
 946 00aa 12       		.uleb128 0x12
 947 00ab 06       		.uleb128 0x6
 948 00ac 40       		.uleb128 0x40
 949 00ad 18       		.uleb128 0x18
 950 00ae 9742     		.uleb128 0x2117
 951 00b0 19       		.uleb128 0x19
 952 00b1 00       		.byte	0
 953 00b2 00       		.byte	0
 954 00b3 0D       		.uleb128 0xd
 955 00b4 2E       		.uleb128 0x2e
 956 00b5 01       		.byte	0x1
 957 00b6 3F       		.uleb128 0x3f
 958 00b7 19       		.uleb128 0x19
 959 00b8 03       		.uleb128 0x3
 960 00b9 0E       		.uleb128 0xe
 961 00ba 3A       		.uleb128 0x3a
 962 00bb 0B       		.uleb128 0xb
 963 00bc 3B       		.uleb128 0x3b
 964 00bd 0B       		.uleb128 0xb
 965 00be 27       		.uleb128 0x27
 966 00bf 19       		.uleb128 0x19
ARM GAS  C:\Users\DELL\AppData\Local\Temp\ccOBeiyT.s 			page 25


 967 00c0 11       		.uleb128 0x11
 968 00c1 01       		.uleb128 0x1
 969 00c2 12       		.uleb128 0x12
 970 00c3 06       		.uleb128 0x6
 971 00c4 40       		.uleb128 0x40
 972 00c5 18       		.uleb128 0x18
 973 00c6 9742     		.uleb128 0x2117
 974 00c8 19       		.uleb128 0x19
 975 00c9 01       		.uleb128 0x1
 976 00ca 13       		.uleb128 0x13
 977 00cb 00       		.byte	0
 978 00cc 00       		.byte	0
 979 00cd 0E       		.uleb128 0xe
 980 00ce 2E       		.uleb128 0x2e
 981 00cf 00       		.byte	0
 982 00d0 3F       		.uleb128 0x3f
 983 00d1 19       		.uleb128 0x19
 984 00d2 03       		.uleb128 0x3
 985 00d3 0E       		.uleb128 0xe
 986 00d4 3A       		.uleb128 0x3a
 987 00d5 0B       		.uleb128 0xb
 988 00d6 3B       		.uleb128 0x3b
 989 00d7 0B       		.uleb128 0xb
 990 00d8 27       		.uleb128 0x27
 991 00d9 19       		.uleb128 0x19
 992 00da 49       		.uleb128 0x49
 993 00db 13       		.uleb128 0x13
 994 00dc 11       		.uleb128 0x11
 995 00dd 01       		.uleb128 0x1
 996 00de 12       		.uleb128 0x12
 997 00df 06       		.uleb128 0x6
 998 00e0 40       		.uleb128 0x40
 999 00e1 18       		.uleb128 0x18
 1000 00e2 9742     		.uleb128 0x2117
 1001 00e4 19       		.uleb128 0x19
 1002 00e5 00       		.byte	0
 1003 00e6 00       		.byte	0
 1004 00e7 0F       		.uleb128 0xf
 1005 00e8 34       		.uleb128 0x34
 1006 00e9 00       		.byte	0
 1007 00ea 03       		.uleb128 0x3
 1008 00eb 0E       		.uleb128 0xe
 1009 00ec 3A       		.uleb128 0x3a
 1010 00ed 0B       		.uleb128 0xb
 1011 00ee 3B       		.uleb128 0x3b
 1012 00ef 0B       		.uleb128 0xb
 1013 00f0 49       		.uleb128 0x49
 1014 00f1 13       		.uleb128 0x13
 1015 00f2 02       		.uleb128 0x2
 1016 00f3 18       		.uleb128 0x18
 1017 00f4 00       		.byte	0
 1018 00f5 00       		.byte	0
 1019 00f6 10       		.uleb128 0x10
 1020 00f7 2E       		.uleb128 0x2e
 1021 00f8 01       		.byte	0x1
 1022 00f9 3F       		.uleb128 0x3f
 1023 00fa 19       		.uleb128 0x19
ARM GAS  C:\Users\DELL\AppData\Local\Temp\ccOBeiyT.s 			page 26


 1024 00fb 03       		.uleb128 0x3
 1025 00fc 0E       		.uleb128 0xe
 1026 00fd 3A       		.uleb128 0x3a
 1027 00fe 0B       		.uleb128 0xb
 1028 00ff 3B       		.uleb128 0x3b
 1029 0100 05       		.uleb128 0x5
 1030 0101 27       		.uleb128 0x27
 1031 0102 19       		.uleb128 0x19
 1032 0103 49       		.uleb128 0x49
 1033 0104 13       		.uleb128 0x13
 1034 0105 11       		.uleb128 0x11
 1035 0106 01       		.uleb128 0x1
 1036 0107 12       		.uleb128 0x12
 1037 0108 06       		.uleb128 0x6
 1038 0109 40       		.uleb128 0x40
 1039 010a 18       		.uleb128 0x18
 1040 010b 9742     		.uleb128 0x2117
 1041 010d 19       		.uleb128 0x19
 1042 010e 01       		.uleb128 0x1
 1043 010f 13       		.uleb128 0x13
 1044 0110 00       		.byte	0
 1045 0111 00       		.byte	0
 1046 0112 11       		.uleb128 0x11
 1047 0113 34       		.uleb128 0x34
 1048 0114 00       		.byte	0
 1049 0115 03       		.uleb128 0x3
 1050 0116 0E       		.uleb128 0xe
 1051 0117 3A       		.uleb128 0x3a
 1052 0118 0B       		.uleb128 0xb
 1053 0119 3B       		.uleb128 0x3b
 1054 011a 05       		.uleb128 0x5
 1055 011b 49       		.uleb128 0x49
 1056 011c 13       		.uleb128 0x13
 1057 011d 02       		.uleb128 0x2
 1058 011e 18       		.uleb128 0x18
 1059 011f 00       		.byte	0
 1060 0120 00       		.byte	0
 1061 0121 12       		.uleb128 0x12
 1062 0122 2E       		.uleb128 0x2e
 1063 0123 00       		.byte	0
 1064 0124 3F       		.uleb128 0x3f
 1065 0125 19       		.uleb128 0x19
 1066 0126 03       		.uleb128 0x3
 1067 0127 0E       		.uleb128 0xe
 1068 0128 3A       		.uleb128 0x3a
 1069 0129 0B       		.uleb128 0xb
 1070 012a 3B       		.uleb128 0x3b
 1071 012b 05       		.uleb128 0x5
 1072 012c 27       		.uleb128 0x27
 1073 012d 19       		.uleb128 0x19
 1074 012e 11       		.uleb128 0x11
 1075 012f 01       		.uleb128 0x1
 1076 0130 12       		.uleb128 0x12
 1077 0131 06       		.uleb128 0x6
 1078 0132 40       		.uleb128 0x40
 1079 0133 18       		.uleb128 0x18
 1080 0134 9742     		.uleb128 0x2117
ARM GAS  C:\Users\DELL\AppData\Local\Temp\ccOBeiyT.s 			page 27


 1081 0136 19       		.uleb128 0x19
 1082 0137 00       		.byte	0
 1083 0138 00       		.byte	0
 1084 0139 13       		.uleb128 0x13
 1085 013a 2E       		.uleb128 0x2e
 1086 013b 00       		.byte	0
 1087 013c 3F       		.uleb128 0x3f
 1088 013d 19       		.uleb128 0x19
 1089 013e 03       		.uleb128 0x3
 1090 013f 0E       		.uleb128 0xe
 1091 0140 3A       		.uleb128 0x3a
 1092 0141 0B       		.uleb128 0xb
 1093 0142 3B       		.uleb128 0x3b
 1094 0143 05       		.uleb128 0x5
 1095 0144 27       		.uleb128 0x27
 1096 0145 19       		.uleb128 0x19
 1097 0146 49       		.uleb128 0x49
 1098 0147 13       		.uleb128 0x13
 1099 0148 11       		.uleb128 0x11
 1100 0149 01       		.uleb128 0x1
 1101 014a 12       		.uleb128 0x12
 1102 014b 06       		.uleb128 0x6
 1103 014c 40       		.uleb128 0x40
 1104 014d 18       		.uleb128 0x18
 1105 014e 9742     		.uleb128 0x2117
 1106 0150 19       		.uleb128 0x19
 1107 0151 00       		.byte	0
 1108 0152 00       		.byte	0
 1109 0153 14       		.uleb128 0x14
 1110 0154 01       		.uleb128 0x1
 1111 0155 01       		.byte	0x1
 1112 0156 49       		.uleb128 0x49
 1113 0157 13       		.uleb128 0x13
 1114 0158 01       		.uleb128 0x1
 1115 0159 13       		.uleb128 0x13
 1116 015a 00       		.byte	0
 1117 015b 00       		.byte	0
 1118 015c 15       		.uleb128 0x15
 1119 015d 21       		.uleb128 0x21
 1120 015e 00       		.byte	0
 1121 015f 49       		.uleb128 0x49
 1122 0160 13       		.uleb128 0x13
 1123 0161 2F       		.uleb128 0x2f
 1124 0162 0B       		.uleb128 0xb
 1125 0163 00       		.byte	0
 1126 0164 00       		.byte	0
 1127 0165 16       		.uleb128 0x16
 1128 0166 34       		.uleb128 0x34
 1129 0167 00       		.byte	0
 1130 0168 03       		.uleb128 0x3
 1131 0169 0E       		.uleb128 0xe
 1132 016a 3A       		.uleb128 0x3a
 1133 016b 0B       		.uleb128 0xb
 1134 016c 3B       		.uleb128 0x3b
 1135 016d 0B       		.uleb128 0xb
 1136 016e 49       		.uleb128 0x49
 1137 016f 13       		.uleb128 0x13
ARM GAS  C:\Users\DELL\AppData\Local\Temp\ccOBeiyT.s 			page 28


 1138 0170 3F       		.uleb128 0x3f
 1139 0171 19       		.uleb128 0x19
 1140 0172 3C       		.uleb128 0x3c
 1141 0173 19       		.uleb128 0x19
 1142 0174 00       		.byte	0
 1143 0175 00       		.byte	0
 1144 0176 00       		.byte	0
 1145              		.section	.debug_aranges,"",%progbits
 1146 0000 7C000000 		.4byte	0x7c
 1147 0004 0200     		.2byte	0x2
 1148 0006 00000000 		.4byte	.Ldebug_info0
 1149 000a 04       		.byte	0x4
 1150 000b 00       		.byte	0
 1151 000c 0000     		.2byte	0
 1152 000e 0000     		.2byte	0
 1153 0010 00000000 		.4byte	.LFB2
 1154 0014 24000000 		.4byte	.LFE2-.LFB2
 1155 0018 00000000 		.4byte	.LFB3
 1156 001c 24000000 		.4byte	.LFE3-.LFB3
 1157 0020 00000000 		.4byte	.LFB4
 1158 0024 18000000 		.4byte	.LFE4-.LFB4
 1159 0028 00000000 		.4byte	.LFB5
 1160 002c 08000000 		.4byte	.LFE5-.LFB5
 1161 0030 00000000 		.4byte	.LFB6
 1162 0034 18000000 		.4byte	.LFE6-.LFB6
 1163 0038 00000000 		.4byte	.LFB7
 1164 003c 14000000 		.4byte	.LFE7-.LFB7
 1165 0040 00000000 		.4byte	.LFB8
 1166 0044 50000000 		.4byte	.LFE8-.LFB8
 1167 0048 00000000 		.4byte	.LFB9
 1168 004c 2C000000 		.4byte	.LFE9-.LFB9
 1169 0050 00000000 		.4byte	.LFB10
 1170 0054 14000000 		.4byte	.LFE10-.LFB10
 1171 0058 00000000 		.4byte	.LFB11
 1172 005c 20000000 		.4byte	.LFE11-.LFB11
 1173 0060 00000000 		.4byte	.LFB12
 1174 0064 14000000 		.4byte	.LFE12-.LFB12
 1175 0068 00000000 		.4byte	.LFB13
 1176 006c 14000000 		.4byte	.LFE13-.LFB13
 1177 0070 00000000 		.4byte	.LFB14
 1178 0074 14000000 		.4byte	.LFE14-.LFB14
 1179 0078 00000000 		.4byte	0
 1180 007c 00000000 		.4byte	0
 1181              		.section	.debug_ranges,"",%progbits
 1182              	.Ldebug_ranges0:
 1183 0000 00000000 		.4byte	.LFB2
 1184 0004 24000000 		.4byte	.LFE2
 1185 0008 00000000 		.4byte	.LFB3
 1186 000c 24000000 		.4byte	.LFE3
 1187 0010 00000000 		.4byte	.LFB4
 1188 0014 18000000 		.4byte	.LFE4
 1189 0018 00000000 		.4byte	.LFB5
 1190 001c 08000000 		.4byte	.LFE5
 1191 0020 00000000 		.4byte	.LFB6
 1192 0024 18000000 		.4byte	.LFE6
 1193 0028 00000000 		.4byte	.LFB7
 1194 002c 14000000 		.4byte	.LFE7
ARM GAS  C:\Users\DELL\AppData\Local\Temp\ccOBeiyT.s 			page 29


 1195 0030 00000000 		.4byte	.LFB8
 1196 0034 50000000 		.4byte	.LFE8
 1197 0038 00000000 		.4byte	.LFB9
 1198 003c 2C000000 		.4byte	.LFE9
 1199 0040 00000000 		.4byte	.LFB10
 1200 0044 14000000 		.4byte	.LFE10
 1201 0048 00000000 		.4byte	.LFB11
 1202 004c 20000000 		.4byte	.LFE11
 1203 0050 00000000 		.4byte	.LFB12
 1204 0054 14000000 		.4byte	.LFE12
 1205 0058 00000000 		.4byte	.LFB13
 1206 005c 14000000 		.4byte	.LFE13
 1207 0060 00000000 		.4byte	.LFB14
 1208 0064 14000000 		.4byte	.LFE14
 1209 0068 00000000 		.4byte	0
 1210 006c 00000000 		.4byte	0
 1211              		.section	.debug_line,"",%progbits
 1212              	.Ldebug_line0:
 1213 0000 6E010000 		.section	.debug_str,"MS",%progbits,1
 1213      02006000 
 1213      00000201 
 1213      FB0E0D00 
 1213      01010101 
 1214              	.LASF30:
 1215 0000 6973725F 		.ascii	"isr_button_Disable\000"
 1215      62757474 
 1215      6F6E5F44 
 1215      69736162 
 1215      6C6500
 1216              	.LASF14:
 1217 0013 72656733 		.ascii	"reg32\000"
 1217      3200
 1218              	.LASF28:
 1219 0019 6973725F 		.ascii	"isr_button_GetVector\000"
 1219      62757474 
 1219      6F6E5F47 
 1219      65745665 
 1219      63746F72 
 1220              	.LASF37:
 1221 002e 43795261 		.ascii	"CyRamVectors\000"
 1221      6D566563 
 1221      746F7273 
 1221      00
 1222              	.LASF19:
 1223 003b 6973725F 		.ascii	"isr_button_Interrupt\000"
 1223      62757474 
 1223      6F6E5F49 
 1223      6E746572 
 1223      72757074 
 1224              	.LASF27:
 1225 0050 6973725F 		.ascii	"isr_button_Enable\000"
 1225      62757474 
 1225      6F6E5F45 
 1225      6E61626C 
 1225      6500
 1226              	.LASF29:
 1227 0062 6973725F 		.ascii	"isr_button_GetState\000"
ARM GAS  C:\Users\DELL\AppData\Local\Temp\ccOBeiyT.s 			page 30


 1227      62757474 
 1227      6F6E5F47 
 1227      65745374 
 1227      61746500 
 1228              	.LASF3:
 1229 0076 73686F72 		.ascii	"short unsigned int\000"
 1229      7420756E 
 1229      7369676E 
 1229      65642069 
 1229      6E7400
 1230              	.LASF11:
 1231 0089 666C6F61 		.ascii	"float\000"
 1231      7400
 1232              	.LASF1:
 1233 008f 756E7369 		.ascii	"unsigned char\000"
 1233      676E6564 
 1233      20636861 
 1233      7200
 1234              	.LASF34:
 1235 009d 2E5C4765 		.ascii	".\\Generated_Source\\PSoC4\\isr_button.c\000"
 1235      6E657261 
 1235      7465645F 
 1235      536F7572 
 1235      63655C50 
 1236              	.LASF25:
 1237 00c3 696E7465 		.ascii	"interruptState\000"
 1237      72727570 
 1237      74537461 
 1237      746500
 1238              	.LASF5:
 1239 00d2 6C6F6E67 		.ascii	"long unsigned int\000"
 1239      20756E73 
 1239      69676E65 
 1239      6420696E 
 1239      7400
 1240              	.LASF9:
 1241 00e4 75696E74 		.ascii	"uint8\000"
 1241      3800
 1242              	.LASF24:
 1243 00ea 7072696F 		.ascii	"priority\000"
 1243      72697479 
 1243      00
 1244              	.LASF12:
 1245 00f3 646F7562 		.ascii	"double\000"
 1245      6C6500
 1246              	.LASF33:
 1247 00fa 474E5520 		.ascii	"GNU C 4.9.3 20150303 (release) [ARM/embedded-4_9-br"
 1247      4320342E 
 1247      392E3320 
 1247      32303135 
 1247      30333033 
 1248 012d 616E6368 		.ascii	"anch revision 221220] -mcpu=cortex-m0 -mthumb -g -O"
 1248      20726576 
 1248      6973696F 
 1248      6E203232 
 1248      31323230 
 1249 0160 30202D66 		.ascii	"0 -ffunction-sections -ffat-lto-objects\000"
ARM GAS  C:\Users\DELL\AppData\Local\Temp\ccOBeiyT.s 			page 31


 1249      66756E63 
 1249      74696F6E 
 1249      2D736563 
 1249      74696F6E 
 1250              	.LASF26:
 1251 0188 7072696F 		.ascii	"priorityOffset\000"
 1251      72697479 
 1251      4F666673 
 1251      657400
 1252              	.LASF10:
 1253 0197 75696E74 		.ascii	"uint32\000"
 1253      333200
 1254              	.LASF36:
 1255 019e 6973725F 		.ascii	"isr_button_GetPriority\000"
 1255      62757474 
 1255      6F6E5F47 
 1255      65745072 
 1255      696F7269 
 1256              	.LASF32:
 1257 01b5 6973725F 		.ascii	"isr_button_ClearPending\000"
 1257      62757474 
 1257      6F6E5F43 
 1257      6C656172 
 1257      50656E64 
 1258              	.LASF18:
 1259 01cd 6973725F 		.ascii	"isr_button_Stop\000"
 1259      62757474 
 1259      6F6E5F53 
 1259      746F7000 
 1260              	.LASF8:
 1261 01dd 756E7369 		.ascii	"unsigned int\000"
 1261      676E6564 
 1261      20696E74 
 1261      00
 1262              	.LASF22:
 1263 01ea 61646472 		.ascii	"address\000"
 1263      65737300 
 1264              	.LASF7:
 1265 01f2 6C6F6E67 		.ascii	"long long unsigned int\000"
 1265      206C6F6E 
 1265      6720756E 
 1265      7369676E 
 1265      65642069 
 1266              	.LASF17:
 1267 0209 6973725F 		.ascii	"isr_button_Start\000"
 1267      62757474 
 1267      6F6E5F53 
 1267      74617274 
 1267      00
 1268              	.LASF15:
 1269 021a 63796973 		.ascii	"cyisraddress\000"
 1269      72616464 
 1269      72657373 
 1269      00
 1270              	.LASF21:
 1271 0227 6973725F 		.ascii	"isr_button_SetVector\000"
 1271      62757474 
ARM GAS  C:\Users\DELL\AppData\Local\Temp\ccOBeiyT.s 			page 32


 1271      6F6E5F53 
 1271      65745665 
 1271      63746F72 
 1272              	.LASF16:
 1273 023c 73697A65 		.ascii	"sizetype\000"
 1273      74797065 
 1273      00
 1274              	.LASF6:
 1275 0245 6C6F6E67 		.ascii	"long long int\000"
 1275      206C6F6E 
 1275      6720696E 
 1275      7400
 1276              	.LASF13:
 1277 0253 63686172 		.ascii	"char\000"
 1277      00
 1278              	.LASF2:
 1279 0258 73686F72 		.ascii	"short int\000"
 1279      7420696E 
 1279      7400
 1280              	.LASF35:
 1281 0262 433A5C55 		.ascii	"C:\\Users\\DELL\\Documents\\Psoc\\PSoC_4_BLE_CapSen"
 1281      73657273 
 1281      5C44454C 
 1281      4C5C446F 
 1281      63756D65 
 1282 0290 73655F53 		.ascii	"se_Slider_LED\\PSoC_4_BLE_CapSense_Slider_LED.cydsn"
 1282      6C696465 
 1282      725F4C45 
 1282      445C5053 
 1282      6F435F34 
 1283 02c2 00       		.ascii	"\000"
 1284              	.LASF31:
 1285 02c3 6973725F 		.ascii	"isr_button_SetPending\000"
 1285      62757474 
 1285      6F6E5F53 
 1285      65745065 
 1285      6E64696E 
 1286              	.LASF20:
 1287 02d9 6973725F 		.ascii	"isr_button_StartEx\000"
 1287      62757474 
 1287      6F6E5F53 
 1287      74617274 
 1287      457800
 1288              	.LASF4:
 1289 02ec 6C6F6E67 		.ascii	"long int\000"
 1289      20696E74 
 1289      00
 1290              	.LASF0:
 1291 02f5 7369676E 		.ascii	"signed char\000"
 1291      65642063 
 1291      68617200 
 1292              	.LASF23:
 1293 0301 6973725F 		.ascii	"isr_button_SetPriority\000"
 1293      62757474 
 1293      6F6E5F53 
 1293      65745072 
 1293      696F7269 
ARM GAS  C:\Users\DELL\AppData\Local\Temp\ccOBeiyT.s 			page 33


 1294              		.ident	"GCC: (GNU Tools for ARM Embedded Processors) 4.9.3 20150303 (release) [ARM/embedded-4_9-br
