ARM GAS  C:\Users\DELL\AppData\Local\Temp\cc6Jvnv6.s 			page 1


   1              		.cpu cortex-m0
   2              		.fpu softvfp
   3              		.eabi_attribute 20, 1
   4              		.eabi_attribute 21, 1
   5              		.eabi_attribute 23, 3
   6              		.eabi_attribute 24, 1
   7              		.eabi_attribute 25, 1
   8              		.eabi_attribute 26, 1
   9              		.eabi_attribute 30, 6
  10              		.eabi_attribute 34, 0
  11              		.eabi_attribute 18, 4
  12              		.code	16
  13              		.file	"I2CS_SCBCLK.c"
  14              		.text
  15              	.Ltext0:
  16              		.cfi_sections	.debug_frame
  17              		.section	.text.I2CS_SCBCLK_StartEx,"ax",%progbits
  18              		.align	2
  19              		.global	I2CS_SCBCLK_StartEx
  20              		.code	16
  21              		.thumb_func
  22              		.type	I2CS_SCBCLK_StartEx, %function
  23              	I2CS_SCBCLK_StartEx:
  24              	.LFB0:
  25              		.file 1 ".\\Generated_Source\\PSoC4\\I2CS_SCBCLK.c"
   1:.\Generated_Source\PSoC4/I2CS_SCBCLK.c **** /*******************************************************************************
   2:.\Generated_Source\PSoC4/I2CS_SCBCLK.c **** * File Name: I2CS_SCBCLK.c
   3:.\Generated_Source\PSoC4/I2CS_SCBCLK.c **** * Version 2.20
   4:.\Generated_Source\PSoC4/I2CS_SCBCLK.c **** *
   5:.\Generated_Source\PSoC4/I2CS_SCBCLK.c **** *  Description:
   6:.\Generated_Source\PSoC4/I2CS_SCBCLK.c **** *   Provides system API for the clocking, interrupts and watchdog timer.
   7:.\Generated_Source\PSoC4/I2CS_SCBCLK.c **** *
   8:.\Generated_Source\PSoC4/I2CS_SCBCLK.c **** *  Note:
   9:.\Generated_Source\PSoC4/I2CS_SCBCLK.c **** *   Documentation of the API's in this file is located in the
  10:.\Generated_Source\PSoC4/I2CS_SCBCLK.c **** *   System Reference Guide provided with PSoC Creator.
  11:.\Generated_Source\PSoC4/I2CS_SCBCLK.c **** *
  12:.\Generated_Source\PSoC4/I2CS_SCBCLK.c **** ********************************************************************************
  13:.\Generated_Source\PSoC4/I2CS_SCBCLK.c **** * Copyright 2008-2012, Cypress Semiconductor Corporation.  All rights reserved.
  14:.\Generated_Source\PSoC4/I2CS_SCBCLK.c **** * You may use this file only in accordance with the license, terms, conditions,
  15:.\Generated_Source\PSoC4/I2CS_SCBCLK.c **** * disclaimers, and limitations in the end user license agreement accompanying
  16:.\Generated_Source\PSoC4/I2CS_SCBCLK.c **** * the software package with which this file was provided.
  17:.\Generated_Source\PSoC4/I2CS_SCBCLK.c **** *******************************************************************************/
  18:.\Generated_Source\PSoC4/I2CS_SCBCLK.c **** 
  19:.\Generated_Source\PSoC4/I2CS_SCBCLK.c **** #include <cydevice_trm.h>
  20:.\Generated_Source\PSoC4/I2CS_SCBCLK.c **** #include "I2CS_SCBCLK.h"
  21:.\Generated_Source\PSoC4/I2CS_SCBCLK.c **** 
  22:.\Generated_Source\PSoC4/I2CS_SCBCLK.c **** #if defined CYREG_PERI_DIV_CMD
  23:.\Generated_Source\PSoC4/I2CS_SCBCLK.c **** 
  24:.\Generated_Source\PSoC4/I2CS_SCBCLK.c **** /*******************************************************************************
  25:.\Generated_Source\PSoC4/I2CS_SCBCLK.c **** * Function Name: I2CS_SCBCLK_StartEx
  26:.\Generated_Source\PSoC4/I2CS_SCBCLK.c **** ********************************************************************************
  27:.\Generated_Source\PSoC4/I2CS_SCBCLK.c **** *
  28:.\Generated_Source\PSoC4/I2CS_SCBCLK.c **** * Summary:
  29:.\Generated_Source\PSoC4/I2CS_SCBCLK.c **** *  Starts the clock, aligned to the specified running clock.
  30:.\Generated_Source\PSoC4/I2CS_SCBCLK.c **** *
  31:.\Generated_Source\PSoC4/I2CS_SCBCLK.c **** * Parameters:
  32:.\Generated_Source\PSoC4/I2CS_SCBCLK.c **** *  alignClkDiv:  The divider to which phase alignment is performed when the
ARM GAS  C:\Users\DELL\AppData\Local\Temp\cc6Jvnv6.s 			page 2


  33:.\Generated_Source\PSoC4/I2CS_SCBCLK.c **** *    clock is started.
  34:.\Generated_Source\PSoC4/I2CS_SCBCLK.c **** *
  35:.\Generated_Source\PSoC4/I2CS_SCBCLK.c **** * Returns:
  36:.\Generated_Source\PSoC4/I2CS_SCBCLK.c **** *  None
  37:.\Generated_Source\PSoC4/I2CS_SCBCLK.c **** *
  38:.\Generated_Source\PSoC4/I2CS_SCBCLK.c **** *******************************************************************************/
  39:.\Generated_Source\PSoC4/I2CS_SCBCLK.c **** void I2CS_SCBCLK_StartEx(uint32 alignClkDiv)
  40:.\Generated_Source\PSoC4/I2CS_SCBCLK.c **** {
  26              		.loc 1 40 0
  27              		.cfi_startproc
  28 0000 80B5     		push	{r7, lr}
  29              		.cfi_def_cfa_offset 8
  30              		.cfi_offset 7, -8
  31              		.cfi_offset 14, -4
  32 0002 82B0     		sub	sp, sp, #8
  33              		.cfi_def_cfa_offset 16
  34 0004 00AF     		add	r7, sp, #0
  35              		.cfi_def_cfa_register 7
  36 0006 7860     		str	r0, [r7, #4]
  41:.\Generated_Source\PSoC4/I2CS_SCBCLK.c ****     /* Make sure any previous start command has finished. */
  42:.\Generated_Source\PSoC4/I2CS_SCBCLK.c ****     while((I2CS_SCBCLK_CMD_REG & I2CS_SCBCLK_CMD_ENABLE_MASK) != 0u)
  37              		.loc 1 42 0
  38 0008 C046     		mov	r8, r8
  39              	.L2:
  40              		.loc 1 42 0 is_stmt 0 discriminator 1
  41 000a 064B     		ldr	r3, .L3
  42 000c 1B68     		ldr	r3, [r3]
  43 000e 002B     		cmp	r3, #0
  44 0010 FBDB     		blt	.L2
  43:.\Generated_Source\PSoC4/I2CS_SCBCLK.c ****     {
  44:.\Generated_Source\PSoC4/I2CS_SCBCLK.c ****     }
  45:.\Generated_Source\PSoC4/I2CS_SCBCLK.c ****     
  46:.\Generated_Source\PSoC4/I2CS_SCBCLK.c ****     /* Specify the target divider and it's alignment divider, and enable. */
  47:.\Generated_Source\PSoC4/I2CS_SCBCLK.c ****     I2CS_SCBCLK_CMD_REG =
  45              		.loc 1 47 0 is_stmt 1
  46 0012 044B     		ldr	r3, .L3
  48:.\Generated_Source\PSoC4/I2CS_SCBCLK.c ****         ((uint32)I2CS_SCBCLK__DIV_ID << I2CS_SCBCLK_CMD_DIV_SHIFT)|
  49:.\Generated_Source\PSoC4/I2CS_SCBCLK.c ****         (alignClkDiv << I2CS_SCBCLK_CMD_PA_DIV_SHIFT) |
  47              		.loc 1 49 0
  48 0014 7A68     		ldr	r2, [r7, #4]
  49 0016 1202     		lsl	r2, r2, #8
  50 0018 0349     		ldr	r1, .L3+4
  51 001a 0A43     		orr	r2, r1
  47:.\Generated_Source\PSoC4/I2CS_SCBCLK.c ****         ((uint32)I2CS_SCBCLK__DIV_ID << I2CS_SCBCLK_CMD_DIV_SHIFT)|
  52              		.loc 1 47 0
  53 001c 1A60     		str	r2, [r3]
  50:.\Generated_Source\PSoC4/I2CS_SCBCLK.c ****         (uint32)I2CS_SCBCLK_CMD_ENABLE_MASK;
  51:.\Generated_Source\PSoC4/I2CS_SCBCLK.c **** }
  54              		.loc 1 51 0
  55 001e BD46     		mov	sp, r7
  56 0020 02B0     		add	sp, sp, #8
  57              		@ sp needed
  58 0022 80BD     		pop	{r7, pc}
  59              	.L4:
  60              		.align	2
  61              	.L3:
  62 0024 00000140 		.word	1073807360
ARM GAS  C:\Users\DELL\AppData\Local\Temp\cc6Jvnv6.s 			page 3


  63 0028 40000080 		.word	-2147483584
  64              		.cfi_endproc
  65              	.LFE0:
  66              		.size	I2CS_SCBCLK_StartEx, .-I2CS_SCBCLK_StartEx
  67              		.section	.text.I2CS_SCBCLK_Stop,"ax",%progbits
  68              		.align	2
  69              		.global	I2CS_SCBCLK_Stop
  70              		.code	16
  71              		.thumb_func
  72              		.type	I2CS_SCBCLK_Stop, %function
  73              	I2CS_SCBCLK_Stop:
  74              	.LFB1:
  52:.\Generated_Source\PSoC4/I2CS_SCBCLK.c **** 
  53:.\Generated_Source\PSoC4/I2CS_SCBCLK.c **** #else
  54:.\Generated_Source\PSoC4/I2CS_SCBCLK.c **** 
  55:.\Generated_Source\PSoC4/I2CS_SCBCLK.c **** /*******************************************************************************
  56:.\Generated_Source\PSoC4/I2CS_SCBCLK.c **** * Function Name: I2CS_SCBCLK_Start
  57:.\Generated_Source\PSoC4/I2CS_SCBCLK.c **** ********************************************************************************
  58:.\Generated_Source\PSoC4/I2CS_SCBCLK.c **** *
  59:.\Generated_Source\PSoC4/I2CS_SCBCLK.c **** * Summary:
  60:.\Generated_Source\PSoC4/I2CS_SCBCLK.c **** *  Starts the clock.
  61:.\Generated_Source\PSoC4/I2CS_SCBCLK.c **** *
  62:.\Generated_Source\PSoC4/I2CS_SCBCLK.c **** * Parameters:
  63:.\Generated_Source\PSoC4/I2CS_SCBCLK.c **** *  None
  64:.\Generated_Source\PSoC4/I2CS_SCBCLK.c **** *
  65:.\Generated_Source\PSoC4/I2CS_SCBCLK.c **** * Returns:
  66:.\Generated_Source\PSoC4/I2CS_SCBCLK.c **** *  None
  67:.\Generated_Source\PSoC4/I2CS_SCBCLK.c **** *
  68:.\Generated_Source\PSoC4/I2CS_SCBCLK.c **** *******************************************************************************/
  69:.\Generated_Source\PSoC4/I2CS_SCBCLK.c **** 
  70:.\Generated_Source\PSoC4/I2CS_SCBCLK.c **** void I2CS_SCBCLK_Start(void)
  71:.\Generated_Source\PSoC4/I2CS_SCBCLK.c **** {
  72:.\Generated_Source\PSoC4/I2CS_SCBCLK.c ****     /* Set the bit to enable the clock. */
  73:.\Generated_Source\PSoC4/I2CS_SCBCLK.c ****     I2CS_SCBCLK_ENABLE_REG |= I2CS_SCBCLK__ENABLE_MASK;
  74:.\Generated_Source\PSoC4/I2CS_SCBCLK.c **** }
  75:.\Generated_Source\PSoC4/I2CS_SCBCLK.c **** 
  76:.\Generated_Source\PSoC4/I2CS_SCBCLK.c **** #endif /* CYREG_PERI_DIV_CMD */
  77:.\Generated_Source\PSoC4/I2CS_SCBCLK.c **** 
  78:.\Generated_Source\PSoC4/I2CS_SCBCLK.c **** 
  79:.\Generated_Source\PSoC4/I2CS_SCBCLK.c **** /*******************************************************************************
  80:.\Generated_Source\PSoC4/I2CS_SCBCLK.c **** * Function Name: I2CS_SCBCLK_Stop
  81:.\Generated_Source\PSoC4/I2CS_SCBCLK.c **** ********************************************************************************
  82:.\Generated_Source\PSoC4/I2CS_SCBCLK.c **** *
  83:.\Generated_Source\PSoC4/I2CS_SCBCLK.c **** * Summary:
  84:.\Generated_Source\PSoC4/I2CS_SCBCLK.c **** *  Stops the clock and returns immediately. This API does not require the
  85:.\Generated_Source\PSoC4/I2CS_SCBCLK.c **** *  source clock to be running but may return before the hardware is actually
  86:.\Generated_Source\PSoC4/I2CS_SCBCLK.c **** *  disabled.
  87:.\Generated_Source\PSoC4/I2CS_SCBCLK.c **** *
  88:.\Generated_Source\PSoC4/I2CS_SCBCLK.c **** * Parameters:
  89:.\Generated_Source\PSoC4/I2CS_SCBCLK.c **** *  None
  90:.\Generated_Source\PSoC4/I2CS_SCBCLK.c **** *
  91:.\Generated_Source\PSoC4/I2CS_SCBCLK.c **** * Returns:
  92:.\Generated_Source\PSoC4/I2CS_SCBCLK.c **** *  None
  93:.\Generated_Source\PSoC4/I2CS_SCBCLK.c **** *
  94:.\Generated_Source\PSoC4/I2CS_SCBCLK.c **** *******************************************************************************/
  95:.\Generated_Source\PSoC4/I2CS_SCBCLK.c **** void I2CS_SCBCLK_Stop(void)
  96:.\Generated_Source\PSoC4/I2CS_SCBCLK.c **** {
ARM GAS  C:\Users\DELL\AppData\Local\Temp\cc6Jvnv6.s 			page 4


  75              		.loc 1 96 0
  76              		.cfi_startproc
  77 0000 80B5     		push	{r7, lr}
  78              		.cfi_def_cfa_offset 8
  79              		.cfi_offset 7, -8
  80              		.cfi_offset 14, -4
  81 0002 00AF     		add	r7, sp, #0
  82              		.cfi_def_cfa_register 7
  97:.\Generated_Source\PSoC4/I2CS_SCBCLK.c **** #if defined CYREG_PERI_DIV_CMD
  98:.\Generated_Source\PSoC4/I2CS_SCBCLK.c **** 
  99:.\Generated_Source\PSoC4/I2CS_SCBCLK.c ****     /* Make sure any previous start command has finished. */
 100:.\Generated_Source\PSoC4/I2CS_SCBCLK.c ****     while((I2CS_SCBCLK_CMD_REG & I2CS_SCBCLK_CMD_ENABLE_MASK) != 0u)
  83              		.loc 1 100 0
  84 0004 C046     		mov	r8, r8
  85              	.L6:
  86              		.loc 1 100 0 is_stmt 0 discriminator 1
  87 0006 044B     		ldr	r3, .L7
  88 0008 1B68     		ldr	r3, [r3]
  89 000a 002B     		cmp	r3, #0
  90 000c FBDB     		blt	.L6
 101:.\Generated_Source\PSoC4/I2CS_SCBCLK.c ****     {
 102:.\Generated_Source\PSoC4/I2CS_SCBCLK.c ****     }
 103:.\Generated_Source\PSoC4/I2CS_SCBCLK.c ****     
 104:.\Generated_Source\PSoC4/I2CS_SCBCLK.c ****     /* Specify the target divider and it's alignment divider, and disable. */
 105:.\Generated_Source\PSoC4/I2CS_SCBCLK.c ****     I2CS_SCBCLK_CMD_REG =
  91              		.loc 1 105 0 is_stmt 1
  92 000e 024B     		ldr	r3, .L7
  93 0010 024A     		ldr	r2, .L7+4
  94 0012 1A60     		str	r2, [r3]
 106:.\Generated_Source\PSoC4/I2CS_SCBCLK.c ****         ((uint32)I2CS_SCBCLK__DIV_ID << I2CS_SCBCLK_CMD_DIV_SHIFT)|
 107:.\Generated_Source\PSoC4/I2CS_SCBCLK.c ****         ((uint32)I2CS_SCBCLK_CMD_DISABLE_MASK);
 108:.\Generated_Source\PSoC4/I2CS_SCBCLK.c **** 
 109:.\Generated_Source\PSoC4/I2CS_SCBCLK.c **** #else
 110:.\Generated_Source\PSoC4/I2CS_SCBCLK.c **** 
 111:.\Generated_Source\PSoC4/I2CS_SCBCLK.c ****     /* Clear the bit to disable the clock. */
 112:.\Generated_Source\PSoC4/I2CS_SCBCLK.c ****     I2CS_SCBCLK_ENABLE_REG &= (uint32)(~I2CS_SCBCLK__ENABLE_MASK);
 113:.\Generated_Source\PSoC4/I2CS_SCBCLK.c ****     
 114:.\Generated_Source\PSoC4/I2CS_SCBCLK.c **** #endif /* CYREG_PERI_DIV_CMD */
 115:.\Generated_Source\PSoC4/I2CS_SCBCLK.c **** }
  95              		.loc 1 115 0
  96 0014 BD46     		mov	sp, r7
  97              		@ sp needed
  98 0016 80BD     		pop	{r7, pc}
  99              	.L8:
 100              		.align	2
 101              	.L7:
 102 0018 00000140 		.word	1073807360
 103 001c 40000040 		.word	1073741888
 104              		.cfi_endproc
 105              	.LFE1:
 106              		.size	I2CS_SCBCLK_Stop, .-I2CS_SCBCLK_Stop
 107              		.section	.text.I2CS_SCBCLK_SetFractionalDividerRegister,"ax",%progbits
 108              		.align	2
 109              		.global	I2CS_SCBCLK_SetFractionalDividerRegister
 110              		.code	16
 111              		.thumb_func
 112              		.type	I2CS_SCBCLK_SetFractionalDividerRegister, %function
ARM GAS  C:\Users\DELL\AppData\Local\Temp\cc6Jvnv6.s 			page 5


 113              	I2CS_SCBCLK_SetFractionalDividerRegister:
 114              	.LFB2:
 116:.\Generated_Source\PSoC4/I2CS_SCBCLK.c **** 
 117:.\Generated_Source\PSoC4/I2CS_SCBCLK.c **** 
 118:.\Generated_Source\PSoC4/I2CS_SCBCLK.c **** /*******************************************************************************
 119:.\Generated_Source\PSoC4/I2CS_SCBCLK.c **** * Function Name: I2CS_SCBCLK_SetFractionalDividerRegister
 120:.\Generated_Source\PSoC4/I2CS_SCBCLK.c **** ********************************************************************************
 121:.\Generated_Source\PSoC4/I2CS_SCBCLK.c **** *
 122:.\Generated_Source\PSoC4/I2CS_SCBCLK.c **** * Summary:
 123:.\Generated_Source\PSoC4/I2CS_SCBCLK.c **** *  Modifies the clock divider and the fractional divider.
 124:.\Generated_Source\PSoC4/I2CS_SCBCLK.c **** *
 125:.\Generated_Source\PSoC4/I2CS_SCBCLK.c **** * Parameters:
 126:.\Generated_Source\PSoC4/I2CS_SCBCLK.c **** *  clkDivider:  Divider register value (0-65535). This value is NOT the
 127:.\Generated_Source\PSoC4/I2CS_SCBCLK.c **** *    divider; the clock hardware divides by clkDivider plus one. For example,
 128:.\Generated_Source\PSoC4/I2CS_SCBCLK.c **** *    to divide the clock by 2, this parameter should be set to 1.
 129:.\Generated_Source\PSoC4/I2CS_SCBCLK.c **** *  fracDivider:  Fractional Divider register value (0-31).
 130:.\Generated_Source\PSoC4/I2CS_SCBCLK.c **** * Returns:
 131:.\Generated_Source\PSoC4/I2CS_SCBCLK.c **** *  None
 132:.\Generated_Source\PSoC4/I2CS_SCBCLK.c **** *
 133:.\Generated_Source\PSoC4/I2CS_SCBCLK.c **** *******************************************************************************/
 134:.\Generated_Source\PSoC4/I2CS_SCBCLK.c **** void I2CS_SCBCLK_SetFractionalDividerRegister(uint16 clkDivider, uint8 clkFractional)
 135:.\Generated_Source\PSoC4/I2CS_SCBCLK.c **** {
 115              		.loc 1 135 0
 116              		.cfi_startproc
 117 0000 80B5     		push	{r7, lr}
 118              		.cfi_def_cfa_offset 8
 119              		.cfi_offset 7, -8
 120              		.cfi_offset 14, -4
 121 0002 84B0     		sub	sp, sp, #16
 122              		.cfi_def_cfa_offset 24
 123 0004 00AF     		add	r7, sp, #0
 124              		.cfi_def_cfa_register 7
 125 0006 021C     		mov	r2, r0
 126 0008 BB1D     		add	r3, r7, #6
 127 000a 1A80     		strh	r2, [r3]
 128 000c 7B1D     		add	r3, r7, #5
 129 000e 0A1C     		add	r2, r1, #0
 130 0010 1A70     		strb	r2, [r3]
 136:.\Generated_Source\PSoC4/I2CS_SCBCLK.c ****     uint32 maskVal;
 137:.\Generated_Source\PSoC4/I2CS_SCBCLK.c ****     uint32 regVal;
 138:.\Generated_Source\PSoC4/I2CS_SCBCLK.c ****     
 139:.\Generated_Source\PSoC4/I2CS_SCBCLK.c **** #if defined (I2CS_SCBCLK__FRAC_MASK) || defined (CYREG_PERI_DIV_CMD)
 140:.\Generated_Source\PSoC4/I2CS_SCBCLK.c ****     
 141:.\Generated_Source\PSoC4/I2CS_SCBCLK.c **** 	/* get all but divider bits */
 142:.\Generated_Source\PSoC4/I2CS_SCBCLK.c ****     maskVal = I2CS_SCBCLK_DIV_REG & 
 131              		.loc 1 142 0
 132 0012 0B4B     		ldr	r3, .L10
 133 0014 1B68     		ldr	r3, [r3]
 134 0016 0722     		mov	r2, #7
 135 0018 1340     		and	r3, r2
 136 001a FB60     		str	r3, [r7, #12]
 143:.\Generated_Source\PSoC4/I2CS_SCBCLK.c ****                     (uint32)(~(uint32)(I2CS_SCBCLK_DIV_INT_MASK | I2CS_SCBCLK_DIV_FRAC_MASK)); 
 144:.\Generated_Source\PSoC4/I2CS_SCBCLK.c **** 	/* combine mask and new divider vals into 32-bit value */
 145:.\Generated_Source\PSoC4/I2CS_SCBCLK.c ****     regVal = maskVal |
 146:.\Generated_Source\PSoC4/I2CS_SCBCLK.c ****         ((uint32)((uint32)clkDivider <<  I2CS_SCBCLK_DIV_INT_SHIFT) & I2CS_SCBCLK_DIV_INT_MASK) |
 137              		.loc 1 146 0
 138 001c BB1D     		add	r3, r7, #6
ARM GAS  C:\Users\DELL\AppData\Local\Temp\cc6Jvnv6.s 			page 6


 139 001e 1B88     		ldrh	r3, [r3]
 140 0020 1A02     		lsl	r2, r3, #8
 145:.\Generated_Source\PSoC4/I2CS_SCBCLK.c ****         ((uint32)((uint32)clkDivider <<  I2CS_SCBCLK_DIV_INT_SHIFT) & I2CS_SCBCLK_DIV_INT_MASK) |
 141              		.loc 1 145 0
 142 0022 FB68     		ldr	r3, [r7, #12]
 143 0024 1A43     		orr	r2, r3
 147:.\Generated_Source\PSoC4/I2CS_SCBCLK.c ****         ((uint32)((uint32)clkFractional << I2CS_SCBCLK_DIV_FRAC_SHIFT) & I2CS_SCBCLK_DIV_FRAC_MASK)
 144              		.loc 1 147 0
 145 0026 7B1D     		add	r3, r7, #5
 146 0028 1B78     		ldrb	r3, [r3]
 147 002a DB00     		lsl	r3, r3, #3
 148 002c FF21     		mov	r1, #255
 149 002e 0B40     		and	r3, r1
 145:.\Generated_Source\PSoC4/I2CS_SCBCLK.c ****         ((uint32)((uint32)clkDivider <<  I2CS_SCBCLK_DIV_INT_SHIFT) & I2CS_SCBCLK_DIV_INT_MASK) |
 150              		.loc 1 145 0
 151 0030 1343     		orr	r3, r2
 152 0032 BB60     		str	r3, [r7, #8]
 148:.\Generated_Source\PSoC4/I2CS_SCBCLK.c ****     
 149:.\Generated_Source\PSoC4/I2CS_SCBCLK.c **** #else
 150:.\Generated_Source\PSoC4/I2CS_SCBCLK.c ****     /* get all but integer divider bits */
 151:.\Generated_Source\PSoC4/I2CS_SCBCLK.c ****     maskVal = I2CS_SCBCLK_DIV_REG & (uint32)(~(uint32)I2CS_SCBCLK__DIVIDER_MASK);
 152:.\Generated_Source\PSoC4/I2CS_SCBCLK.c ****     /* combine mask and new divider val into 32-bit value */
 153:.\Generated_Source\PSoC4/I2CS_SCBCLK.c ****     regVal = clkDivider | maskVal;
 154:.\Generated_Source\PSoC4/I2CS_SCBCLK.c ****     
 155:.\Generated_Source\PSoC4/I2CS_SCBCLK.c **** #endif /* I2CS_SCBCLK__FRAC_MASK || CYREG_PERI_DIV_CMD */
 156:.\Generated_Source\PSoC4/I2CS_SCBCLK.c **** 
 157:.\Generated_Source\PSoC4/I2CS_SCBCLK.c ****     I2CS_SCBCLK_DIV_REG = regVal;
 153              		.loc 1 157 0
 154 0034 024B     		ldr	r3, .L10
 155 0036 BA68     		ldr	r2, [r7, #8]
 156 0038 1A60     		str	r2, [r3]
 158:.\Generated_Source\PSoC4/I2CS_SCBCLK.c **** }
 157              		.loc 1 158 0
 158 003a BD46     		mov	sp, r7
 159 003c 04B0     		add	sp, sp, #16
 160              		@ sp needed
 161 003e 80BD     		pop	{r7, pc}
 162              	.L11:
 163              		.align	2
 164              	.L10:
 165 0040 00030140 		.word	1073808128
 166              		.cfi_endproc
 167              	.LFE2:
 168              		.size	I2CS_SCBCLK_SetFractionalDividerRegister, .-I2CS_SCBCLK_SetFractionalDividerRegister
 169              		.section	.text.I2CS_SCBCLK_GetDividerRegister,"ax",%progbits
 170              		.align	2
 171              		.global	I2CS_SCBCLK_GetDividerRegister
 172              		.code	16
 173              		.thumb_func
 174              		.type	I2CS_SCBCLK_GetDividerRegister, %function
 175              	I2CS_SCBCLK_GetDividerRegister:
 176              	.LFB3:
 159:.\Generated_Source\PSoC4/I2CS_SCBCLK.c **** 
 160:.\Generated_Source\PSoC4/I2CS_SCBCLK.c **** 
 161:.\Generated_Source\PSoC4/I2CS_SCBCLK.c **** /*******************************************************************************
 162:.\Generated_Source\PSoC4/I2CS_SCBCLK.c **** * Function Name: I2CS_SCBCLK_GetDividerRegister
 163:.\Generated_Source\PSoC4/I2CS_SCBCLK.c **** ********************************************************************************
ARM GAS  C:\Users\DELL\AppData\Local\Temp\cc6Jvnv6.s 			page 7


 164:.\Generated_Source\PSoC4/I2CS_SCBCLK.c **** *
 165:.\Generated_Source\PSoC4/I2CS_SCBCLK.c **** * Summary:
 166:.\Generated_Source\PSoC4/I2CS_SCBCLK.c **** *  Gets the clock divider register value.
 167:.\Generated_Source\PSoC4/I2CS_SCBCLK.c **** *
 168:.\Generated_Source\PSoC4/I2CS_SCBCLK.c **** * Parameters:
 169:.\Generated_Source\PSoC4/I2CS_SCBCLK.c **** *  None
 170:.\Generated_Source\PSoC4/I2CS_SCBCLK.c **** *
 171:.\Generated_Source\PSoC4/I2CS_SCBCLK.c **** * Returns:
 172:.\Generated_Source\PSoC4/I2CS_SCBCLK.c **** *  Divide value of the clock minus 1. For example, if the clock is set to
 173:.\Generated_Source\PSoC4/I2CS_SCBCLK.c **** *  divide by 2, the return value will be 1.
 174:.\Generated_Source\PSoC4/I2CS_SCBCLK.c **** *
 175:.\Generated_Source\PSoC4/I2CS_SCBCLK.c **** *******************************************************************************/
 176:.\Generated_Source\PSoC4/I2CS_SCBCLK.c **** uint16 I2CS_SCBCLK_GetDividerRegister(void)
 177:.\Generated_Source\PSoC4/I2CS_SCBCLK.c **** {
 177              		.loc 1 177 0
 178              		.cfi_startproc
 179 0000 80B5     		push	{r7, lr}
 180              		.cfi_def_cfa_offset 8
 181              		.cfi_offset 7, -8
 182              		.cfi_offset 14, -4
 183 0002 00AF     		add	r7, sp, #0
 184              		.cfi_def_cfa_register 7
 178:.\Generated_Source\PSoC4/I2CS_SCBCLK.c ****     return (uint16)((I2CS_SCBCLK_DIV_REG & I2CS_SCBCLK_DIV_INT_MASK)
 185              		.loc 1 178 0
 186 0004 034B     		ldr	r3, .L14
 187 0006 1B68     		ldr	r3, [r3]
 179:.\Generated_Source\PSoC4/I2CS_SCBCLK.c ****         >> I2CS_SCBCLK_DIV_INT_SHIFT);
 188              		.loc 1 179 0
 189 0008 1B0A     		lsr	r3, r3, #8
 178:.\Generated_Source\PSoC4/I2CS_SCBCLK.c ****     return (uint16)((I2CS_SCBCLK_DIV_REG & I2CS_SCBCLK_DIV_INT_MASK)
 190              		.loc 1 178 0
 191 000a 9BB2     		uxth	r3, r3
 180:.\Generated_Source\PSoC4/I2CS_SCBCLK.c **** }
 192              		.loc 1 180 0
 193 000c 181C     		mov	r0, r3
 194 000e BD46     		mov	sp, r7
 195              		@ sp needed
 196 0010 80BD     		pop	{r7, pc}
 197              	.L15:
 198 0012 C046     		.align	2
 199              	.L14:
 200 0014 00030140 		.word	1073808128
 201              		.cfi_endproc
 202              	.LFE3:
 203              		.size	I2CS_SCBCLK_GetDividerRegister, .-I2CS_SCBCLK_GetDividerRegister
 204              		.section	.text.I2CS_SCBCLK_GetFractionalDividerRegister,"ax",%progbits
 205              		.align	2
 206              		.global	I2CS_SCBCLK_GetFractionalDividerRegister
 207              		.code	16
 208              		.thumb_func
 209              		.type	I2CS_SCBCLK_GetFractionalDividerRegister, %function
 210              	I2CS_SCBCLK_GetFractionalDividerRegister:
 211              	.LFB4:
 181:.\Generated_Source\PSoC4/I2CS_SCBCLK.c **** 
 182:.\Generated_Source\PSoC4/I2CS_SCBCLK.c **** 
 183:.\Generated_Source\PSoC4/I2CS_SCBCLK.c **** /*******************************************************************************
 184:.\Generated_Source\PSoC4/I2CS_SCBCLK.c **** * Function Name: I2CS_SCBCLK_GetFractionalDividerRegister
ARM GAS  C:\Users\DELL\AppData\Local\Temp\cc6Jvnv6.s 			page 8


 185:.\Generated_Source\PSoC4/I2CS_SCBCLK.c **** ********************************************************************************
 186:.\Generated_Source\PSoC4/I2CS_SCBCLK.c **** *
 187:.\Generated_Source\PSoC4/I2CS_SCBCLK.c **** * Summary:
 188:.\Generated_Source\PSoC4/I2CS_SCBCLK.c **** *  Gets the clock fractional divider register value.
 189:.\Generated_Source\PSoC4/I2CS_SCBCLK.c **** *
 190:.\Generated_Source\PSoC4/I2CS_SCBCLK.c **** * Parameters:
 191:.\Generated_Source\PSoC4/I2CS_SCBCLK.c **** *  None
 192:.\Generated_Source\PSoC4/I2CS_SCBCLK.c **** *
 193:.\Generated_Source\PSoC4/I2CS_SCBCLK.c **** * Returns:
 194:.\Generated_Source\PSoC4/I2CS_SCBCLK.c **** *  Fractional Divide value of the clock
 195:.\Generated_Source\PSoC4/I2CS_SCBCLK.c **** *  0 if the fractional divider is not in use.
 196:.\Generated_Source\PSoC4/I2CS_SCBCLK.c **** *
 197:.\Generated_Source\PSoC4/I2CS_SCBCLK.c **** *******************************************************************************/
 198:.\Generated_Source\PSoC4/I2CS_SCBCLK.c **** uint8 I2CS_SCBCLK_GetFractionalDividerRegister(void)
 199:.\Generated_Source\PSoC4/I2CS_SCBCLK.c **** {
 212              		.loc 1 199 0
 213              		.cfi_startproc
 214 0000 80B5     		push	{r7, lr}
 215              		.cfi_def_cfa_offset 8
 216              		.cfi_offset 7, -8
 217              		.cfi_offset 14, -4
 218 0002 00AF     		add	r7, sp, #0
 219              		.cfi_def_cfa_register 7
 200:.\Generated_Source\PSoC4/I2CS_SCBCLK.c **** #if defined (I2CS_SCBCLK__FRAC_MASK)
 201:.\Generated_Source\PSoC4/I2CS_SCBCLK.c ****     /* return fractional divider bits */
 202:.\Generated_Source\PSoC4/I2CS_SCBCLK.c ****     return (uint8)((I2CS_SCBCLK_DIV_REG & I2CS_SCBCLK_DIV_FRAC_MASK)
 203:.\Generated_Source\PSoC4/I2CS_SCBCLK.c ****         >> I2CS_SCBCLK_DIV_FRAC_SHIFT);
 204:.\Generated_Source\PSoC4/I2CS_SCBCLK.c **** #else
 205:.\Generated_Source\PSoC4/I2CS_SCBCLK.c ****     return 0u;
 220              		.loc 1 205 0
 221 0004 0023     		mov	r3, #0
 206:.\Generated_Source\PSoC4/I2CS_SCBCLK.c **** #endif /* I2CS_SCBCLK__FRAC_MASK */
 207:.\Generated_Source\PSoC4/I2CS_SCBCLK.c **** }
 222              		.loc 1 207 0
 223 0006 181C     		mov	r0, r3
 224 0008 BD46     		mov	sp, r7
 225              		@ sp needed
 226 000a 80BD     		pop	{r7, pc}
 227              		.cfi_endproc
 228              	.LFE4:
 229              		.size	I2CS_SCBCLK_GetFractionalDividerRegister, .-I2CS_SCBCLK_GetFractionalDividerRegister
 230              		.text
 231              	.Letext0:
 232              		.file 2 "Generated_Source\\PSoC4/cytypes.h"
 233              		.section	.debug_info,"",%progbits
 234              	.Ldebug_info0:
 235 0000 5F010000 		.4byte	0x15f
 236 0004 0400     		.2byte	0x4
 237 0006 00000000 		.4byte	.Ldebug_abbrev0
 238 000a 04       		.byte	0x4
 239 000b 01       		.uleb128 0x1
 240 000c C2000000 		.4byte	.LASF25
 241 0010 01       		.byte	0x1
 242 0011 3C020000 		.4byte	.LASF26
 243 0015 68010000 		.4byte	.LASF27
 244 0019 00000000 		.4byte	.Ldebug_ranges0+0
 245 001d 00000000 		.4byte	0
ARM GAS  C:\Users\DELL\AppData\Local\Temp\cc6Jvnv6.s 			page 9


 246 0021 00000000 		.4byte	.Ldebug_line0
 247 0025 02       		.uleb128 0x2
 248 0026 01       		.byte	0x1
 249 0027 06       		.byte	0x6
 250 0028 6C020000 		.4byte	.LASF0
 251 002c 02       		.uleb128 0x2
 252 002d 01       		.byte	0x1
 253 002e 08       		.byte	0x8
 254 002f 14000000 		.4byte	.LASF1
 255 0033 02       		.uleb128 0x2
 256 0034 02       		.byte	0x2
 257 0035 05       		.byte	0x5
 258 0036 2C020000 		.4byte	.LASF2
 259 003a 02       		.uleb128 0x2
 260 003b 02       		.byte	0x2
 261 003c 07       		.byte	0x7
 262 003d 34000000 		.4byte	.LASF3
 263 0041 02       		.uleb128 0x2
 264 0042 04       		.byte	0x4
 265 0043 05       		.byte	0x5
 266 0044 63020000 		.4byte	.LASF4
 267 0048 02       		.uleb128 0x2
 268 0049 04       		.byte	0x4
 269 004a 07       		.byte	0x7
 270 004b 22000000 		.4byte	.LASF5
 271 004f 02       		.uleb128 0x2
 272 0050 08       		.byte	0x8
 273 0051 05       		.byte	0x5
 274 0052 19020000 		.4byte	.LASF6
 275 0056 02       		.uleb128 0x2
 276 0057 08       		.byte	0x8
 277 0058 07       		.byte	0x7
 278 0059 C5010000 		.4byte	.LASF7
 279 005d 03       		.uleb128 0x3
 280 005e 04       		.byte	0x4
 281 005f 05       		.byte	0x5
 282 0060 696E7400 		.ascii	"int\000"
 283 0064 02       		.uleb128 0x2
 284 0065 04       		.byte	0x4
 285 0066 07       		.byte	0x7
 286 0067 B8010000 		.4byte	.LASF8
 287 006b 04       		.uleb128 0x4
 288 006c 36020000 		.4byte	.LASF9
 289 0070 02       		.byte	0x2
 290 0071 3801     		.2byte	0x138
 291 0073 2C000000 		.4byte	0x2c
 292 0077 04       		.uleb128 0x4
 293 0078 50010000 		.4byte	.LASF10
 294 007c 02       		.byte	0x2
 295 007d 3901     		.2byte	0x139
 296 007f 3A000000 		.4byte	0x3a
 297 0083 04       		.uleb128 0x4
 298 0084 B1010000 		.4byte	.LASF11
 299 0088 02       		.byte	0x2
 300 0089 3A01     		.2byte	0x13a
 301 008b 48000000 		.4byte	0x48
 302 008f 02       		.uleb128 0x2
ARM GAS  C:\Users\DELL\AppData\Local\Temp\cc6Jvnv6.s 			page 10


 303 0090 04       		.byte	0x4
 304 0091 04       		.byte	0x4
 305 0092 0E000000 		.4byte	.LASF12
 306 0096 02       		.uleb128 0x2
 307 0097 08       		.byte	0x8
 308 0098 04       		.byte	0x4
 309 0099 71000000 		.4byte	.LASF13
 310 009d 02       		.uleb128 0x2
 311 009e 01       		.byte	0x1
 312 009f 08       		.byte	0x8
 313 00a0 27020000 		.4byte	.LASF14
 314 00a4 04       		.uleb128 0x4
 315 00a5 00000000 		.4byte	.LASF15
 316 00a9 02       		.byte	0x2
 317 00aa E401     		.2byte	0x1e4
 318 00ac B0000000 		.4byte	0xb0
 319 00b0 05       		.uleb128 0x5
 320 00b1 83000000 		.4byte	0x83
 321 00b5 06       		.uleb128 0x6
 322 00b6 05020000 		.4byte	.LASF16
 323 00ba 01       		.byte	0x1
 324 00bb 27       		.byte	0x27
 325 00bc 00000000 		.4byte	.LFB0
 326 00c0 2C000000 		.4byte	.LFE0-.LFB0
 327 00c4 01       		.uleb128 0x1
 328 00c5 9C       		.byte	0x9c
 329 00c6 D9000000 		.4byte	0xd9
 330 00ca 07       		.uleb128 0x7
 331 00cb 7F000000 		.4byte	.LASF18
 332 00cf 01       		.byte	0x1
 333 00d0 27       		.byte	0x27
 334 00d1 83000000 		.4byte	0x83
 335 00d5 02       		.uleb128 0x2
 336 00d6 91       		.byte	0x91
 337 00d7 74       		.sleb128 -12
 338 00d8 00       		.byte	0
 339 00d9 08       		.uleb128 0x8
 340 00da 57010000 		.4byte	.LASF28
 341 00de 01       		.byte	0x1
 342 00df 5F       		.byte	0x5f
 343 00e0 00000000 		.4byte	.LFB1
 344 00e4 20000000 		.4byte	.LFE1-.LFB1
 345 00e8 01       		.uleb128 0x1
 346 00e9 9C       		.byte	0x9c
 347 00ea 06       		.uleb128 0x6
 348 00eb DC010000 		.4byte	.LASF17
 349 00ef 01       		.byte	0x1
 350 00f0 86       		.byte	0x86
 351 00f1 00000000 		.4byte	.LFB2
 352 00f5 44000000 		.4byte	.LFE2-.LFB2
 353 00f9 01       		.uleb128 0x1
 354 00fa 9C       		.byte	0x9c
 355 00fb 38010000 		.4byte	0x138
 356 00ff 07       		.uleb128 0x7
 357 0100 66000000 		.4byte	.LASF19
 358 0104 01       		.byte	0x1
 359 0105 86       		.byte	0x86
ARM GAS  C:\Users\DELL\AppData\Local\Temp\cc6Jvnv6.s 			page 11


 360 0106 77000000 		.4byte	0x77
 361 010a 02       		.uleb128 0x2
 362 010b 91       		.byte	0x91
 363 010c 6E       		.sleb128 -18
 364 010d 07       		.uleb128 0x7
 365 010e 8B000000 		.4byte	.LASF20
 366 0112 01       		.byte	0x1
 367 0113 86       		.byte	0x86
 368 0114 6B000000 		.4byte	0x6b
 369 0118 02       		.uleb128 0x2
 370 0119 91       		.byte	0x91
 371 011a 6D       		.sleb128 -19
 372 011b 09       		.uleb128 0x9
 373 011c 06000000 		.4byte	.LASF21
 374 0120 01       		.byte	0x1
 375 0121 88       		.byte	0x88
 376 0122 83000000 		.4byte	0x83
 377 0126 02       		.uleb128 0x2
 378 0127 91       		.byte	0x91
 379 0128 74       		.sleb128 -12
 380 0129 09       		.uleb128 0x9
 381 012a 78000000 		.4byte	.LASF22
 382 012e 01       		.byte	0x1
 383 012f 89       		.byte	0x89
 384 0130 83000000 		.4byte	0x83
 385 0134 02       		.uleb128 0x2
 386 0135 91       		.byte	0x91
 387 0136 70       		.sleb128 -16
 388 0137 00       		.byte	0
 389 0138 0A       		.uleb128 0xa
 390 0139 47000000 		.4byte	.LASF23
 391 013d 01       		.byte	0x1
 392 013e B0       		.byte	0xb0
 393 013f 77000000 		.4byte	0x77
 394 0143 00000000 		.4byte	.LFB3
 395 0147 18000000 		.4byte	.LFE3-.LFB3
 396 014b 01       		.uleb128 0x1
 397 014c 9C       		.byte	0x9c
 398 014d 0A       		.uleb128 0xa
 399 014e 99000000 		.4byte	.LASF24
 400 0152 01       		.byte	0x1
 401 0153 C6       		.byte	0xc6
 402 0154 6B000000 		.4byte	0x6b
 403 0158 00000000 		.4byte	.LFB4
 404 015c 0C000000 		.4byte	.LFE4-.LFB4
 405 0160 01       		.uleb128 0x1
 406 0161 9C       		.byte	0x9c
 407 0162 00       		.byte	0
 408              		.section	.debug_abbrev,"",%progbits
 409              	.Ldebug_abbrev0:
 410 0000 01       		.uleb128 0x1
 411 0001 11       		.uleb128 0x11
 412 0002 01       		.byte	0x1
 413 0003 25       		.uleb128 0x25
 414 0004 0E       		.uleb128 0xe
 415 0005 13       		.uleb128 0x13
 416 0006 0B       		.uleb128 0xb
ARM GAS  C:\Users\DELL\AppData\Local\Temp\cc6Jvnv6.s 			page 12


 417 0007 03       		.uleb128 0x3
 418 0008 0E       		.uleb128 0xe
 419 0009 1B       		.uleb128 0x1b
 420 000a 0E       		.uleb128 0xe
 421 000b 55       		.uleb128 0x55
 422 000c 17       		.uleb128 0x17
 423 000d 11       		.uleb128 0x11
 424 000e 01       		.uleb128 0x1
 425 000f 10       		.uleb128 0x10
 426 0010 17       		.uleb128 0x17
 427 0011 00       		.byte	0
 428 0012 00       		.byte	0
 429 0013 02       		.uleb128 0x2
 430 0014 24       		.uleb128 0x24
 431 0015 00       		.byte	0
 432 0016 0B       		.uleb128 0xb
 433 0017 0B       		.uleb128 0xb
 434 0018 3E       		.uleb128 0x3e
 435 0019 0B       		.uleb128 0xb
 436 001a 03       		.uleb128 0x3
 437 001b 0E       		.uleb128 0xe
 438 001c 00       		.byte	0
 439 001d 00       		.byte	0
 440 001e 03       		.uleb128 0x3
 441 001f 24       		.uleb128 0x24
 442 0020 00       		.byte	0
 443 0021 0B       		.uleb128 0xb
 444 0022 0B       		.uleb128 0xb
 445 0023 3E       		.uleb128 0x3e
 446 0024 0B       		.uleb128 0xb
 447 0025 03       		.uleb128 0x3
 448 0026 08       		.uleb128 0x8
 449 0027 00       		.byte	0
 450 0028 00       		.byte	0
 451 0029 04       		.uleb128 0x4
 452 002a 16       		.uleb128 0x16
 453 002b 00       		.byte	0
 454 002c 03       		.uleb128 0x3
 455 002d 0E       		.uleb128 0xe
 456 002e 3A       		.uleb128 0x3a
 457 002f 0B       		.uleb128 0xb
 458 0030 3B       		.uleb128 0x3b
 459 0031 05       		.uleb128 0x5
 460 0032 49       		.uleb128 0x49
 461 0033 13       		.uleb128 0x13
 462 0034 00       		.byte	0
 463 0035 00       		.byte	0
 464 0036 05       		.uleb128 0x5
 465 0037 35       		.uleb128 0x35
 466 0038 00       		.byte	0
 467 0039 49       		.uleb128 0x49
 468 003a 13       		.uleb128 0x13
 469 003b 00       		.byte	0
 470 003c 00       		.byte	0
 471 003d 06       		.uleb128 0x6
 472 003e 2E       		.uleb128 0x2e
 473 003f 01       		.byte	0x1
ARM GAS  C:\Users\DELL\AppData\Local\Temp\cc6Jvnv6.s 			page 13


 474 0040 3F       		.uleb128 0x3f
 475 0041 19       		.uleb128 0x19
 476 0042 03       		.uleb128 0x3
 477 0043 0E       		.uleb128 0xe
 478 0044 3A       		.uleb128 0x3a
 479 0045 0B       		.uleb128 0xb
 480 0046 3B       		.uleb128 0x3b
 481 0047 0B       		.uleb128 0xb
 482 0048 27       		.uleb128 0x27
 483 0049 19       		.uleb128 0x19
 484 004a 11       		.uleb128 0x11
 485 004b 01       		.uleb128 0x1
 486 004c 12       		.uleb128 0x12
 487 004d 06       		.uleb128 0x6
 488 004e 40       		.uleb128 0x40
 489 004f 18       		.uleb128 0x18
 490 0050 9742     		.uleb128 0x2117
 491 0052 19       		.uleb128 0x19
 492 0053 01       		.uleb128 0x1
 493 0054 13       		.uleb128 0x13
 494 0055 00       		.byte	0
 495 0056 00       		.byte	0
 496 0057 07       		.uleb128 0x7
 497 0058 05       		.uleb128 0x5
 498 0059 00       		.byte	0
 499 005a 03       		.uleb128 0x3
 500 005b 0E       		.uleb128 0xe
 501 005c 3A       		.uleb128 0x3a
 502 005d 0B       		.uleb128 0xb
 503 005e 3B       		.uleb128 0x3b
 504 005f 0B       		.uleb128 0xb
 505 0060 49       		.uleb128 0x49
 506 0061 13       		.uleb128 0x13
 507 0062 02       		.uleb128 0x2
 508 0063 18       		.uleb128 0x18
 509 0064 00       		.byte	0
 510 0065 00       		.byte	0
 511 0066 08       		.uleb128 0x8
 512 0067 2E       		.uleb128 0x2e
 513 0068 00       		.byte	0
 514 0069 3F       		.uleb128 0x3f
 515 006a 19       		.uleb128 0x19
 516 006b 03       		.uleb128 0x3
 517 006c 0E       		.uleb128 0xe
 518 006d 3A       		.uleb128 0x3a
 519 006e 0B       		.uleb128 0xb
 520 006f 3B       		.uleb128 0x3b
 521 0070 0B       		.uleb128 0xb
 522 0071 27       		.uleb128 0x27
 523 0072 19       		.uleb128 0x19
 524 0073 11       		.uleb128 0x11
 525 0074 01       		.uleb128 0x1
 526 0075 12       		.uleb128 0x12
 527 0076 06       		.uleb128 0x6
 528 0077 40       		.uleb128 0x40
 529 0078 18       		.uleb128 0x18
 530 0079 9742     		.uleb128 0x2117
ARM GAS  C:\Users\DELL\AppData\Local\Temp\cc6Jvnv6.s 			page 14


 531 007b 19       		.uleb128 0x19
 532 007c 00       		.byte	0
 533 007d 00       		.byte	0
 534 007e 09       		.uleb128 0x9
 535 007f 34       		.uleb128 0x34
 536 0080 00       		.byte	0
 537 0081 03       		.uleb128 0x3
 538 0082 0E       		.uleb128 0xe
 539 0083 3A       		.uleb128 0x3a
 540 0084 0B       		.uleb128 0xb
 541 0085 3B       		.uleb128 0x3b
 542 0086 0B       		.uleb128 0xb
 543 0087 49       		.uleb128 0x49
 544 0088 13       		.uleb128 0x13
 545 0089 02       		.uleb128 0x2
 546 008a 18       		.uleb128 0x18
 547 008b 00       		.byte	0
 548 008c 00       		.byte	0
 549 008d 0A       		.uleb128 0xa
 550 008e 2E       		.uleb128 0x2e
 551 008f 00       		.byte	0
 552 0090 3F       		.uleb128 0x3f
 553 0091 19       		.uleb128 0x19
 554 0092 03       		.uleb128 0x3
 555 0093 0E       		.uleb128 0xe
 556 0094 3A       		.uleb128 0x3a
 557 0095 0B       		.uleb128 0xb
 558 0096 3B       		.uleb128 0x3b
 559 0097 0B       		.uleb128 0xb
 560 0098 27       		.uleb128 0x27
 561 0099 19       		.uleb128 0x19
 562 009a 49       		.uleb128 0x49
 563 009b 13       		.uleb128 0x13
 564 009c 11       		.uleb128 0x11
 565 009d 01       		.uleb128 0x1
 566 009e 12       		.uleb128 0x12
 567 009f 06       		.uleb128 0x6
 568 00a0 40       		.uleb128 0x40
 569 00a1 18       		.uleb128 0x18
 570 00a2 9742     		.uleb128 0x2117
 571 00a4 19       		.uleb128 0x19
 572 00a5 00       		.byte	0
 573 00a6 00       		.byte	0
 574 00a7 00       		.byte	0
 575              		.section	.debug_aranges,"",%progbits
 576 0000 3C000000 		.4byte	0x3c
 577 0004 0200     		.2byte	0x2
 578 0006 00000000 		.4byte	.Ldebug_info0
 579 000a 04       		.byte	0x4
 580 000b 00       		.byte	0
 581 000c 0000     		.2byte	0
 582 000e 0000     		.2byte	0
 583 0010 00000000 		.4byte	.LFB0
 584 0014 2C000000 		.4byte	.LFE0-.LFB0
 585 0018 00000000 		.4byte	.LFB1
 586 001c 20000000 		.4byte	.LFE1-.LFB1
 587 0020 00000000 		.4byte	.LFB2
ARM GAS  C:\Users\DELL\AppData\Local\Temp\cc6Jvnv6.s 			page 15


 588 0024 44000000 		.4byte	.LFE2-.LFB2
 589 0028 00000000 		.4byte	.LFB3
 590 002c 18000000 		.4byte	.LFE3-.LFB3
 591 0030 00000000 		.4byte	.LFB4
 592 0034 0C000000 		.4byte	.LFE4-.LFB4
 593 0038 00000000 		.4byte	0
 594 003c 00000000 		.4byte	0
 595              		.section	.debug_ranges,"",%progbits
 596              	.Ldebug_ranges0:
 597 0000 00000000 		.4byte	.LFB0
 598 0004 2C000000 		.4byte	.LFE0
 599 0008 00000000 		.4byte	.LFB1
 600 000c 20000000 		.4byte	.LFE1
 601 0010 00000000 		.4byte	.LFB2
 602 0014 44000000 		.4byte	.LFE2
 603 0018 00000000 		.4byte	.LFB3
 604 001c 18000000 		.4byte	.LFE3
 605 0020 00000000 		.4byte	.LFB4
 606 0024 0C000000 		.4byte	.LFE4
 607 0028 00000000 		.4byte	0
 608 002c 00000000 		.4byte	0
 609              		.section	.debug_line,"",%progbits
 610              	.Ldebug_line0:
 611 0000 DD000000 		.section	.debug_str,"MS",%progbits,1
 611      02006100 
 611      00000201 
 611      FB0E0D00 
 611      01010101 
 612              	.LASF15:
 613 0000 72656733 		.ascii	"reg32\000"
 613      3200
 614              	.LASF21:
 615 0006 6D61736B 		.ascii	"maskVal\000"
 615      56616C00 
 616              	.LASF12:
 617 000e 666C6F61 		.ascii	"float\000"
 617      7400
 618              	.LASF1:
 619 0014 756E7369 		.ascii	"unsigned char\000"
 619      676E6564 
 619      20636861 
 619      7200
 620              	.LASF5:
 621 0022 6C6F6E67 		.ascii	"long unsigned int\000"
 621      20756E73 
 621      69676E65 
 621      6420696E 
 621      7400
 622              	.LASF3:
 623 0034 73686F72 		.ascii	"short unsigned int\000"
 623      7420756E 
 623      7369676E 
 623      65642069 
 623      6E7400
 624              	.LASF23:
 625 0047 49324353 		.ascii	"I2CS_SCBCLK_GetDividerRegister\000"
 625      5F534342 
ARM GAS  C:\Users\DELL\AppData\Local\Temp\cc6Jvnv6.s 			page 16


 625      434C4B5F 
 625      47657444 
 625      69766964 
 626              	.LASF19:
 627 0066 636C6B44 		.ascii	"clkDivider\000"
 627      69766964 
 627      657200
 628              	.LASF13:
 629 0071 646F7562 		.ascii	"double\000"
 629      6C6500
 630              	.LASF22:
 631 0078 72656756 		.ascii	"regVal\000"
 631      616C00
 632              	.LASF18:
 633 007f 616C6967 		.ascii	"alignClkDiv\000"
 633      6E436C6B 
 633      44697600 
 634              	.LASF20:
 635 008b 636C6B46 		.ascii	"clkFractional\000"
 635      72616374 
 635      696F6E61 
 635      6C00
 636              	.LASF24:
 637 0099 49324353 		.ascii	"I2CS_SCBCLK_GetFractionalDividerRegister\000"
 637      5F534342 
 637      434C4B5F 
 637      47657446 
 637      72616374 
 638              	.LASF25:
 639 00c2 474E5520 		.ascii	"GNU C 4.9.3 20150303 (release) [ARM/embedded-4_9-br"
 639      4320342E 
 639      392E3320 
 639      32303135 
 639      30333033 
 640 00f5 616E6368 		.ascii	"anch revision 221220] -mcpu=cortex-m0 -mthumb -g -O"
 640      20726576 
 640      6973696F 
 640      6E203232 
 640      31323230 
 641 0128 30202D66 		.ascii	"0 -ffunction-sections -ffat-lto-objects\000"
 641      66756E63 
 641      74696F6E 
 641      2D736563 
 641      74696F6E 
 642              	.LASF10:
 643 0150 75696E74 		.ascii	"uint16\000"
 643      313600
 644              	.LASF28:
 645 0157 49324353 		.ascii	"I2CS_SCBCLK_Stop\000"
 645      5F534342 
 645      434C4B5F 
 645      53746F70 
 645      00
 646              	.LASF27:
 647 0168 433A5C55 		.ascii	"C:\\Users\\DELL\\Documents\\Psoc\\SCB_I2cCommSlave0"
 647      73657273 
 647      5C44454C 
ARM GAS  C:\Users\DELL\AppData\Local\Temp\cc6Jvnv6.s 			page 17


 647      4C5C446F 
 647      63756D65 
 648 0196 315C5343 		.ascii	"1\\SCB_I2cCommSlave01.cydsn\000"
 648      425F4932 
 648      63436F6D 
 648      6D536C61 
 648      76653031 
 649              	.LASF11:
 650 01b1 75696E74 		.ascii	"uint32\000"
 650      333200
 651              	.LASF8:
 652 01b8 756E7369 		.ascii	"unsigned int\000"
 652      676E6564 
 652      20696E74 
 652      00
 653              	.LASF7:
 654 01c5 6C6F6E67 		.ascii	"long long unsigned int\000"
 654      206C6F6E 
 654      6720756E 
 654      7369676E 
 654      65642069 
 655              	.LASF17:
 656 01dc 49324353 		.ascii	"I2CS_SCBCLK_SetFractionalDividerRegister\000"
 656      5F534342 
 656      434C4B5F 
 656      53657446 
 656      72616374 
 657              	.LASF16:
 658 0205 49324353 		.ascii	"I2CS_SCBCLK_StartEx\000"
 658      5F534342 
 658      434C4B5F 
 658      53746172 
 658      74457800 
 659              	.LASF6:
 660 0219 6C6F6E67 		.ascii	"long long int\000"
 660      206C6F6E 
 660      6720696E 
 660      7400
 661              	.LASF14:
 662 0227 63686172 		.ascii	"char\000"
 662      00
 663              	.LASF2:
 664 022c 73686F72 		.ascii	"short int\000"
 664      7420696E 
 664      7400
 665              	.LASF9:
 666 0236 75696E74 		.ascii	"uint8\000"
 666      3800
 667              	.LASF26:
 668 023c 2E5C4765 		.ascii	".\\Generated_Source\\PSoC4\\I2CS_SCBCLK.c\000"
 668      6E657261 
 668      7465645F 
 668      536F7572 
 668      63655C50 
 669              	.LASF4:
 670 0263 6C6F6E67 		.ascii	"long int\000"
 670      20696E74 
ARM GAS  C:\Users\DELL\AppData\Local\Temp\cc6Jvnv6.s 			page 18


 670      00
 671              	.LASF0:
 672 026c 7369676E 		.ascii	"signed char\000"
 672      65642063 
 672      68617200 
 673              		.ident	"GCC: (GNU Tools for ARM Embedded Processors) 4.9.3 20150303 (release) [ARM/embedded-4_9-br
