ARM GAS  C:\Users\DELL\AppData\Local\Temp\ccMS8vWu.s 			page 1


   1              		.cpu cortex-m0
   2              		.fpu softvfp
   3              		.eabi_attribute 20, 1
   4              		.eabi_attribute 21, 1
   5              		.eabi_attribute 23, 3
   6              		.eabi_attribute 24, 1
   7              		.eabi_attribute 25, 1
   8              		.eabi_attribute 26, 1
   9              		.eabi_attribute 30, 6
  10              		.eabi_attribute 34, 0
  11              		.eabi_attribute 18, 4
  12              		.code	16
  13              		.file	"RedLED.c"
  14              		.text
  15              	.Ltext0:
  16              		.cfi_sections	.debug_frame
  17              		.section	.text.RedLED_SetDriveMode,"ax",%progbits
  18              		.align	2
  19              		.global	RedLED_SetDriveMode
  20              		.code	16
  21              		.thumb_func
  22              		.type	RedLED_SetDriveMode, %function
  23              	RedLED_SetDriveMode:
  24              	.LFB0:
  25              		.file 1 ".\\Generated_Source\\PSoC4\\RedLED.c"
   1:.\Generated_Source\PSoC4/RedLED.c **** /*******************************************************************************
   2:.\Generated_Source\PSoC4/RedLED.c **** * File Name: RedLED.c  
   3:.\Generated_Source\PSoC4/RedLED.c **** * Version 2.20
   4:.\Generated_Source\PSoC4/RedLED.c **** *
   5:.\Generated_Source\PSoC4/RedLED.c **** * Description:
   6:.\Generated_Source\PSoC4/RedLED.c **** *  This file contains API to enable firmware control of a Pins component.
   7:.\Generated_Source\PSoC4/RedLED.c **** *
   8:.\Generated_Source\PSoC4/RedLED.c **** ********************************************************************************
   9:.\Generated_Source\PSoC4/RedLED.c **** * Copyright 2008-2015, Cypress Semiconductor Corporation.  All rights reserved.
  10:.\Generated_Source\PSoC4/RedLED.c **** * You may use this file only in accordance with the license, terms, conditions, 
  11:.\Generated_Source\PSoC4/RedLED.c **** * disclaimers, and limitations in the end user license agreement accompanying 
  12:.\Generated_Source\PSoC4/RedLED.c **** * the software package with which this file was provided.
  13:.\Generated_Source\PSoC4/RedLED.c **** *******************************************************************************/
  14:.\Generated_Source\PSoC4/RedLED.c **** 
  15:.\Generated_Source\PSoC4/RedLED.c **** #include "cytypes.h"
  16:.\Generated_Source\PSoC4/RedLED.c **** #include "RedLED.h"
  17:.\Generated_Source\PSoC4/RedLED.c **** 
  18:.\Generated_Source\PSoC4/RedLED.c **** 
  19:.\Generated_Source\PSoC4/RedLED.c **** #if defined(RedLED__PC)
  20:.\Generated_Source\PSoC4/RedLED.c ****     #define RedLED_SetP4PinDriveMode(shift, mode)  \
  21:.\Generated_Source\PSoC4/RedLED.c ****     do { \
  22:.\Generated_Source\PSoC4/RedLED.c ****         RedLED_PC =   (RedLED_PC & \
  23:.\Generated_Source\PSoC4/RedLED.c ****                                 (uint32)(~(uint32)(RedLED_DRIVE_MODE_IND_MASK << \
  24:.\Generated_Source\PSoC4/RedLED.c ****                                 (RedLED_DRIVE_MODE_BITS * (shift))))) | \
  25:.\Generated_Source\PSoC4/RedLED.c ****                                 (uint32)((uint32)(mode) << \
  26:.\Generated_Source\PSoC4/RedLED.c ****                                 (RedLED_DRIVE_MODE_BITS * (shift))); \
  27:.\Generated_Source\PSoC4/RedLED.c ****     } while (0)
  28:.\Generated_Source\PSoC4/RedLED.c **** #else
  29:.\Generated_Source\PSoC4/RedLED.c ****     #if (CY_PSOC4_4200L)
  30:.\Generated_Source\PSoC4/RedLED.c ****         #define RedLED_SetP4PinDriveMode(shift, mode)  \
  31:.\Generated_Source\PSoC4/RedLED.c ****         do { \
  32:.\Generated_Source\PSoC4/RedLED.c ****             RedLED_USBIO_CTRL_REG = (RedLED_USBIO_CTRL_REG & \
ARM GAS  C:\Users\DELL\AppData\Local\Temp\ccMS8vWu.s 			page 2


  33:.\Generated_Source\PSoC4/RedLED.c ****                                     (uint32)(~(uint32)(RedLED_DRIVE_MODE_IND_MASK << \
  34:.\Generated_Source\PSoC4/RedLED.c ****                                     (RedLED_DRIVE_MODE_BITS * (shift))))) | \
  35:.\Generated_Source\PSoC4/RedLED.c ****                                     (uint32)((uint32)(mode) << \
  36:.\Generated_Source\PSoC4/RedLED.c ****                                     (RedLED_DRIVE_MODE_BITS * (shift))); \
  37:.\Generated_Source\PSoC4/RedLED.c ****         } while (0)
  38:.\Generated_Source\PSoC4/RedLED.c ****     #endif
  39:.\Generated_Source\PSoC4/RedLED.c **** #endif
  40:.\Generated_Source\PSoC4/RedLED.c ****   
  41:.\Generated_Source\PSoC4/RedLED.c **** 
  42:.\Generated_Source\PSoC4/RedLED.c **** #if defined(RedLED__PC) || (CY_PSOC4_4200L) 
  43:.\Generated_Source\PSoC4/RedLED.c ****     /*******************************************************************************
  44:.\Generated_Source\PSoC4/RedLED.c ****     * Function Name: RedLED_SetDriveMode
  45:.\Generated_Source\PSoC4/RedLED.c ****     ****************************************************************************//**
  46:.\Generated_Source\PSoC4/RedLED.c ****     *
  47:.\Generated_Source\PSoC4/RedLED.c ****     * \brief Sets the drive mode for each of the Pins component's pins.
  48:.\Generated_Source\PSoC4/RedLED.c ****     * 
  49:.\Generated_Source\PSoC4/RedLED.c ****     * <b>Note</b> This affects all pins in the Pins component instance. Use the
  50:.\Generated_Source\PSoC4/RedLED.c ****     * Per-Pin APIs if you wish to control individual pin's drive modes.
  51:.\Generated_Source\PSoC4/RedLED.c ****     *
  52:.\Generated_Source\PSoC4/RedLED.c ****     * <b>Note</b> USBIOs have limited drive functionality. Refer to the Drive Mode
  53:.\Generated_Source\PSoC4/RedLED.c ****     * parameter for more information.
  54:.\Generated_Source\PSoC4/RedLED.c ****     *
  55:.\Generated_Source\PSoC4/RedLED.c ****     * \param mode
  56:.\Generated_Source\PSoC4/RedLED.c ****     *  Mode for the selected signals. Valid options are documented in 
  57:.\Generated_Source\PSoC4/RedLED.c ****     *  \ref driveMode.
  58:.\Generated_Source\PSoC4/RedLED.c ****     *
  59:.\Generated_Source\PSoC4/RedLED.c ****     * \return
  60:.\Generated_Source\PSoC4/RedLED.c ****     *  None
  61:.\Generated_Source\PSoC4/RedLED.c ****     *
  62:.\Generated_Source\PSoC4/RedLED.c ****     * \sideeffect
  63:.\Generated_Source\PSoC4/RedLED.c ****     *  If you use read-modify-write operations that are not atomic, the ISR can
  64:.\Generated_Source\PSoC4/RedLED.c ****     *  cause corruption of this function. An ISR that interrupts this function 
  65:.\Generated_Source\PSoC4/RedLED.c ****     *  and performs writes to the Pins component Drive Mode registers can cause 
  66:.\Generated_Source\PSoC4/RedLED.c ****     *  corrupted port data. To avoid this issue, you should either use the Per-Pin
  67:.\Generated_Source\PSoC4/RedLED.c ****     *  APIs (primary method) or disable interrupts around this function.
  68:.\Generated_Source\PSoC4/RedLED.c ****     *
  69:.\Generated_Source\PSoC4/RedLED.c ****     * \funcusage
  70:.\Generated_Source\PSoC4/RedLED.c ****     *  \snippet RedLED_SUT.c usage_RedLED_SetDriveMode
  71:.\Generated_Source\PSoC4/RedLED.c ****     *******************************************************************************/
  72:.\Generated_Source\PSoC4/RedLED.c ****     void RedLED_SetDriveMode(uint8 mode)
  73:.\Generated_Source\PSoC4/RedLED.c ****     {
  26              		.loc 1 73 0
  27              		.cfi_startproc
  28 0000 80B5     		push	{r7, lr}
  29              		.cfi_def_cfa_offset 8
  30              		.cfi_offset 7, -8
  31              		.cfi_offset 14, -4
  32 0002 82B0     		sub	sp, sp, #8
  33              		.cfi_def_cfa_offset 16
  34 0004 00AF     		add	r7, sp, #0
  35              		.cfi_def_cfa_register 7
  36 0006 021C     		mov	r2, r0
  37 0008 FB1D     		add	r3, r7, #7
  38 000a 1A70     		strb	r2, [r3]
  74:.\Generated_Source\PSoC4/RedLED.c **** 		RedLED_SetP4PinDriveMode(RedLED__0__SHIFT, mode);
  39              		.loc 1 74 0
  40 000c 064B     		ldr	r3, .L2
ARM GAS  C:\Users\DELL\AppData\Local\Temp\ccMS8vWu.s 			page 3


  41 000e 064A     		ldr	r2, .L2
  42 0010 1268     		ldr	r2, [r2]
  43 0012 0649     		ldr	r1, .L2+4
  44 0014 1140     		and	r1, r2
  45 0016 FA1D     		add	r2, r7, #7
  46 0018 1278     		ldrb	r2, [r2]
  47 001a 9204     		lsl	r2, r2, #18
  48 001c 0A43     		orr	r2, r1
  49 001e 1A60     		str	r2, [r3]
  75:.\Generated_Source\PSoC4/RedLED.c ****     }
  50              		.loc 1 75 0
  51 0020 BD46     		mov	sp, r7
  52 0022 02B0     		add	sp, sp, #8
  53              		@ sp needed
  54 0024 80BD     		pop	{r7, pc}
  55              	.L3:
  56 0026 C046     		.align	2
  57              	.L2:
  58 0028 08020440 		.word	1074004488
  59 002c FFFFE3FF 		.word	-1835009
  60              		.cfi_endproc
  61              	.LFE0:
  62              		.size	RedLED_SetDriveMode, .-RedLED_SetDriveMode
  63              		.section	.text.RedLED_Write,"ax",%progbits
  64              		.align	2
  65              		.global	RedLED_Write
  66              		.code	16
  67              		.thumb_func
  68              		.type	RedLED_Write, %function
  69              	RedLED_Write:
  70              	.LFB1:
  76:.\Generated_Source\PSoC4/RedLED.c **** #endif
  77:.\Generated_Source\PSoC4/RedLED.c **** 
  78:.\Generated_Source\PSoC4/RedLED.c **** 
  79:.\Generated_Source\PSoC4/RedLED.c **** /*******************************************************************************
  80:.\Generated_Source\PSoC4/RedLED.c **** * Function Name: RedLED_Write
  81:.\Generated_Source\PSoC4/RedLED.c **** ****************************************************************************//**
  82:.\Generated_Source\PSoC4/RedLED.c **** *
  83:.\Generated_Source\PSoC4/RedLED.c **** * \brief Writes the value to the physical port (data output register), masking
  84:.\Generated_Source\PSoC4/RedLED.c **** *  and shifting the bits appropriately. 
  85:.\Generated_Source\PSoC4/RedLED.c **** *
  86:.\Generated_Source\PSoC4/RedLED.c **** * The data output register controls the signal applied to the physical pin in 
  87:.\Generated_Source\PSoC4/RedLED.c **** * conjunction with the drive mode parameter. This function avoids changing 
  88:.\Generated_Source\PSoC4/RedLED.c **** * other bits in the port by using the appropriate method (read-modify-write or
  89:.\Generated_Source\PSoC4/RedLED.c **** * bit banding).
  90:.\Generated_Source\PSoC4/RedLED.c **** *
  91:.\Generated_Source\PSoC4/RedLED.c **** * <b>Note</b> This function should not be used on a hardware digital output pin 
  92:.\Generated_Source\PSoC4/RedLED.c **** * as it is driven by the hardware signal attached to it.
  93:.\Generated_Source\PSoC4/RedLED.c **** *
  94:.\Generated_Source\PSoC4/RedLED.c **** * \param value
  95:.\Generated_Source\PSoC4/RedLED.c **** *  Value to write to the component instance.
  96:.\Generated_Source\PSoC4/RedLED.c **** *
  97:.\Generated_Source\PSoC4/RedLED.c **** * \return 
  98:.\Generated_Source\PSoC4/RedLED.c **** *  None 
  99:.\Generated_Source\PSoC4/RedLED.c **** *
 100:.\Generated_Source\PSoC4/RedLED.c **** * \sideeffect
 101:.\Generated_Source\PSoC4/RedLED.c **** *  If you use read-modify-write operations that are not atomic; the Interrupt 
ARM GAS  C:\Users\DELL\AppData\Local\Temp\ccMS8vWu.s 			page 4


 102:.\Generated_Source\PSoC4/RedLED.c **** *  Service Routines (ISR) can cause corruption of this function. An ISR that 
 103:.\Generated_Source\PSoC4/RedLED.c **** *  interrupts this function and performs writes to the Pins component data 
 104:.\Generated_Source\PSoC4/RedLED.c **** *  register can cause corrupted port data. To avoid this issue, you should 
 105:.\Generated_Source\PSoC4/RedLED.c **** *  either use the Per-Pin APIs (primary method) or disable interrupts around 
 106:.\Generated_Source\PSoC4/RedLED.c **** *  this function.
 107:.\Generated_Source\PSoC4/RedLED.c **** *
 108:.\Generated_Source\PSoC4/RedLED.c **** * \funcusage
 109:.\Generated_Source\PSoC4/RedLED.c **** *  \snippet RedLED_SUT.c usage_RedLED_Write
 110:.\Generated_Source\PSoC4/RedLED.c **** *******************************************************************************/
 111:.\Generated_Source\PSoC4/RedLED.c **** void RedLED_Write(uint8 value)
 112:.\Generated_Source\PSoC4/RedLED.c **** {
  71              		.loc 1 112 0
  72              		.cfi_startproc
  73 0000 80B5     		push	{r7, lr}
  74              		.cfi_def_cfa_offset 8
  75              		.cfi_offset 7, -8
  76              		.cfi_offset 14, -4
  77 0002 84B0     		sub	sp, sp, #16
  78              		.cfi_def_cfa_offset 24
  79 0004 00AF     		add	r7, sp, #0
  80              		.cfi_def_cfa_register 7
  81 0006 021C     		mov	r2, r0
  82 0008 FB1D     		add	r3, r7, #7
  83 000a 1A70     		strb	r2, [r3]
 113:.\Generated_Source\PSoC4/RedLED.c ****     uint8 drVal = (uint8)(RedLED_DR & (uint8)(~RedLED_MASK));
  84              		.loc 1 113 0
  85 000c 0E4B     		ldr	r3, .L5
  86 000e 1B68     		ldr	r3, [r3]
  87 0010 DAB2     		uxtb	r2, r3
  88 0012 0F23     		mov	r3, #15
  89 0014 FB18     		add	r3, r7, r3
  90 0016 4021     		mov	r1, #64
  91 0018 8A43     		bic	r2, r1
  92 001a 1A70     		strb	r2, [r3]
 114:.\Generated_Source\PSoC4/RedLED.c ****     drVal = (drVal | ((uint8)(value << RedLED_SHIFT) & RedLED_MASK));
  93              		.loc 1 114 0
  94 001c FB1D     		add	r3, r7, #7
  95 001e 1B78     		ldrb	r3, [r3]
  96 0020 9B01     		lsl	r3, r3, #6
  97 0022 DBB2     		uxtb	r3, r3
  98 0024 4022     		mov	r2, #64
  99 0026 1340     		and	r3, r2
 100 0028 D9B2     		uxtb	r1, r3
 101 002a 0F23     		mov	r3, #15
 102 002c FB18     		add	r3, r7, r3
 103 002e 0F22     		mov	r2, #15
 104 0030 BA18     		add	r2, r7, r2
 105 0032 1278     		ldrb	r2, [r2]
 106 0034 0A43     		orr	r2, r1
 107 0036 1A70     		strb	r2, [r3]
 115:.\Generated_Source\PSoC4/RedLED.c ****     RedLED_DR = (uint32)drVal;
 108              		.loc 1 115 0
 109 0038 034B     		ldr	r3, .L5
 110 003a 0F22     		mov	r2, #15
 111 003c BA18     		add	r2, r7, r2
 112 003e 1278     		ldrb	r2, [r2]
 113 0040 1A60     		str	r2, [r3]
ARM GAS  C:\Users\DELL\AppData\Local\Temp\ccMS8vWu.s 			page 5


 116:.\Generated_Source\PSoC4/RedLED.c **** }
 114              		.loc 1 116 0
 115 0042 BD46     		mov	sp, r7
 116 0044 04B0     		add	sp, sp, #16
 117              		@ sp needed
 118 0046 80BD     		pop	{r7, pc}
 119              	.L6:
 120              		.align	2
 121              	.L5:
 122 0048 00020440 		.word	1074004480
 123              		.cfi_endproc
 124              	.LFE1:
 125              		.size	RedLED_Write, .-RedLED_Write
 126              		.section	.text.RedLED_Read,"ax",%progbits
 127              		.align	2
 128              		.global	RedLED_Read
 129              		.code	16
 130              		.thumb_func
 131              		.type	RedLED_Read, %function
 132              	RedLED_Read:
 133              	.LFB2:
 117:.\Generated_Source\PSoC4/RedLED.c **** 
 118:.\Generated_Source\PSoC4/RedLED.c **** 
 119:.\Generated_Source\PSoC4/RedLED.c **** /*******************************************************************************
 120:.\Generated_Source\PSoC4/RedLED.c **** * Function Name: RedLED_Read
 121:.\Generated_Source\PSoC4/RedLED.c **** ****************************************************************************//**
 122:.\Generated_Source\PSoC4/RedLED.c **** *
 123:.\Generated_Source\PSoC4/RedLED.c **** * \brief Reads the associated physical port (pin status register) and masks 
 124:.\Generated_Source\PSoC4/RedLED.c **** *  the required bits according to the width and bit position of the component
 125:.\Generated_Source\PSoC4/RedLED.c **** *  instance. 
 126:.\Generated_Source\PSoC4/RedLED.c **** *
 127:.\Generated_Source\PSoC4/RedLED.c **** * The pin's status register returns the current logic level present on the 
 128:.\Generated_Source\PSoC4/RedLED.c **** * physical pin.
 129:.\Generated_Source\PSoC4/RedLED.c **** *
 130:.\Generated_Source\PSoC4/RedLED.c **** * \return 
 131:.\Generated_Source\PSoC4/RedLED.c **** *  The current value for the pins in the component as a right justified number.
 132:.\Generated_Source\PSoC4/RedLED.c **** *
 133:.\Generated_Source\PSoC4/RedLED.c **** * \funcusage
 134:.\Generated_Source\PSoC4/RedLED.c **** *  \snippet RedLED_SUT.c usage_RedLED_Read  
 135:.\Generated_Source\PSoC4/RedLED.c **** *******************************************************************************/
 136:.\Generated_Source\PSoC4/RedLED.c **** uint8 RedLED_Read(void)
 137:.\Generated_Source\PSoC4/RedLED.c **** {
 134              		.loc 1 137 0
 135              		.cfi_startproc
 136 0000 80B5     		push	{r7, lr}
 137              		.cfi_def_cfa_offset 8
 138              		.cfi_offset 7, -8
 139              		.cfi_offset 14, -4
 140 0002 00AF     		add	r7, sp, #0
 141              		.cfi_def_cfa_register 7
 138:.\Generated_Source\PSoC4/RedLED.c ****     return (uint8)((RedLED_PS & RedLED_MASK) >> RedLED_SHIFT);
 142              		.loc 1 138 0
 143 0004 044B     		ldr	r3, .L9
 144 0006 1B68     		ldr	r3, [r3]
 145 0008 4022     		mov	r2, #64
 146 000a 1340     		and	r3, r2
 147 000c 9B09     		lsr	r3, r3, #6
ARM GAS  C:\Users\DELL\AppData\Local\Temp\ccMS8vWu.s 			page 6


 148 000e DBB2     		uxtb	r3, r3
 139:.\Generated_Source\PSoC4/RedLED.c **** }
 149              		.loc 1 139 0
 150 0010 181C     		mov	r0, r3
 151 0012 BD46     		mov	sp, r7
 152              		@ sp needed
 153 0014 80BD     		pop	{r7, pc}
 154              	.L10:
 155 0016 C046     		.align	2
 156              	.L9:
 157 0018 04020440 		.word	1074004484
 158              		.cfi_endproc
 159              	.LFE2:
 160              		.size	RedLED_Read, .-RedLED_Read
 161              		.section	.text.RedLED_ReadDataReg,"ax",%progbits
 162              		.align	2
 163              		.global	RedLED_ReadDataReg
 164              		.code	16
 165              		.thumb_func
 166              		.type	RedLED_ReadDataReg, %function
 167              	RedLED_ReadDataReg:
 168              	.LFB3:
 140:.\Generated_Source\PSoC4/RedLED.c **** 
 141:.\Generated_Source\PSoC4/RedLED.c **** 
 142:.\Generated_Source\PSoC4/RedLED.c **** /*******************************************************************************
 143:.\Generated_Source\PSoC4/RedLED.c **** * Function Name: RedLED_ReadDataReg
 144:.\Generated_Source\PSoC4/RedLED.c **** ****************************************************************************//**
 145:.\Generated_Source\PSoC4/RedLED.c **** *
 146:.\Generated_Source\PSoC4/RedLED.c **** * \brief Reads the associated physical port's data output register and masks 
 147:.\Generated_Source\PSoC4/RedLED.c **** *  the correct bits according to the width and bit position of the component 
 148:.\Generated_Source\PSoC4/RedLED.c **** *  instance. 
 149:.\Generated_Source\PSoC4/RedLED.c **** *
 150:.\Generated_Source\PSoC4/RedLED.c **** * The data output register controls the signal applied to the physical pin in 
 151:.\Generated_Source\PSoC4/RedLED.c **** * conjunction with the drive mode parameter. This is not the same as the 
 152:.\Generated_Source\PSoC4/RedLED.c **** * preferred RedLED_Read() API because the 
 153:.\Generated_Source\PSoC4/RedLED.c **** * RedLED_ReadDataReg() reads the data register instead of the status 
 154:.\Generated_Source\PSoC4/RedLED.c **** * register. For output pins this is a useful function to determine the value 
 155:.\Generated_Source\PSoC4/RedLED.c **** * just written to the pin.
 156:.\Generated_Source\PSoC4/RedLED.c **** *
 157:.\Generated_Source\PSoC4/RedLED.c **** * \return 
 158:.\Generated_Source\PSoC4/RedLED.c **** *  The current value of the data register masked and shifted into a right 
 159:.\Generated_Source\PSoC4/RedLED.c **** *  justified number for the component instance.
 160:.\Generated_Source\PSoC4/RedLED.c **** *
 161:.\Generated_Source\PSoC4/RedLED.c **** * \funcusage
 162:.\Generated_Source\PSoC4/RedLED.c **** *  \snippet RedLED_SUT.c usage_RedLED_ReadDataReg 
 163:.\Generated_Source\PSoC4/RedLED.c **** *******************************************************************************/
 164:.\Generated_Source\PSoC4/RedLED.c **** uint8 RedLED_ReadDataReg(void)
 165:.\Generated_Source\PSoC4/RedLED.c **** {
 169              		.loc 1 165 0
 170              		.cfi_startproc
 171 0000 80B5     		push	{r7, lr}
 172              		.cfi_def_cfa_offset 8
 173              		.cfi_offset 7, -8
 174              		.cfi_offset 14, -4
 175 0002 00AF     		add	r7, sp, #0
 176              		.cfi_def_cfa_register 7
 166:.\Generated_Source\PSoC4/RedLED.c ****     return (uint8)((RedLED_DR & RedLED_MASK) >> RedLED_SHIFT);
ARM GAS  C:\Users\DELL\AppData\Local\Temp\ccMS8vWu.s 			page 7


 177              		.loc 1 166 0
 178 0004 044B     		ldr	r3, .L13
 179 0006 1B68     		ldr	r3, [r3]
 180 0008 4022     		mov	r2, #64
 181 000a 1340     		and	r3, r2
 182 000c 9B09     		lsr	r3, r3, #6
 183 000e DBB2     		uxtb	r3, r3
 167:.\Generated_Source\PSoC4/RedLED.c **** }
 184              		.loc 1 167 0
 185 0010 181C     		mov	r0, r3
 186 0012 BD46     		mov	sp, r7
 187              		@ sp needed
 188 0014 80BD     		pop	{r7, pc}
 189              	.L14:
 190 0016 C046     		.align	2
 191              	.L13:
 192 0018 00020440 		.word	1074004480
 193              		.cfi_endproc
 194              	.LFE3:
 195              		.size	RedLED_ReadDataReg, .-RedLED_ReadDataReg
 196              		.section	.text.RedLED_SetInterruptMode,"ax",%progbits
 197              		.align	2
 198              		.global	RedLED_SetInterruptMode
 199              		.code	16
 200              		.thumb_func
 201              		.type	RedLED_SetInterruptMode, %function
 202              	RedLED_SetInterruptMode:
 203              	.LFB4:
 168:.\Generated_Source\PSoC4/RedLED.c **** 
 169:.\Generated_Source\PSoC4/RedLED.c **** 
 170:.\Generated_Source\PSoC4/RedLED.c **** /*******************************************************************************
 171:.\Generated_Source\PSoC4/RedLED.c **** * Function Name: RedLED_SetInterruptMode
 172:.\Generated_Source\PSoC4/RedLED.c **** ****************************************************************************//**
 173:.\Generated_Source\PSoC4/RedLED.c **** *
 174:.\Generated_Source\PSoC4/RedLED.c **** * \brief Configures the interrupt mode for each of the Pins component's
 175:.\Generated_Source\PSoC4/RedLED.c **** *  pins. Alternatively you may set the interrupt mode for all the pins
 176:.\Generated_Source\PSoC4/RedLED.c **** *  specified in the Pins component.
 177:.\Generated_Source\PSoC4/RedLED.c **** *
 178:.\Generated_Source\PSoC4/RedLED.c **** *  <b>Note</b> The interrupt is port-wide and therefore any enabled pin
 179:.\Generated_Source\PSoC4/RedLED.c **** *  interrupt may trigger it.
 180:.\Generated_Source\PSoC4/RedLED.c **** *
 181:.\Generated_Source\PSoC4/RedLED.c **** * \param position
 182:.\Generated_Source\PSoC4/RedLED.c **** *  The pin position as listed in the Pins component. You may OR these to be 
 183:.\Generated_Source\PSoC4/RedLED.c **** *  able to configure the interrupt mode of multiple pins within a Pins 
 184:.\Generated_Source\PSoC4/RedLED.c **** *  component. Or you may use RedLED_INTR_ALL to configure the
 185:.\Generated_Source\PSoC4/RedLED.c **** *  interrupt mode of all the pins in the Pins component.       
 186:.\Generated_Source\PSoC4/RedLED.c **** *  - RedLED_0_INTR       (First pin in the list)
 187:.\Generated_Source\PSoC4/RedLED.c **** *  - RedLED_1_INTR       (Second pin in the list)
 188:.\Generated_Source\PSoC4/RedLED.c **** *  - ...
 189:.\Generated_Source\PSoC4/RedLED.c **** *  - RedLED_INTR_ALL     (All pins in Pins component)
 190:.\Generated_Source\PSoC4/RedLED.c **** *
 191:.\Generated_Source\PSoC4/RedLED.c **** * \param mode
 192:.\Generated_Source\PSoC4/RedLED.c **** *  Interrupt mode for the selected pins. Valid options are documented in
 193:.\Generated_Source\PSoC4/RedLED.c **** *  \ref intrMode.
 194:.\Generated_Source\PSoC4/RedLED.c **** *
 195:.\Generated_Source\PSoC4/RedLED.c **** * \return 
 196:.\Generated_Source\PSoC4/RedLED.c **** *  None
ARM GAS  C:\Users\DELL\AppData\Local\Temp\ccMS8vWu.s 			page 8


 197:.\Generated_Source\PSoC4/RedLED.c **** *  
 198:.\Generated_Source\PSoC4/RedLED.c **** * \sideeffect
 199:.\Generated_Source\PSoC4/RedLED.c **** *  It is recommended that the interrupt be disabled before calling this 
 200:.\Generated_Source\PSoC4/RedLED.c **** *  function to avoid unintended interrupt requests. Note that the interrupt
 201:.\Generated_Source\PSoC4/RedLED.c **** *  type is port wide, and therefore will trigger for any enabled pin on the 
 202:.\Generated_Source\PSoC4/RedLED.c **** *  port.
 203:.\Generated_Source\PSoC4/RedLED.c **** *
 204:.\Generated_Source\PSoC4/RedLED.c **** * \funcusage
 205:.\Generated_Source\PSoC4/RedLED.c **** *  \snippet RedLED_SUT.c usage_RedLED_SetInterruptMode
 206:.\Generated_Source\PSoC4/RedLED.c **** *******************************************************************************/
 207:.\Generated_Source\PSoC4/RedLED.c **** void RedLED_SetInterruptMode(uint16 position, uint16 mode)
 208:.\Generated_Source\PSoC4/RedLED.c **** {
 204              		.loc 1 208 0
 205              		.cfi_startproc
 206 0000 80B5     		push	{r7, lr}
 207              		.cfi_def_cfa_offset 8
 208              		.cfi_offset 7, -8
 209              		.cfi_offset 14, -4
 210 0002 84B0     		sub	sp, sp, #16
 211              		.cfi_def_cfa_offset 24
 212 0004 00AF     		add	r7, sp, #0
 213              		.cfi_def_cfa_register 7
 214 0006 021C     		mov	r2, r0
 215 0008 BB1D     		add	r3, r7, #6
 216 000a 1A80     		strh	r2, [r3]
 217 000c 3B1D     		add	r3, r7, #4
 218 000e 0A1C     		add	r2, r1, #0
 219 0010 1A80     		strh	r2, [r3]
 209:.\Generated_Source\PSoC4/RedLED.c ****     uint32 intrCfg;
 210:.\Generated_Source\PSoC4/RedLED.c ****     
 211:.\Generated_Source\PSoC4/RedLED.c ****     intrCfg =  RedLED_INTCFG & (uint32)(~(uint32)position);
 220              		.loc 1 211 0
 221 0012 0A4B     		ldr	r3, .L16
 222 0014 1B68     		ldr	r3, [r3]
 223 0016 BA1D     		add	r2, r7, #6
 224 0018 1288     		ldrh	r2, [r2]
 225 001a D243     		mvn	r2, r2
 226 001c 1340     		and	r3, r2
 227 001e FB60     		str	r3, [r7, #12]
 212:.\Generated_Source\PSoC4/RedLED.c ****     RedLED_INTCFG = intrCfg | ((uint32)position & (uint32)mode);
 228              		.loc 1 212 0
 229 0020 064B     		ldr	r3, .L16
 230 0022 BA1D     		add	r2, r7, #6
 231 0024 391D     		add	r1, r7, #4
 232 0026 1288     		ldrh	r2, [r2]
 233 0028 0988     		ldrh	r1, [r1]
 234 002a 0A40     		and	r2, r1
 235 002c 92B2     		uxth	r2, r2
 236 002e 111C     		mov	r1, r2
 237 0030 FA68     		ldr	r2, [r7, #12]
 238 0032 0A43     		orr	r2, r1
 239 0034 1A60     		str	r2, [r3]
 213:.\Generated_Source\PSoC4/RedLED.c **** }
 240              		.loc 1 213 0
 241 0036 BD46     		mov	sp, r7
 242 0038 04B0     		add	sp, sp, #16
 243              		@ sp needed
ARM GAS  C:\Users\DELL\AppData\Local\Temp\ccMS8vWu.s 			page 9


 244 003a 80BD     		pop	{r7, pc}
 245              	.L17:
 246              		.align	2
 247              	.L16:
 248 003c 0C020440 		.word	1074004492
 249              		.cfi_endproc
 250              	.LFE4:
 251              		.size	RedLED_SetInterruptMode, .-RedLED_SetInterruptMode
 252              		.section	.text.RedLED_ClearInterrupt,"ax",%progbits
 253              		.align	2
 254              		.global	RedLED_ClearInterrupt
 255              		.code	16
 256              		.thumb_func
 257              		.type	RedLED_ClearInterrupt, %function
 258              	RedLED_ClearInterrupt:
 259              	.LFB5:
 214:.\Generated_Source\PSoC4/RedLED.c **** 
 215:.\Generated_Source\PSoC4/RedLED.c **** 
 216:.\Generated_Source\PSoC4/RedLED.c **** /*******************************************************************************
 217:.\Generated_Source\PSoC4/RedLED.c **** * Function Name: RedLED_ClearInterrupt
 218:.\Generated_Source\PSoC4/RedLED.c **** ****************************************************************************//**
 219:.\Generated_Source\PSoC4/RedLED.c **** *
 220:.\Generated_Source\PSoC4/RedLED.c **** * \brief Clears any active interrupts attached with the component and returns 
 221:.\Generated_Source\PSoC4/RedLED.c **** *  the value of the interrupt status register allowing determination of which
 222:.\Generated_Source\PSoC4/RedLED.c **** *  pins generated an interrupt event.
 223:.\Generated_Source\PSoC4/RedLED.c **** *
 224:.\Generated_Source\PSoC4/RedLED.c **** * \return 
 225:.\Generated_Source\PSoC4/RedLED.c **** *  The right-shifted current value of the interrupt status register. Each pin 
 226:.\Generated_Source\PSoC4/RedLED.c **** *  has one bit set if it generated an interrupt event. For example, bit 0 is 
 227:.\Generated_Source\PSoC4/RedLED.c **** *  for pin 0 and bit 1 is for pin 1 of the Pins component.
 228:.\Generated_Source\PSoC4/RedLED.c **** *  
 229:.\Generated_Source\PSoC4/RedLED.c **** * \sideeffect
 230:.\Generated_Source\PSoC4/RedLED.c **** *  Clears all bits of the physical port's interrupt status register, not just
 231:.\Generated_Source\PSoC4/RedLED.c **** *  those associated with the Pins component.
 232:.\Generated_Source\PSoC4/RedLED.c **** *
 233:.\Generated_Source\PSoC4/RedLED.c **** * \funcusage
 234:.\Generated_Source\PSoC4/RedLED.c **** *  \snippet RedLED_SUT.c usage_RedLED_ClearInterrupt
 235:.\Generated_Source\PSoC4/RedLED.c **** *******************************************************************************/
 236:.\Generated_Source\PSoC4/RedLED.c **** uint8 RedLED_ClearInterrupt(void)
 237:.\Generated_Source\PSoC4/RedLED.c **** {
 260              		.loc 1 237 0
 261              		.cfi_startproc
 262 0000 80B5     		push	{r7, lr}
 263              		.cfi_def_cfa_offset 8
 264              		.cfi_offset 7, -8
 265              		.cfi_offset 14, -4
 266 0002 82B0     		sub	sp, sp, #8
 267              		.cfi_def_cfa_offset 16
 268 0004 00AF     		add	r7, sp, #0
 269              		.cfi_def_cfa_register 7
 238:.\Generated_Source\PSoC4/RedLED.c **** 	uint8 maskedStatus = (uint8)(RedLED_INTSTAT & RedLED_MASK);
 270              		.loc 1 238 0
 271 0006 094B     		ldr	r3, .L20
 272 0008 1B68     		ldr	r3, [r3]
 273 000a DAB2     		uxtb	r2, r3
 274 000c FB1D     		add	r3, r7, #7
 275 000e 4021     		mov	r1, #64
ARM GAS  C:\Users\DELL\AppData\Local\Temp\ccMS8vWu.s 			page 10


 276 0010 0A40     		and	r2, r1
 277 0012 1A70     		strb	r2, [r3]
 239:.\Generated_Source\PSoC4/RedLED.c **** 	RedLED_INTSTAT = maskedStatus;
 278              		.loc 1 239 0
 279 0014 054B     		ldr	r3, .L20
 280 0016 FA1D     		add	r2, r7, #7
 281 0018 1278     		ldrb	r2, [r2]
 282 001a 1A60     		str	r2, [r3]
 240:.\Generated_Source\PSoC4/RedLED.c ****     return maskedStatus >> RedLED_SHIFT;
 283              		.loc 1 240 0
 284 001c FB1D     		add	r3, r7, #7
 285 001e 1B78     		ldrb	r3, [r3]
 286 0020 9B09     		lsr	r3, r3, #6
 287 0022 DBB2     		uxtb	r3, r3
 241:.\Generated_Source\PSoC4/RedLED.c **** }
 288              		.loc 1 241 0
 289 0024 181C     		mov	r0, r3
 290 0026 BD46     		mov	sp, r7
 291 0028 02B0     		add	sp, sp, #8
 292              		@ sp needed
 293 002a 80BD     		pop	{r7, pc}
 294              	.L21:
 295              		.align	2
 296              	.L20:
 297 002c 10020440 		.word	1074004496
 298              		.cfi_endproc
 299              	.LFE5:
 300              		.size	RedLED_ClearInterrupt, .-RedLED_ClearInterrupt
 301              		.text
 302              	.Letext0:
 303              		.file 2 ".\\Generated_Source\\PSoC4\\cytypes.h"
 304              		.section	.debug_info,"",%progbits
 305              	.Ldebug_info0:
 306 0000 96010000 		.4byte	0x196
 307 0004 0400     		.2byte	0x4
 308 0006 00000000 		.4byte	.Ldebug_abbrev0
 309 000a 04       		.byte	0x4
 310 000b 01       		.uleb128 0x1
 311 000c 94000000 		.4byte	.LASF28
 312 0010 01       		.byte	0x1
 313 0011 26000000 		.4byte	.LASF29
 314 0015 39010000 		.4byte	.LASF30
 315 0019 00000000 		.4byte	.Ldebug_ranges0+0
 316 001d 00000000 		.4byte	0
 317 0021 00000000 		.4byte	.Ldebug_line0
 318 0025 02       		.uleb128 0x2
 319 0026 01       		.byte	0x1
 320 0027 06       		.byte	0x6
 321 0028 20020000 		.4byte	.LASF0
 322 002c 02       		.uleb128 0x2
 323 002d 01       		.byte	0x1
 324 002e 08       		.byte	0x8
 325 002f 48000000 		.4byte	.LASF1
 326 0033 02       		.uleb128 0x2
 327 0034 02       		.byte	0x2
 328 0035 05       		.byte	0x5
 329 0036 FA010000 		.4byte	.LASF2
ARM GAS  C:\Users\DELL\AppData\Local\Temp\ccMS8vWu.s 			page 11


 330 003a 02       		.uleb128 0x2
 331 003b 02       		.byte	0x2
 332 003c 07       		.byte	0x7
 333 003d 6E000000 		.4byte	.LASF3
 334 0041 02       		.uleb128 0x2
 335 0042 04       		.byte	0x4
 336 0043 05       		.byte	0x5
 337 0044 0A020000 		.4byte	.LASF4
 338 0048 02       		.uleb128 0x2
 339 0049 04       		.byte	0x4
 340 004a 07       		.byte	0x7
 341 004b 5C000000 		.4byte	.LASF5
 342 004f 02       		.uleb128 0x2
 343 0050 08       		.byte	0x8
 344 0051 05       		.byte	0x5
 345 0052 C4010000 		.4byte	.LASF6
 346 0056 02       		.uleb128 0x2
 347 0057 08       		.byte	0x8
 348 0058 07       		.byte	0x7
 349 0059 90010000 		.4byte	.LASF7
 350 005d 03       		.uleb128 0x3
 351 005e 04       		.byte	0x4
 352 005f 05       		.byte	0x5
 353 0060 696E7400 		.ascii	"int\000"
 354 0064 02       		.uleb128 0x2
 355 0065 04       		.byte	0x4
 356 0066 07       		.byte	0x7
 357 0067 83010000 		.4byte	.LASF8
 358 006b 04       		.uleb128 0x4
 359 006c 04020000 		.4byte	.LASF9
 360 0070 02       		.byte	0x2
 361 0071 3801     		.2byte	0x138
 362 0073 2C000000 		.4byte	0x2c
 363 0077 04       		.uleb128 0x4
 364 0078 22010000 		.4byte	.LASF10
 365 007c 02       		.byte	0x2
 366 007d 3901     		.2byte	0x139
 367 007f 3A000000 		.4byte	0x3a
 368 0083 04       		.uleb128 0x4
 369 0084 32010000 		.4byte	.LASF11
 370 0088 02       		.byte	0x2
 371 0089 3A01     		.2byte	0x13a
 372 008b 48000000 		.4byte	0x48
 373 008f 02       		.uleb128 0x2
 374 0090 04       		.byte	0x4
 375 0091 04       		.byte	0x4
 376 0092 20000000 		.4byte	.LASF12
 377 0096 02       		.uleb128 0x2
 378 0097 08       		.byte	0x8
 379 0098 04       		.byte	0x4
 380 0099 81000000 		.4byte	.LASF13
 381 009d 02       		.uleb128 0x2
 382 009e 01       		.byte	0x1
 383 009f 08       		.byte	0x8
 384 00a0 DF010000 		.4byte	.LASF14
 385 00a4 04       		.uleb128 0x4
 386 00a5 00000000 		.4byte	.LASF15
ARM GAS  C:\Users\DELL\AppData\Local\Temp\ccMS8vWu.s 			page 12


 387 00a9 02       		.byte	0x2
 388 00aa E401     		.2byte	0x1e4
 389 00ac B0000000 		.4byte	0xb0
 390 00b0 05       		.uleb128 0x5
 391 00b1 83000000 		.4byte	0x83
 392 00b5 06       		.uleb128 0x6
 393 00b6 0C000000 		.4byte	.LASF16
 394 00ba 01       		.byte	0x1
 395 00bb 48       		.byte	0x48
 396 00bc 00000000 		.4byte	.LFB0
 397 00c0 30000000 		.4byte	.LFE0-.LFB0
 398 00c4 01       		.uleb128 0x1
 399 00c5 9C       		.byte	0x9c
 400 00c6 D9000000 		.4byte	0xd9
 401 00ca 07       		.uleb128 0x7
 402 00cb BF010000 		.4byte	.LASF18
 403 00cf 01       		.byte	0x1
 404 00d0 48       		.byte	0x48
 405 00d1 6B000000 		.4byte	0x6b
 406 00d5 02       		.uleb128 0x2
 407 00d6 91       		.byte	0x91
 408 00d7 77       		.sleb128 -9
 409 00d8 00       		.byte	0
 410 00d9 06       		.uleb128 0x6
 411 00da 13020000 		.4byte	.LASF17
 412 00de 01       		.byte	0x1
 413 00df 6F       		.byte	0x6f
 414 00e0 00000000 		.4byte	.LFB1
 415 00e4 4C000000 		.4byte	.LFE1-.LFB1
 416 00e8 01       		.uleb128 0x1
 417 00e9 9C       		.byte	0x9c
 418 00ea 0B010000 		.4byte	0x10b
 419 00ee 07       		.uleb128 0x7
 420 00ef 06000000 		.4byte	.LASF19
 421 00f3 01       		.byte	0x1
 422 00f4 6F       		.byte	0x6f
 423 00f5 6B000000 		.4byte	0x6b
 424 00f9 02       		.uleb128 0x2
 425 00fa 91       		.byte	0x91
 426 00fb 6F       		.sleb128 -17
 427 00fc 08       		.uleb128 0x8
 428 00fd 56000000 		.4byte	.LASF24
 429 0101 01       		.byte	0x1
 430 0102 71       		.byte	0x71
 431 0103 6B000000 		.4byte	0x6b
 432 0107 02       		.uleb128 0x2
 433 0108 91       		.byte	0x91
 434 0109 77       		.sleb128 -9
 435 010a 00       		.byte	0
 436 010b 09       		.uleb128 0x9
 437 010c 88000000 		.4byte	.LASF20
 438 0110 01       		.byte	0x1
 439 0111 88       		.byte	0x88
 440 0112 6B000000 		.4byte	0x6b
 441 0116 00000000 		.4byte	.LFB2
 442 011a 1C000000 		.4byte	.LFE2-.LFB2
 443 011e 01       		.uleb128 0x1
ARM GAS  C:\Users\DELL\AppData\Local\Temp\ccMS8vWu.s 			page 13


 444 011f 9C       		.byte	0x9c
 445 0120 09       		.uleb128 0x9
 446 0121 2C020000 		.4byte	.LASF21
 447 0125 01       		.byte	0x1
 448 0126 A4       		.byte	0xa4
 449 0127 6B000000 		.4byte	0x6b
 450 012b 00000000 		.4byte	.LFB3
 451 012f 1C000000 		.4byte	.LFE3-.LFB3
 452 0133 01       		.uleb128 0x1
 453 0134 9C       		.byte	0x9c
 454 0135 06       		.uleb128 0x6
 455 0136 A7010000 		.4byte	.LASF22
 456 013a 01       		.byte	0x1
 457 013b CF       		.byte	0xcf
 458 013c 00000000 		.4byte	.LFB4
 459 0140 40000000 		.4byte	.LFE4-.LFB4
 460 0144 01       		.uleb128 0x1
 461 0145 9C       		.byte	0x9c
 462 0146 75010000 		.4byte	0x175
 463 014a 07       		.uleb128 0x7
 464 014b 29010000 		.4byte	.LASF23
 465 014f 01       		.byte	0x1
 466 0150 CF       		.byte	0xcf
 467 0151 77000000 		.4byte	0x77
 468 0155 02       		.uleb128 0x2
 469 0156 91       		.byte	0x91
 470 0157 6E       		.sleb128 -18
 471 0158 07       		.uleb128 0x7
 472 0159 BF010000 		.4byte	.LASF18
 473 015d 01       		.byte	0x1
 474 015e CF       		.byte	0xcf
 475 015f 77000000 		.4byte	0x77
 476 0163 02       		.uleb128 0x2
 477 0164 91       		.byte	0x91
 478 0165 6C       		.sleb128 -20
 479 0166 08       		.uleb128 0x8
 480 0167 7B010000 		.4byte	.LASF25
 481 016b 01       		.byte	0x1
 482 016c D1       		.byte	0xd1
 483 016d 83000000 		.4byte	0x83
 484 0171 02       		.uleb128 0x2
 485 0172 91       		.byte	0x91
 486 0173 74       		.sleb128 -12
 487 0174 00       		.byte	0
 488 0175 0A       		.uleb128 0xa
 489 0176 E4010000 		.4byte	.LASF26
 490 017a 01       		.byte	0x1
 491 017b EC       		.byte	0xec
 492 017c 6B000000 		.4byte	0x6b
 493 0180 00000000 		.4byte	.LFB5
 494 0184 30000000 		.4byte	.LFE5-.LFB5
 495 0188 01       		.uleb128 0x1
 496 0189 9C       		.byte	0x9c
 497 018a 08       		.uleb128 0x8
 498 018b D2010000 		.4byte	.LASF27
 499 018f 01       		.byte	0x1
 500 0190 EE       		.byte	0xee
ARM GAS  C:\Users\DELL\AppData\Local\Temp\ccMS8vWu.s 			page 14


 501 0191 6B000000 		.4byte	0x6b
 502 0195 02       		.uleb128 0x2
 503 0196 91       		.byte	0x91
 504 0197 77       		.sleb128 -9
 505 0198 00       		.byte	0
 506 0199 00       		.byte	0
 507              		.section	.debug_abbrev,"",%progbits
 508              	.Ldebug_abbrev0:
 509 0000 01       		.uleb128 0x1
 510 0001 11       		.uleb128 0x11
 511 0002 01       		.byte	0x1
 512 0003 25       		.uleb128 0x25
 513 0004 0E       		.uleb128 0xe
 514 0005 13       		.uleb128 0x13
 515 0006 0B       		.uleb128 0xb
 516 0007 03       		.uleb128 0x3
 517 0008 0E       		.uleb128 0xe
 518 0009 1B       		.uleb128 0x1b
 519 000a 0E       		.uleb128 0xe
 520 000b 55       		.uleb128 0x55
 521 000c 17       		.uleb128 0x17
 522 000d 11       		.uleb128 0x11
 523 000e 01       		.uleb128 0x1
 524 000f 10       		.uleb128 0x10
 525 0010 17       		.uleb128 0x17
 526 0011 00       		.byte	0
 527 0012 00       		.byte	0
 528 0013 02       		.uleb128 0x2
 529 0014 24       		.uleb128 0x24
 530 0015 00       		.byte	0
 531 0016 0B       		.uleb128 0xb
 532 0017 0B       		.uleb128 0xb
 533 0018 3E       		.uleb128 0x3e
 534 0019 0B       		.uleb128 0xb
 535 001a 03       		.uleb128 0x3
 536 001b 0E       		.uleb128 0xe
 537 001c 00       		.byte	0
 538 001d 00       		.byte	0
 539 001e 03       		.uleb128 0x3
 540 001f 24       		.uleb128 0x24
 541 0020 00       		.byte	0
 542 0021 0B       		.uleb128 0xb
 543 0022 0B       		.uleb128 0xb
 544 0023 3E       		.uleb128 0x3e
 545 0024 0B       		.uleb128 0xb
 546 0025 03       		.uleb128 0x3
 547 0026 08       		.uleb128 0x8
 548 0027 00       		.byte	0
 549 0028 00       		.byte	0
 550 0029 04       		.uleb128 0x4
 551 002a 16       		.uleb128 0x16
 552 002b 00       		.byte	0
 553 002c 03       		.uleb128 0x3
 554 002d 0E       		.uleb128 0xe
 555 002e 3A       		.uleb128 0x3a
 556 002f 0B       		.uleb128 0xb
 557 0030 3B       		.uleb128 0x3b
ARM GAS  C:\Users\DELL\AppData\Local\Temp\ccMS8vWu.s 			page 15


 558 0031 05       		.uleb128 0x5
 559 0032 49       		.uleb128 0x49
 560 0033 13       		.uleb128 0x13
 561 0034 00       		.byte	0
 562 0035 00       		.byte	0
 563 0036 05       		.uleb128 0x5
 564 0037 35       		.uleb128 0x35
 565 0038 00       		.byte	0
 566 0039 49       		.uleb128 0x49
 567 003a 13       		.uleb128 0x13
 568 003b 00       		.byte	0
 569 003c 00       		.byte	0
 570 003d 06       		.uleb128 0x6
 571 003e 2E       		.uleb128 0x2e
 572 003f 01       		.byte	0x1
 573 0040 3F       		.uleb128 0x3f
 574 0041 19       		.uleb128 0x19
 575 0042 03       		.uleb128 0x3
 576 0043 0E       		.uleb128 0xe
 577 0044 3A       		.uleb128 0x3a
 578 0045 0B       		.uleb128 0xb
 579 0046 3B       		.uleb128 0x3b
 580 0047 0B       		.uleb128 0xb
 581 0048 27       		.uleb128 0x27
 582 0049 19       		.uleb128 0x19
 583 004a 11       		.uleb128 0x11
 584 004b 01       		.uleb128 0x1
 585 004c 12       		.uleb128 0x12
 586 004d 06       		.uleb128 0x6
 587 004e 40       		.uleb128 0x40
 588 004f 18       		.uleb128 0x18
 589 0050 9742     		.uleb128 0x2117
 590 0052 19       		.uleb128 0x19
 591 0053 01       		.uleb128 0x1
 592 0054 13       		.uleb128 0x13
 593 0055 00       		.byte	0
 594 0056 00       		.byte	0
 595 0057 07       		.uleb128 0x7
 596 0058 05       		.uleb128 0x5
 597 0059 00       		.byte	0
 598 005a 03       		.uleb128 0x3
 599 005b 0E       		.uleb128 0xe
 600 005c 3A       		.uleb128 0x3a
 601 005d 0B       		.uleb128 0xb
 602 005e 3B       		.uleb128 0x3b
 603 005f 0B       		.uleb128 0xb
 604 0060 49       		.uleb128 0x49
 605 0061 13       		.uleb128 0x13
 606 0062 02       		.uleb128 0x2
 607 0063 18       		.uleb128 0x18
 608 0064 00       		.byte	0
 609 0065 00       		.byte	0
 610 0066 08       		.uleb128 0x8
 611 0067 34       		.uleb128 0x34
 612 0068 00       		.byte	0
 613 0069 03       		.uleb128 0x3
 614 006a 0E       		.uleb128 0xe
ARM GAS  C:\Users\DELL\AppData\Local\Temp\ccMS8vWu.s 			page 16


 615 006b 3A       		.uleb128 0x3a
 616 006c 0B       		.uleb128 0xb
 617 006d 3B       		.uleb128 0x3b
 618 006e 0B       		.uleb128 0xb
 619 006f 49       		.uleb128 0x49
 620 0070 13       		.uleb128 0x13
 621 0071 02       		.uleb128 0x2
 622 0072 18       		.uleb128 0x18
 623 0073 00       		.byte	0
 624 0074 00       		.byte	0
 625 0075 09       		.uleb128 0x9
 626 0076 2E       		.uleb128 0x2e
 627 0077 00       		.byte	0
 628 0078 3F       		.uleb128 0x3f
 629 0079 19       		.uleb128 0x19
 630 007a 03       		.uleb128 0x3
 631 007b 0E       		.uleb128 0xe
 632 007c 3A       		.uleb128 0x3a
 633 007d 0B       		.uleb128 0xb
 634 007e 3B       		.uleb128 0x3b
 635 007f 0B       		.uleb128 0xb
 636 0080 27       		.uleb128 0x27
 637 0081 19       		.uleb128 0x19
 638 0082 49       		.uleb128 0x49
 639 0083 13       		.uleb128 0x13
 640 0084 11       		.uleb128 0x11
 641 0085 01       		.uleb128 0x1
 642 0086 12       		.uleb128 0x12
 643 0087 06       		.uleb128 0x6
 644 0088 40       		.uleb128 0x40
 645 0089 18       		.uleb128 0x18
 646 008a 9742     		.uleb128 0x2117
 647 008c 19       		.uleb128 0x19
 648 008d 00       		.byte	0
 649 008e 00       		.byte	0
 650 008f 0A       		.uleb128 0xa
 651 0090 2E       		.uleb128 0x2e
 652 0091 01       		.byte	0x1
 653 0092 3F       		.uleb128 0x3f
 654 0093 19       		.uleb128 0x19
 655 0094 03       		.uleb128 0x3
 656 0095 0E       		.uleb128 0xe
 657 0096 3A       		.uleb128 0x3a
 658 0097 0B       		.uleb128 0xb
 659 0098 3B       		.uleb128 0x3b
 660 0099 0B       		.uleb128 0xb
 661 009a 27       		.uleb128 0x27
 662 009b 19       		.uleb128 0x19
 663 009c 49       		.uleb128 0x49
 664 009d 13       		.uleb128 0x13
 665 009e 11       		.uleb128 0x11
 666 009f 01       		.uleb128 0x1
 667 00a0 12       		.uleb128 0x12
 668 00a1 06       		.uleb128 0x6
 669 00a2 40       		.uleb128 0x40
 670 00a3 18       		.uleb128 0x18
 671 00a4 9742     		.uleb128 0x2117
ARM GAS  C:\Users\DELL\AppData\Local\Temp\ccMS8vWu.s 			page 17


 672 00a6 19       		.uleb128 0x19
 673 00a7 00       		.byte	0
 674 00a8 00       		.byte	0
 675 00a9 00       		.byte	0
 676              		.section	.debug_aranges,"",%progbits
 677 0000 44000000 		.4byte	0x44
 678 0004 0200     		.2byte	0x2
 679 0006 00000000 		.4byte	.Ldebug_info0
 680 000a 04       		.byte	0x4
 681 000b 00       		.byte	0
 682 000c 0000     		.2byte	0
 683 000e 0000     		.2byte	0
 684 0010 00000000 		.4byte	.LFB0
 685 0014 30000000 		.4byte	.LFE0-.LFB0
 686 0018 00000000 		.4byte	.LFB1
 687 001c 4C000000 		.4byte	.LFE1-.LFB1
 688 0020 00000000 		.4byte	.LFB2
 689 0024 1C000000 		.4byte	.LFE2-.LFB2
 690 0028 00000000 		.4byte	.LFB3
 691 002c 1C000000 		.4byte	.LFE3-.LFB3
 692 0030 00000000 		.4byte	.LFB4
 693 0034 40000000 		.4byte	.LFE4-.LFB4
 694 0038 00000000 		.4byte	.LFB5
 695 003c 30000000 		.4byte	.LFE5-.LFB5
 696 0040 00000000 		.4byte	0
 697 0044 00000000 		.4byte	0
 698              		.section	.debug_ranges,"",%progbits
 699              	.Ldebug_ranges0:
 700 0000 00000000 		.4byte	.LFB0
 701 0004 30000000 		.4byte	.LFE0
 702 0008 00000000 		.4byte	.LFB1
 703 000c 4C000000 		.4byte	.LFE1
 704 0010 00000000 		.4byte	.LFB2
 705 0014 1C000000 		.4byte	.LFE2
 706 0018 00000000 		.4byte	.LFB3
 707 001c 1C000000 		.4byte	.LFE3
 708 0020 00000000 		.4byte	.LFB4
 709 0024 40000000 		.4byte	.LFE4
 710 0028 00000000 		.4byte	.LFB5
 711 002c 30000000 		.4byte	.LFE5
 712 0030 00000000 		.4byte	0
 713 0034 00000000 		.4byte	0
 714              		.section	.debug_line,"",%progbits
 715              	.Ldebug_line0:
 716 0000 BC000000 		.section	.debug_str,"MS",%progbits,1
 716      02004500 
 716      00000201 
 716      FB0E0D00 
 716      01010101 
 717              	.LASF15:
 718 0000 72656733 		.ascii	"reg32\000"
 718      3200
 719              	.LASF19:
 720 0006 76616C75 		.ascii	"value\000"
 720      6500
 721              	.LASF16:
 722 000c 5265644C 		.ascii	"RedLED_SetDriveMode\000"
ARM GAS  C:\Users\DELL\AppData\Local\Temp\ccMS8vWu.s 			page 18


 722      45445F53 
 722      65744472 
 722      6976654D 
 722      6F646500 
 723              	.LASF12:
 724 0020 666C6F61 		.ascii	"float\000"
 724      7400
 725              	.LASF29:
 726 0026 2E5C4765 		.ascii	".\\Generated_Source\\PSoC4\\RedLED.c\000"
 726      6E657261 
 726      7465645F 
 726      536F7572 
 726      63655C50 
 727              	.LASF1:
 728 0048 756E7369 		.ascii	"unsigned char\000"
 728      676E6564 
 728      20636861 
 728      7200
 729              	.LASF24:
 730 0056 64725661 		.ascii	"drVal\000"
 730      6C00
 731              	.LASF5:
 732 005c 6C6F6E67 		.ascii	"long unsigned int\000"
 732      20756E73 
 732      69676E65 
 732      6420696E 
 732      7400
 733              	.LASF3:
 734 006e 73686F72 		.ascii	"short unsigned int\000"
 734      7420756E 
 734      7369676E 
 734      65642069 
 734      6E7400
 735              	.LASF13:
 736 0081 646F7562 		.ascii	"double\000"
 736      6C6500
 737              	.LASF20:
 738 0088 5265644C 		.ascii	"RedLED_Read\000"
 738      45445F52 
 738      65616400 
 739              	.LASF28:
 740 0094 474E5520 		.ascii	"GNU C 4.9.3 20150303 (release) [ARM/embedded-4_9-br"
 740      4320342E 
 740      392E3320 
 740      32303135 
 740      30333033 
 741 00c7 616E6368 		.ascii	"anch revision 221220] -mcpu=cortex-m0 -mthumb -g -O"
 741      20726576 
 741      6973696F 
 741      6E203232 
 741      31323230 
 742 00fa 30202D66 		.ascii	"0 -ffunction-sections -ffat-lto-objects\000"
 742      66756E63 
 742      74696F6E 
 742      2D736563 
 742      74696F6E 
 743              	.LASF10:
ARM GAS  C:\Users\DELL\AppData\Local\Temp\ccMS8vWu.s 			page 19


 744 0122 75696E74 		.ascii	"uint16\000"
 744      313600
 745              	.LASF23:
 746 0129 706F7369 		.ascii	"position\000"
 746      74696F6E 
 746      00
 747              	.LASF11:
 748 0132 75696E74 		.ascii	"uint32\000"
 748      333200
 749              	.LASF30:
 750 0139 433A5C55 		.ascii	"C:\\Users\\DELL\\Documents\\Psoc\\I2CStuff\\CE95314"
 750      73657273 
 750      5C44454C 
 750      4C5C446F 
 750      63756D65 
 751 0166 5C434539 		.ascii	"\\CE95314_P4200.cydsn\000"
 751      35333134 
 751      5F503432 
 751      30302E63 
 751      7964736E 
 752              	.LASF25:
 753 017b 696E7472 		.ascii	"intrCfg\000"
 753      43666700 
 754              	.LASF8:
 755 0183 756E7369 		.ascii	"unsigned int\000"
 755      676E6564 
 755      20696E74 
 755      00
 756              	.LASF7:
 757 0190 6C6F6E67 		.ascii	"long long unsigned int\000"
 757      206C6F6E 
 757      6720756E 
 757      7369676E 
 757      65642069 
 758              	.LASF22:
 759 01a7 5265644C 		.ascii	"RedLED_SetInterruptMode\000"
 759      45445F53 
 759      6574496E 
 759      74657272 
 759      7570744D 
 760              	.LASF18:
 761 01bf 6D6F6465 		.ascii	"mode\000"
 761      00
 762              	.LASF6:
 763 01c4 6C6F6E67 		.ascii	"long long int\000"
 763      206C6F6E 
 763      6720696E 
 763      7400
 764              	.LASF27:
 765 01d2 6D61736B 		.ascii	"maskedStatus\000"
 765      65645374 
 765      61747573 
 765      00
 766              	.LASF14:
 767 01df 63686172 		.ascii	"char\000"
 767      00
 768              	.LASF26:
ARM GAS  C:\Users\DELL\AppData\Local\Temp\ccMS8vWu.s 			page 20


 769 01e4 5265644C 		.ascii	"RedLED_ClearInterrupt\000"
 769      45445F43 
 769      6C656172 
 769      496E7465 
 769      72727570 
 770              	.LASF2:
 771 01fa 73686F72 		.ascii	"short int\000"
 771      7420696E 
 771      7400
 772              	.LASF9:
 773 0204 75696E74 		.ascii	"uint8\000"
 773      3800
 774              	.LASF4:
 775 020a 6C6F6E67 		.ascii	"long int\000"
 775      20696E74 
 775      00
 776              	.LASF17:
 777 0213 5265644C 		.ascii	"RedLED_Write\000"
 777      45445F57 
 777      72697465 
 777      00
 778              	.LASF0:
 779 0220 7369676E 		.ascii	"signed char\000"
 779      65642063 
 779      68617200 
 780              	.LASF21:
 781 022c 5265644C 		.ascii	"RedLED_ReadDataReg\000"
 781      45445F52 
 781      65616444 
 781      61746152 
 781      656700
 782              		.ident	"GCC: (GNU Tools for ARM Embedded Processors) 4.9.3 20150303 (release) [ARM/embedded-4_9-br
