ARM GAS  C:\Users\wbz\AppData\Local\Temp\ccoSGYrc.s 			page 1


   1              		.cpu cortex-m0
   2              		.fpu softvfp
   3              		.eabi_attribute 20, 1
   4              		.eabi_attribute 21, 1
   5              		.eabi_attribute 23, 3
   6              		.eabi_attribute 24, 1
   7              		.eabi_attribute 25, 1
   8              		.eabi_attribute 26, 1
   9              		.eabi_attribute 30, 6
  10              		.eabi_attribute 18, 4
  11              		.code	16
  12              		.file	"main.c"
  13              		.section	.debug_abbrev,"",%progbits
  14              	.Ldebug_abbrev0:
  15              		.section	.debug_info,"",%progbits
  16              	.Ldebug_info0:
  17              		.section	.debug_line,"",%progbits
  18              	.Ldebug_line0:
  19 0000 72000000 		.text
  19      02004500 
  19      00000201 
  19      FB0E0D00 
  19      01010101 
  20              	.Ltext0:
  21              		.cfi_sections	.debug_frame
  22              		.section	.rodata
  23              		.align	2
  24              	.LC0:
  25 0000 20202020 		.ascii	"                \000"
  25      20202020 
  25      20202020 
  25      20202020 
  25      00
  26 0011 000000   		.section	.text.main,"ax",%progbits
  27              		.align	2
  28              		.global	main
  29              		.code	16
  30              		.thumb_func
  31              		.type	main, %function
  32              	main:
  33              	.LFB20:
  34              		.file 1 ".\\main.c"
   1:.\main.c      **** /*******************************************************************************
   2:.\main.c      **** * File Name: main.c
   3:.\main.c      **** *
   4:.\main.c      **** * Version: 1.10
   5:.\main.c      **** *
   6:.\main.c      **** * Description:
   7:.\main.c      **** *  This project demonstrates the UART communication mechanism. 
   8:.\main.c      **** *  Data typed on the HyperTerminal is sent through serial port to the DVK and 
   9:.\main.c      **** *  displayed on the LCD. After that this data is sent back and displayed on the 
  10:.\main.c      **** *  HyperTerminal.
  11:.\main.c      **** *
  12:.\main.c      **** ********************************************************************************
  13:.\main.c      **** * Copyright 2013, Cypress Semiconductor Corporation. All rights reserved.
  14:.\main.c      **** * This software is owned by Cypress Semiconductor Corporation and is protected
  15:.\main.c      **** * by and subject to worldwide patent and copyright laws and treaties.
ARM GAS  C:\Users\wbz\AppData\Local\Temp\ccoSGYrc.s 			page 2


  16:.\main.c      **** * Therefore, you may use this software only as provided in the license agreement
  17:.\main.c      **** * accompanying the software package from which you obtained this software.
  18:.\main.c      **** * CYPRESS AND ITS SUPPLIERS MAKE NO WARRANTY OF ANY KIND, EXPRESS OR IMPLIED,
  19:.\main.c      **** * WITH REGARD TO THIS SOFTWARE, INCLUDING, BUT NOT LIMITED TO, NONINFRINGEMENT,
  20:.\main.c      **** * IMPLIED WARRANTIES OF MERCHANTABILITY AND FITNESS FOR A PARTICULAR PURPOSE.
  21:.\main.c      **** *******************************************************************************/
  22:.\main.c      **** 
  23:.\main.c      **** #include <device.h>
  24:.\main.c      **** 
  25:.\main.c      **** #define LCD_NUM_COLUMNS (16u)
  26:.\main.c      **** 
  27:.\main.c      **** void main()
  28:.\main.c      **** {   
  35              		.loc 1 28 0
  36              		.cfi_startproc
  37 0000 80B5     		push	{r7, lr}
  38              	.LCFI0:
  39              		.cfi_def_cfa_offset 8
  40              		.cfi_offset 7, -8
  41              		.cfi_offset 14, -4
  42 0002 82B0     		sub	sp, sp, #8
  43              	.LCFI1:
  44              		.cfi_def_cfa_offset 16
  45 0004 00AF     		add	r7, sp, #0
  46              	.LCFI2:
  47              		.cfi_def_cfa_register 7
  29:.\main.c      ****     uint8 ch;
  30:.\main.c      ****     uint8 count;
  31:.\main.c      ****     uint8 pos;
  32:.\main.c      **** 
  33:.\main.c      ****     /* Initialize variables */
  34:.\main.c      ****     count = 0u; /* Number of send characters   */
  48              		.loc 1 34 0
  49 0006 BB1D     		add	r3, r7, #6
  50 0008 0022     		mov	r2, #0
  51 000a 1A70     		strb	r2, [r3]
  35:.\main.c      ****     pos   = 0u; /* LCD position to output into */
  52              		.loc 1 35 0
  53 000c FB1D     		add	r3, r7, #7
  54 000e 0022     		mov	r2, #0
  55 0010 1A70     		strb	r2, [r3]
  36:.\main.c      ****             
  37:.\main.c      ****     UART_Start(); /* Start SCB UART TX+RX operation */
  56              		.loc 1 37 0
  57 0012 FFF7FEFF 		bl	UART_Start
  38:.\main.c      ****     
  39:.\main.c      ****     /* Start LCD operation and output information */
  40:.\main.c      ****     LCD_Start(); 
  58              		.loc 1 40 0
  59 0016 FFF7FEFF 		bl	LCD_Start
  41:.\main.c      ****     LCD_ClearDisplay();
  60              		.loc 1 41 0
  61 001a 0120     		mov	r0, #1
  62 001c FFF7FEFF 		bl	LCD_WriteControl
  63 0020 00E0     		b	.L4
  64              	.L6:
  42:.\main.c      **** 
ARM GAS  C:\Users\wbz\AppData\Local\Temp\ccoSGYrc.s 			page 3


  43:.\main.c      ****     for(;;)
  44:.\main.c      ****     {
  45:.\main.c      ****         /* Get received character or zero if nothing has been received yet */
  46:.\main.c      ****         ch = UART_UartGetChar(); 
  47:.\main.c      **** 
  48:.\main.c      ****         if(0u != ch)
  49:.\main.c      ****         {
  50:.\main.c      ****             count++; /* Increment number of characters that were sent */
  51:.\main.c      ****             
  52:.\main.c      ****             if(0u == (count % LCD_NUM_COLUMNS))
  53:.\main.c      ****             {
  54:.\main.c      ****                 /* Reach end of LCD. Clear it and start ouput from begin */
  55:.\main.c      ****                 pos = 0u;
  56:.\main.c      ****                 LCD_Position(0u, 0u);
  57:.\main.c      ****                 LCD_PrintString("                ");
  58:.\main.c      ****             }
  59:.\main.c      **** 
  60:.\main.c      ****             /* Output sent character on LCD */
  61:.\main.c      ****             LCD_Position(0u, pos);
  62:.\main.c      ****             LCD_PutChar(ch);
  63:.\main.c      ****             pos++; /* Output sent character in the next LCD position */
  64:.\main.c      ****                     
  65:.\main.c      ****             /* Output number of send characters */
  66:.\main.c      ****             LCD_Position(1u, 0u);
  67:.\main.c      ****             LCD_PrintNumber(count);
  68:.\main.c      ****                         
  69:.\main.c      ****             /* 
  70:.\main.c      ****             * Send the data through UART. This functions is blocking and waits until
  71:.\main.c      ****             * there is an entry into the TX FIFO.
  72:.\main.c      ****             */
  73:.\main.c      ****             UART_UartPutChar(ch);
  74:.\main.c      ****         }
  75:.\main.c      ****     }
  65              		.loc 1 75 0
  66 0022 C046     		mov	r8, r8
  67              	.L4:
  68              		.loc 1 46 0
  69 0024 FFF7FEFF 		bl	UART_UartGetChar
  70 0028 021C     		mov	r2, r0
  71 002a 7B1D     		add	r3, r7, #5
  72 002c 1A70     		strb	r2, [r3]
  73              		.loc 1 48 0
  74 002e 7B1D     		add	r3, r7, #5
  75 0030 1B78     		ldrb	r3, [r3]
  76 0032 002B     		cmp	r3, #0
  77 0034 F5D0     		beq	.L6
  78              		.loc 1 50 0
  79 0036 BB1D     		add	r3, r7, #6
  80 0038 BA1D     		add	r2, r7, #6
  81 003a 1278     		ldrb	r2, [r2]
  82 003c 0132     		add	r2, r2, #1
  83 003e 1A70     		strb	r2, [r3]
  84              		.loc 1 52 0
  85 0040 BB1D     		add	r3, r7, #6
  86 0042 1A78     		ldrb	r2, [r3]
  87 0044 0F23     		mov	r3, #15
  88 0046 1340     		and	r3, r3, r2
ARM GAS  C:\Users\wbz\AppData\Local\Temp\ccoSGYrc.s 			page 4


  89 0048 002B     		cmp	r3, #0
  90 004a 0AD1     		bne	.L3
  91              		.loc 1 55 0
  92 004c FB1D     		add	r3, r7, #7
  93 004e 0022     		mov	r2, #0
  94 0050 1A70     		strb	r2, [r3]
  95              		.loc 1 56 0
  96 0052 0020     		mov	r0, #0
  97 0054 0021     		mov	r1, #0
  98 0056 FFF7FEFF 		bl	LCD_Position
  99              		.loc 1 57 0
 100 005a 114B     		ldr	r3, .L7
 101 005c 181C     		mov	r0, r3
 102 005e FFF7FEFF 		bl	LCD_PrintString
 103              	.L3:
 104              		.loc 1 61 0
 105 0062 FB1D     		add	r3, r7, #7
 106 0064 1B78     		ldrb	r3, [r3]
 107 0066 0020     		mov	r0, #0
 108 0068 191C     		mov	r1, r3
 109 006a FFF7FEFF 		bl	LCD_Position
 110              		.loc 1 62 0
 111 006e 7B1D     		add	r3, r7, #5
 112 0070 1B78     		ldrb	r3, [r3]
 113 0072 181C     		mov	r0, r3
 114 0074 FFF7FEFF 		bl	LCD_PutChar
 115              		.loc 1 63 0
 116 0078 FB1D     		add	r3, r7, #7
 117 007a FA1D     		add	r2, r7, #7
 118 007c 1278     		ldrb	r2, [r2]
 119 007e 0132     		add	r2, r2, #1
 120 0080 1A70     		strb	r2, [r3]
 121              		.loc 1 66 0
 122 0082 0120     		mov	r0, #1
 123 0084 0021     		mov	r1, #0
 124 0086 FFF7FEFF 		bl	LCD_Position
 125              		.loc 1 67 0
 126 008a BB1D     		add	r3, r7, #6
 127 008c 1B78     		ldrb	r3, [r3]
 128 008e 181C     		mov	r0, r3
 129 0090 FFF7FEFF 		bl	LCD_PrintNumber
 130              		.loc 1 73 0
 131 0094 7B1D     		add	r3, r7, #5
 132 0096 1B78     		ldrb	r3, [r3]
 133 0098 181C     		mov	r0, r3
 134 009a FFF7FEFF 		bl	UART_SpiUartWriteTxData
 135              		.loc 1 75 0
 136 009e C1E7     		b	.L4
 137              	.L8:
 138              		.align	2
 139              	.L7:
 140 00a0 00000000 		.word	.LC0
 141              		.cfi_endproc
 142              	.LFE20:
 143              		.size	main, .-main
 144              		.text
 145              	.Letext0:
ARM GAS  C:\Users\wbz\AppData\Local\Temp\ccoSGYrc.s 			page 5


 146              		.section	.debug_loc,"",%progbits
 147              	.Ldebug_loc0:
 148              	.LLST0:
 149 0000 00000000 		.4byte	.LFB20
 150 0004 02000000 		.4byte	.LCFI0
 151 0008 0100     		.2byte	0x1
 152 000a 5D       		.byte	0x5d
 153 000b 02000000 		.4byte	.LCFI0
 154 000f 04000000 		.4byte	.LCFI1
 155 0013 0200     		.2byte	0x2
 156 0015 7D       		.byte	0x7d
 157 0016 08       		.sleb128 8
 158 0017 04000000 		.4byte	.LCFI1
 159 001b 06000000 		.4byte	.LCFI2
 160 001f 0200     		.2byte	0x2
 161 0021 7D       		.byte	0x7d
 162 0022 10       		.sleb128 16
 163 0023 06000000 		.4byte	.LCFI2
 164 0027 A4000000 		.4byte	.LFE20
 165 002b 0200     		.2byte	0x2
 166 002d 77       		.byte	0x77
 167 002e 10       		.sleb128 16
 168 002f 00000000 		.4byte	0x0
 169 0033 00000000 		.4byte	0x0
 170              		.file 2 "./Generated_Source/PSoC4/cytypes.h"
 171              		.section	.debug_info
 172 0000 CD000000 		.4byte	0xcd
 173 0004 0200     		.2byte	0x2
 174 0006 00000000 		.4byte	.Ldebug_abbrev0
 175 000a 04       		.byte	0x4
 176 000b 01       		.uleb128 0x1
 177 000c C9000000 		.4byte	.LASF13
 178 0010 01       		.byte	0x1
 179 0011 2D010000 		.4byte	.LASF14
 180 0015 0E000000 		.4byte	.LASF15
 181 0019 00000000 		.4byte	0x0
 182 001d 00000000 		.4byte	0x0
 183 0021 00000000 		.4byte	.Ldebug_ranges0+0x0
 184 0025 00000000 		.4byte	.Ldebug_line0
 185 0029 02       		.uleb128 0x2
 186 002a 01       		.byte	0x1
 187 002b 06       		.byte	0x6
 188 002c 1B010000 		.4byte	.LASF0
 189 0030 02       		.uleb128 0x2
 190 0031 01       		.byte	0x1
 191 0032 08       		.byte	0x8
 192 0033 D5000000 		.4byte	.LASF1
 193 0037 02       		.uleb128 0x2
 194 0038 02       		.byte	0x2
 195 0039 05       		.byte	0x5
 196 003a F7000000 		.4byte	.LASF2
 197 003e 02       		.uleb128 0x2
 198 003f 02       		.byte	0x2
 199 0040 07       		.byte	0x7
 200 0041 08010000 		.4byte	.LASF3
 201 0045 02       		.uleb128 0x2
 202 0046 04       		.byte	0x4
ARM GAS  C:\Users\wbz\AppData\Local\Temp\ccoSGYrc.s 			page 6


 203 0047 05       		.byte	0x5
 204 0048 EE000000 		.4byte	.LASF4
 205 004c 02       		.uleb128 0x2
 206 004d 04       		.byte	0x4
 207 004e 07       		.byte	0x7
 208 004f A0000000 		.4byte	.LASF5
 209 0053 02       		.uleb128 0x2
 210 0054 08       		.byte	0x8
 211 0055 05       		.byte	0x5
 212 0056 00000000 		.4byte	.LASF6
 213 005a 02       		.uleb128 0x2
 214 005b 08       		.byte	0x8
 215 005c 07       		.byte	0x7
 216 005d B2000000 		.4byte	.LASF7
 217 0061 03       		.uleb128 0x3
 218 0062 04       		.byte	0x4
 219 0063 05       		.byte	0x5
 220 0064 696E7400 		.ascii	"int\000"
 221 0068 02       		.uleb128 0x2
 222 0069 04       		.byte	0x4
 223 006a 07       		.byte	0x7
 224 006b 88000000 		.4byte	.LASF8
 225 006f 04       		.uleb128 0x4
 226 0070 9A000000 		.4byte	.LASF16
 227 0074 02       		.byte	0x2
 228 0075 4C       		.byte	0x4c
 229 0076 30000000 		.4byte	0x30
 230 007a 02       		.uleb128 0x2
 231 007b 04       		.byte	0x4
 232 007c 04       		.byte	0x4
 233 007d 27010000 		.4byte	.LASF9
 234 0081 02       		.uleb128 0x2
 235 0082 08       		.byte	0x8
 236 0083 04       		.byte	0x4
 237 0084 01010000 		.4byte	.LASF10
 238 0088 02       		.uleb128 0x2
 239 0089 01       		.byte	0x1
 240 008a 08       		.byte	0x8
 241 008b E3000000 		.4byte	.LASF11
 242 008f 05       		.uleb128 0x5
 243 0090 04       		.byte	0x4
 244 0091 07       		.byte	0x7
 245 0092 06       		.uleb128 0x6
 246 0093 01       		.byte	0x1
 247 0094 95000000 		.4byte	.LASF17
 248 0098 01       		.byte	0x1
 249 0099 1B       		.byte	0x1b
 250 009a 00000000 		.4byte	.LFB20
 251 009e A4000000 		.4byte	.LFE20
 252 00a2 00000000 		.4byte	.LLST0
 253 00a6 07       		.uleb128 0x7
 254 00a7 636800   		.ascii	"ch\000"
 255 00aa 01       		.byte	0x1
 256 00ab 1D       		.byte	0x1d
 257 00ac 6F000000 		.4byte	0x6f
 258 00b0 02       		.byte	0x2
 259 00b1 91       		.byte	0x91
ARM GAS  C:\Users\wbz\AppData\Local\Temp\ccoSGYrc.s 			page 7


 260 00b2 75       		.sleb128 -11
 261 00b3 08       		.uleb128 0x8
 262 00b4 E8000000 		.4byte	.LASF12
 263 00b8 01       		.byte	0x1
 264 00b9 1E       		.byte	0x1e
 265 00ba 6F000000 		.4byte	0x6f
 266 00be 02       		.byte	0x2
 267 00bf 91       		.byte	0x91
 268 00c0 76       		.sleb128 -10
 269 00c1 07       		.uleb128 0x7
 270 00c2 706F7300 		.ascii	"pos\000"
 271 00c6 01       		.byte	0x1
 272 00c7 1F       		.byte	0x1f
 273 00c8 6F000000 		.4byte	0x6f
 274 00cc 02       		.byte	0x2
 275 00cd 91       		.byte	0x91
 276 00ce 77       		.sleb128 -9
 277 00cf 00       		.byte	0x0
 278 00d0 00       		.byte	0x0
 279              		.section	.debug_abbrev
 280 0000 01       		.uleb128 0x1
 281 0001 11       		.uleb128 0x11
 282 0002 01       		.byte	0x1
 283 0003 25       		.uleb128 0x25
 284 0004 0E       		.uleb128 0xe
 285 0005 13       		.uleb128 0x13
 286 0006 0B       		.uleb128 0xb
 287 0007 03       		.uleb128 0x3
 288 0008 0E       		.uleb128 0xe
 289 0009 1B       		.uleb128 0x1b
 290 000a 0E       		.uleb128 0xe
 291 000b 11       		.uleb128 0x11
 292 000c 01       		.uleb128 0x1
 293 000d 52       		.uleb128 0x52
 294 000e 01       		.uleb128 0x1
 295 000f 55       		.uleb128 0x55
 296 0010 06       		.uleb128 0x6
 297 0011 10       		.uleb128 0x10
 298 0012 06       		.uleb128 0x6
 299 0013 00       		.byte	0x0
 300 0014 00       		.byte	0x0
 301 0015 02       		.uleb128 0x2
 302 0016 24       		.uleb128 0x24
 303 0017 00       		.byte	0x0
 304 0018 0B       		.uleb128 0xb
 305 0019 0B       		.uleb128 0xb
 306 001a 3E       		.uleb128 0x3e
 307 001b 0B       		.uleb128 0xb
 308 001c 03       		.uleb128 0x3
 309 001d 0E       		.uleb128 0xe
 310 001e 00       		.byte	0x0
 311 001f 00       		.byte	0x0
 312 0020 03       		.uleb128 0x3
 313 0021 24       		.uleb128 0x24
 314 0022 00       		.byte	0x0
 315 0023 0B       		.uleb128 0xb
 316 0024 0B       		.uleb128 0xb
ARM GAS  C:\Users\wbz\AppData\Local\Temp\ccoSGYrc.s 			page 8


 317 0025 3E       		.uleb128 0x3e
 318 0026 0B       		.uleb128 0xb
 319 0027 03       		.uleb128 0x3
 320 0028 08       		.uleb128 0x8
 321 0029 00       		.byte	0x0
 322 002a 00       		.byte	0x0
 323 002b 04       		.uleb128 0x4
 324 002c 16       		.uleb128 0x16
 325 002d 00       		.byte	0x0
 326 002e 03       		.uleb128 0x3
 327 002f 0E       		.uleb128 0xe
 328 0030 3A       		.uleb128 0x3a
 329 0031 0B       		.uleb128 0xb
 330 0032 3B       		.uleb128 0x3b
 331 0033 0B       		.uleb128 0xb
 332 0034 49       		.uleb128 0x49
 333 0035 13       		.uleb128 0x13
 334 0036 00       		.byte	0x0
 335 0037 00       		.byte	0x0
 336 0038 05       		.uleb128 0x5
 337 0039 24       		.uleb128 0x24
 338 003a 00       		.byte	0x0
 339 003b 0B       		.uleb128 0xb
 340 003c 0B       		.uleb128 0xb
 341 003d 3E       		.uleb128 0x3e
 342 003e 0B       		.uleb128 0xb
 343 003f 00       		.byte	0x0
 344 0040 00       		.byte	0x0
 345 0041 06       		.uleb128 0x6
 346 0042 2E       		.uleb128 0x2e
 347 0043 01       		.byte	0x1
 348 0044 3F       		.uleb128 0x3f
 349 0045 0C       		.uleb128 0xc
 350 0046 03       		.uleb128 0x3
 351 0047 0E       		.uleb128 0xe
 352 0048 3A       		.uleb128 0x3a
 353 0049 0B       		.uleb128 0xb
 354 004a 3B       		.uleb128 0x3b
 355 004b 0B       		.uleb128 0xb
 356 004c 11       		.uleb128 0x11
 357 004d 01       		.uleb128 0x1
 358 004e 12       		.uleb128 0x12
 359 004f 01       		.uleb128 0x1
 360 0050 40       		.uleb128 0x40
 361 0051 06       		.uleb128 0x6
 362 0052 00       		.byte	0x0
 363 0053 00       		.byte	0x0
 364 0054 07       		.uleb128 0x7
 365 0055 34       		.uleb128 0x34
 366 0056 00       		.byte	0x0
 367 0057 03       		.uleb128 0x3
 368 0058 08       		.uleb128 0x8
 369 0059 3A       		.uleb128 0x3a
 370 005a 0B       		.uleb128 0xb
 371 005b 3B       		.uleb128 0x3b
 372 005c 0B       		.uleb128 0xb
 373 005d 49       		.uleb128 0x49
ARM GAS  C:\Users\wbz\AppData\Local\Temp\ccoSGYrc.s 			page 9


 374 005e 13       		.uleb128 0x13
 375 005f 02       		.uleb128 0x2
 376 0060 0A       		.uleb128 0xa
 377 0061 00       		.byte	0x0
 378 0062 00       		.byte	0x0
 379 0063 08       		.uleb128 0x8
 380 0064 34       		.uleb128 0x34
 381 0065 00       		.byte	0x0
 382 0066 03       		.uleb128 0x3
 383 0067 0E       		.uleb128 0xe
 384 0068 3A       		.uleb128 0x3a
 385 0069 0B       		.uleb128 0xb
 386 006a 3B       		.uleb128 0x3b
 387 006b 0B       		.uleb128 0xb
 388 006c 49       		.uleb128 0x49
 389 006d 13       		.uleb128 0x13
 390 006e 02       		.uleb128 0x2
 391 006f 0A       		.uleb128 0xa
 392 0070 00       		.byte	0x0
 393 0071 00       		.byte	0x0
 394 0072 00       		.byte	0x0
 395              		.section	.debug_pubnames,"",%progbits
 396 0000 17000000 		.4byte	0x17
 397 0004 0200     		.2byte	0x2
 398 0006 00000000 		.4byte	.Ldebug_info0
 399 000a D1000000 		.4byte	0xd1
 400 000e 92000000 		.4byte	0x92
 401 0012 6D61696E 		.ascii	"main\000"
 401      00
 402 0017 00000000 		.4byte	0x0
 403              		.section	.debug_aranges,"",%progbits
 404 0000 1C000000 		.4byte	0x1c
 405 0004 0200     		.2byte	0x2
 406 0006 00000000 		.4byte	.Ldebug_info0
 407 000a 04       		.byte	0x4
 408 000b 00       		.byte	0x0
 409 000c 0000     		.2byte	0x0
 410 000e 0000     		.2byte	0x0
 411 0010 00000000 		.4byte	.LFB20
 412 0014 A4000000 		.4byte	.LFE20-.LFB20
 413 0018 00000000 		.4byte	0x0
 414 001c 00000000 		.4byte	0x0
 415              		.section	.debug_ranges,"",%progbits
 416              	.Ldebug_ranges0:
 417 0000 00000000 		.4byte	.Ltext0
 418 0004 00000000 		.4byte	.Letext0
 419 0008 00000000 		.4byte	.LFB20
 420 000c A4000000 		.4byte	.LFE20
 421 0010 00000000 		.4byte	0x0
 422 0014 00000000 		.4byte	0x0
 423              		.section	.debug_str,"MS",%progbits,1
 424              	.LASF6:
 425 0000 6C6F6E67 		.ascii	"long long int\000"
 425      206C6F6E 
 425      6720696E 
 425      7400
 426              	.LASF15:
ARM GAS  C:\Users\wbz\AppData\Local\Temp\ccoSGYrc.s 			page 10


 427 000e 433A5C55 		.ascii	"C:\\Users\\wbz\\Desktop\\Element14 Posts\\092 - Ser"
 427      73657273 
 427      5C77627A 
 427      5C446573 
 427      6B746F70 
 428 003c 69616C20 		.ascii	"ial Communication Examples - NS\\SCB_UartTxRxComm01"
 428      436F6D6D 
 428      756E6963 
 428      6174696F 
 428      6E204578 
 429 006e 5C534342 		.ascii	"\\SCB_UartTxRxComm01.cydsn\000"
 429      5F556172 
 429      74547852 
 429      78436F6D 
 429      6D30312E 
 430              	.LASF8:
 431 0088 756E7369 		.ascii	"unsigned int\000"
 431      676E6564 
 431      20696E74 
 431      00
 432              	.LASF17:
 433 0095 6D61696E 		.ascii	"main\000"
 433      00
 434              	.LASF16:
 435 009a 75696E74 		.ascii	"uint8\000"
 435      3800
 436              	.LASF5:
 437 00a0 6C6F6E67 		.ascii	"long unsigned int\000"
 437      20756E73 
 437      69676E65 
 437      6420696E 
 437      7400
 438              	.LASF7:
 439 00b2 6C6F6E67 		.ascii	"long long unsigned int\000"
 439      206C6F6E 
 439      6720756E 
 439      7369676E 
 439      65642069 
 440              	.LASF13:
 441 00c9 474E5520 		.ascii	"GNU C 4.4.1\000"
 441      4320342E 
 441      342E3100 
 442              	.LASF1:
 443 00d5 756E7369 		.ascii	"unsigned char\000"
 443      676E6564 
 443      20636861 
 443      7200
 444              	.LASF11:
 445 00e3 63686172 		.ascii	"char\000"
 445      00
 446              	.LASF12:
 447 00e8 636F756E 		.ascii	"count\000"
 447      7400
 448              	.LASF4:
 449 00ee 6C6F6E67 		.ascii	"long int\000"
 449      20696E74 
 449      00
ARM GAS  C:\Users\wbz\AppData\Local\Temp\ccoSGYrc.s 			page 11


 450              	.LASF2:
 451 00f7 73686F72 		.ascii	"short int\000"
 451      7420696E 
 451      7400
 452              	.LASF10:
 453 0101 646F7562 		.ascii	"double\000"
 453      6C6500
 454              	.LASF3:
 455 0108 73686F72 		.ascii	"short unsigned int\000"
 455      7420756E 
 455      7369676E 
 455      65642069 
 455      6E7400
 456              	.LASF0:
 457 011b 7369676E 		.ascii	"signed char\000"
 457      65642063 
 457      68617200 
 458              	.LASF9:
 459 0127 666C6F61 		.ascii	"float\000"
 459      7400
 460              	.LASF14:
 461 012d 2E5C6D61 		.ascii	".\\main.c\000"
 461      696E2E63 
 461      00
 462              		.ident	"GCC: (Sourcery G++ Lite 2010q1-188) 4.4.1"
